Fold 0
Model 0 best validation auc = 0.916667 on epoch 10
Model 0 test auc = 0.866667
Ensemble test auc = 0.866667
Fold 1
Model 0 best validation auc = 0.916667 on epoch 6
Model 0 test auc = 0.625000
Ensemble test auc = 0.625000
Fold 2
Model 0 best validation auc = 0.800000 on epoch 3
Model 0 test auc = 0.733333
Ensemble test auc = 0.733333
3-fold cross validation
	Seed 0 ==> test auc = 0.866667
	Seed 1 ==> test auc = 0.625000
	Seed 2 ==> test auc = 0.733333
Overall test auc = 0.741667 +/- 0.098836
