Command line
python main.py
Args
{'activation': 'ReLU',
 'adding_h': False,
 'aggregation': 'mean',
 'aggregation_norm': 100,
 'atom_descriptor_scaling': True,
 'atom_descriptors': None,
 'atom_descriptors_path': None,
 'atom_descriptors_size': 0,
 'atom_features_size': 0,
 'atom_messages': False,
 'batch_size': 50,
 'bias': False,
 'bias_solvent': False,
 'bond_feature_scaling': True,
 'bond_features_path': None,
 'bond_features_size': 0,
 'cache_cutoff': 10000,
 'checkpoint_dir': None,
 'checkpoint_frzn': None,
 'checkpoint_path': None,
 'checkpoint_paths': None,
 'class_balance': False,
 'config_path': None,
 'crossval_index_dir': None,
 'crossval_index_file': None,
 'crossval_index_sets': None,
 'cuda': True,
 'data_path': './data/HDM/SIRT2.csv',
 'data_weights_path': None,
 'dataset_type': 'classification',
 'depth': 3,
 'depth_solvent': 3,
 'device': device(type='cuda'),
 'dropout': 0.0,
 'empty_cache': False,
 'ensemble_size': 1,
 'epochs': 30,
 'evidential_regularization': 0,
 'explicit_h': False,
 'extra_metrics': [],
 'features_generator': None,
 'features_only': False,
 'features_path': None,
 'features_scaling': True,
 'features_size': None,
 'ffn_hidden_size': 300,
 'ffn_num_layers': 2,
 'final_lr': 0.0001,
 'folds_file': None,
 'frac_order': 1.0,
 'freeze_first_only': False,
 'frzn_ffn_layers': 0,
 'gpu': None,
 'grad_clip': None,
 'hidden_size': 300,
 'hidden_size_solvent': 300,
 'ignore_columns': None,
 'init_lr': 0.0001,
 'log_frequency': 10,
 'loss_function': 'binary_cross_entropy',
 'max_data_size': None,
 'max_lr': 0.001,
 'metric': 'auc',
 'metrics': ['auc'],
 'minimize_score': False,
 'model_name': 'GGNN',
 'mpn_shared': False,
 'multiclass_num_classes': 3,
 'no_atom_descriptor_scaling': False,
 'no_bond_features_scaling': False,
 'no_cache_mol': False,
 'no_cuda': False,
 'no_features_scaling': False,
 'num_folds': 3,
 'num_lrs': 1,
 'num_tasks': 1,
 'num_workers': 8,
 'number_of_molecules': 1,
 'optimizer': 'SGD',
 'overwrite_default_atom_features': False,
 'overwrite_default_bond_features': False,
 'phase_features_path': None,
 'pytorch_seed': 0,
 'quiet': False,
 'reaction': False,
 'reaction_mode': 'reac_diff',
 'reaction_solvent': False,
 'resume_experiment': False,
 'save_dir': './result/classification/HDM/SIRT2/GGNN/SGD/1.0',
 'save_preds': True,
 'save_smiles_splits': False,
 'seed': 0,
 'separate_test_atom_descriptors_path': None,
 'separate_test_bond_features_path': None,
 'separate_test_features_path': None,
 'separate_test_path': None,
 'separate_test_phase_features_path': None,
 'separate_val_atom_descriptors_path': None,
 'separate_val_bond_features_path': None,
 'separate_val_features_path': None,
 'separate_val_path': None,
 'separate_val_phase_features_path': None,
 'show_individual_scores': False,
 'smiles_columns': ['O=C1Nc2c(ccc(Cl)c2Cl)/C1=C/c1cc(Br)c(O)c(Br)c1'],
 'spectra_activation': 'exp',
 'spectra_phase_mask_path': None,
 'spectra_target_floor': 1e-08,
 'split_key_molecule': 0,
 'split_sizes': [0.8, 0.1, 0.1],
 'split_type': 'random',
 'target_columns': None,
 'target_weights': None,
 'task_names': ['0'],
 'test': False,
 'test_fold_index': None,
 'train_data_size': None,
 'undirected': False,
 'use_input_features': False,
 'val_fold_index': None,
 'warmup_epochs': 2.0}
Setting molecule featurization parameters to default.
Loading data
Number of tasks = 1
Fold 0
Splitting data with seed 0
Class sizes
0 0: 60.15%, 1: 39.85%
Total size = 532 | train size = 425 | val size = 53 | test size = 54
Building model 0
MoleculeModel(
  (sigmoid): Sigmoid()
  (encoder): GGNN(
    (encoder): ModuleList(
      (0): GGNNEncoder(
        (W_h): Linear(in_features=133, out_features=300, bias=False)
        (in_fc): Linear(in_features=300, out_features=300, bias=True)
        (out_fc): Linear(in_features=300, out_features=300, bias=True)
        (reset_gate): Sequential(
          (0): Linear(in_features=900, out_features=300, bias=True)
          (1): Sigmoid()
        )
        (update_gate): Sequential(
          (0): Linear(in_features=900, out_features=300, bias=True)
          (1): Sigmoid()
        )
        (transform): Sequential(
          (0): Linear(in_features=900, out_features=300, bias=True)
          (1): Tanh()
        )
        (out): Sequential(
          (0): Linear(in_features=300, out_features=300, bias=True)
          (1): Tanh()
          (2): Linear(in_features=300, out_features=300, bias=True)
        )
      )
    )
  )
  (ffn): Sequential(
    (0): Dropout(p=0.0, inplace=False)
    (1): Linear(in_features=300, out_features=300, bias=True)
    (2): ReLU()
    (3): Dropout(p=0.0, inplace=False)
    (4): Linear(in_features=300, out_features=1, bias=True)
  )
)
Number of parameters = 1,302,901
Moving model to cuda
Epoch 0
Validation auc = 0.310811
Epoch 1
Loss = 6.9996e-01, PNorm = 55.1750, GNorm = 0.4582, lr_0 = 7.7500e-04
Validation auc = 0.298986
Epoch 2
Loss = 6.9544e-01, PNorm = 55.1750, GNorm = 0.2482, lr_0 = 9.4019e-04
Validation auc = 0.271959
Epoch 3
Loss = 6.9317e-01, PNorm = 55.1750, GNorm = 1.0890, lr_0 = 8.3967e-04
Validation auc = 0.258446
Epoch 4
Loss = 6.9130e-01, PNorm = 55.1750, GNorm = 0.9150, lr_0 = 7.5764e-04
Validation auc = 0.258446
Epoch 5
Loss = 6.8829e-01, PNorm = 55.1750, GNorm = 0.3973, lr_0 = 6.7664e-04
Validation auc = 0.248311
Epoch 6
Validation auc = 0.248311
Epoch 7
Loss = 6.7870e-01, PNorm = 55.1750, GNorm = 0.9253, lr_0 = 6.0430e-04
Validation auc = 0.243243
Epoch 8
Loss = 6.8555e-01, PNorm = 55.1750, GNorm = 0.2996, lr_0 = 5.4526e-04
Validation auc = 0.255068
Epoch 9
Loss = 6.7994e-01, PNorm = 55.1750, GNorm = 0.3726, lr_0 = 4.8697e-04
Validation auc = 0.271959
Epoch 10
Loss = 6.7862e-01, PNorm = 55.1750, GNorm = 0.6675, lr_0 = 4.3940e-04
Validation auc = 0.297297
Epoch 11
Loss = 6.8460e-01, PNorm = 55.1750, GNorm = 0.1785, lr_0 = 3.9242e-04
Validation auc = 0.315878
Epoch 12
Loss = 6.8418e-01, PNorm = 55.1750, GNorm = 0.2070, lr_0 = 3.5408e-04
Loss = 6.5375e-01, PNorm = 55.1750, GNorm = 1.4278, lr_0 = 3.5046e-04
Validation auc = 0.332770
Epoch 13
Validation auc = 0.359797
Epoch 14
Loss = 6.5004e-01, PNorm = 55.1750, GNorm = 1.4678, lr_0 = 3.1623e-04
Validation auc = 0.378378
Epoch 15
Loss = 6.8503e-01, PNorm = 55.1750, GNorm = 0.1726, lr_0 = 2.8242e-04
Validation auc = 0.400338
Epoch 16
Loss = 6.8568e-01, PNorm = 55.1750, GNorm = 0.2496, lr_0 = 2.5483e-04
Validation auc = 0.405405
Epoch 17
Loss = 6.8354e-01, PNorm = 55.1750, GNorm = 0.6245, lr_0 = 2.2758e-04
Validation auc = 0.412162
Epoch 18
Loss = 6.8043e-01, PNorm = 55.1750, GNorm = 0.4939, lr_0 = 2.0535e-04
Validation auc = 0.423986
Epoch 19
Loss = 6.8226e-01, PNorm = 55.1750, GNorm = 0.8153, lr_0 = 1.8340e-04
Validation auc = 0.434122
Epoch 20
Validation auc = 0.442568
Epoch 21
Loss = 6.8108e-01, PNorm = 55.1751, GNorm = 0.5040, lr_0 = 1.6379e-04
Validation auc = 0.452703
Epoch 22
Loss = 6.7301e-01, PNorm = 55.1751, GNorm = 0.7155, lr_0 = 1.4779e-04
Validation auc = 0.464527
Epoch 23
Loss = 6.8104e-01, PNorm = 55.1751, GNorm = 0.2661, lr_0 = 1.3199e-04
Validation auc = 0.467905
Epoch 24
Loss = 6.8075e-01, PNorm = 55.1751, GNorm = 0.6181, lr_0 = 1.1909e-04
Validation auc = 0.467905
Epoch 25
Loss = 6.7919e-01, PNorm = 55.1751, GNorm = 0.2785, lr_0 = 1.0636e-04
Validation auc = 0.471284
Epoch 26
Validation auc = 0.474662
Epoch 27
Loss = 6.7298e-01, PNorm = 55.1751, GNorm = 0.4304, lr_0 = 1.0000e-04
Validation auc = 0.474662
Epoch 28
Loss = 6.8567e-01, PNorm = 55.1751, GNorm = 0.2892, lr_0 = 1.0000e-04
Validation auc = 0.476351
Epoch 29
Loss = 6.8711e-01, PNorm = 55.1751, GNorm = 0.5343, lr_0 = 1.0000e-04
Validation auc = 0.481419
Model 0 best validation auc = 0.481419 on epoch 29
Loading pretrained parameter "encoder.encoder.0.cached_zero_vector".
Loading pretrained parameter "encoder.encoder.0.W_h.weight".
Loading pretrained parameter "encoder.encoder.0.in_fc.weight".
Loading pretrained parameter "encoder.encoder.0.in_fc.bias".
Loading pretrained parameter "encoder.encoder.0.out_fc.weight".
Loading pretrained parameter "encoder.encoder.0.out_fc.bias".
Loading pretrained parameter "encoder.encoder.0.reset_gate.0.weight".
Loading pretrained parameter "encoder.encoder.0.reset_gate.0.bias".
Loading pretrained parameter "encoder.encoder.0.update_gate.0.weight".
Loading pretrained parameter "encoder.encoder.0.update_gate.0.bias".
Loading pretrained parameter "encoder.encoder.0.transform.0.weight".
Loading pretrained parameter "encoder.encoder.0.transform.0.bias".
Loading pretrained parameter "encoder.encoder.0.out.0.weight".
Loading pretrained parameter "encoder.encoder.0.out.0.bias".
Loading pretrained parameter "encoder.encoder.0.out.2.weight".
Loading pretrained parameter "encoder.encoder.0.out.2.bias".
Loading pretrained parameter "ffn.1.weight".
Loading pretrained parameter "ffn.1.bias".
Loading pretrained parameter "ffn.4.weight".
Loading pretrained parameter "ffn.4.bias".
Moving model to cuda
Model 0 test auc = 0.489706
Ensemble test auc = 0.489706
Fold 1
Splitting data with seed 1
Class sizes
0 0: 60.15%, 1: 39.85%
Total size = 532 | train size = 425 | val size = 53 | test size = 54
Building model 0
MoleculeModel(
  (sigmoid): Sigmoid()
  (encoder): GGNN(
    (encoder): ModuleList(
      (0): GGNNEncoder(
        (W_h): Linear(in_features=133, out_features=300, bias=False)
        (in_fc): Linear(in_features=300, out_features=300, bias=True)
        (out_fc): Linear(in_features=300, out_features=300, bias=True)
        (reset_gate): Sequential(
          (0): Linear(in_features=900, out_features=300, bias=True)
          (1): Sigmoid()
        )
        (update_gate): Sequential(
          (0): Linear(in_features=900, out_features=300, bias=True)
          (1): Sigmoid()
        )
        (transform): Sequential(
          (0): Linear(in_features=900, out_features=300, bias=True)
          (1): Tanh()
        )
        (out): Sequential(
          (0): Linear(in_features=300, out_features=300, bias=True)
          (1): Tanh()
          (2): Linear(in_features=300, out_features=300, bias=True)
        )
      )
    )
  )
  (ffn): Sequential(
    (0): Dropout(p=0.0, inplace=False)
    (1): Linear(in_features=300, out_features=300, bias=True)
    (2): ReLU()
    (3): Dropout(p=0.0, inplace=False)
    (4): Linear(in_features=300, out_features=1, bias=True)
  )
)
Number of parameters = 1,302,901
Moving model to cuda
Epoch 0
Validation auc = 0.458571
Epoch 1
Loss = 7.0098e-01, PNorm = 55.1750, GNorm = 0.7144, lr_0 = 7.7500e-04
Validation auc = 0.448571
Epoch 2
Loss = 6.9502e-01, PNorm = 55.1750, GNorm = 0.7124, lr_0 = 9.4019e-04
Validation auc = 0.431429
Epoch 3
Loss = 6.9064e-01, PNorm = 55.1750, GNorm = 0.8403, lr_0 = 8.3967e-04
Validation auc = 0.440000
Epoch 4
Loss = 6.8648e-01, PNorm = 55.1750, GNorm = 1.0454, lr_0 = 7.5764e-04
Validation auc = 0.430000
Epoch 5
Loss = 6.8338e-01, PNorm = 55.1750, GNorm = 0.3479, lr_0 = 6.7664e-04
Validation auc = 0.411429
Epoch 6
Validation auc = 0.432857
Epoch 7
Loss = 6.6187e-01, PNorm = 55.1750, GNorm = 1.2811, lr_0 = 6.0430e-04
Validation auc = 0.464286
Epoch 8
Loss = 6.8237e-01, PNorm = 55.1750, GNorm = 0.1824, lr_0 = 5.4526e-04
Validation auc = 0.467143
Epoch 9
Loss = 6.8146e-01, PNorm = 55.1750, GNorm = 0.4385, lr_0 = 4.8697e-04
Validation auc = 0.481429
Epoch 10
Loss = 6.7607e-01, PNorm = 55.1750, GNorm = 0.3100, lr_0 = 4.3940e-04
Validation auc = 0.495714
Epoch 11
Loss = 6.8035e-01, PNorm = 55.1750, GNorm = 0.2281, lr_0 = 3.9242e-04
Validation auc = 0.492857
Epoch 12
Loss = 6.7452e-01, PNorm = 55.1751, GNorm = 0.5385, lr_0 = 3.5408e-04
Loss = 6.9668e-01, PNorm = 55.1751, GNorm = 0.4261, lr_0 = 3.5046e-04
Validation auc = 0.492857
Epoch 13
Validation auc = 0.495714
Epoch 14
Loss = 6.6326e-01, PNorm = 55.1751, GNorm = 0.7109, lr_0 = 3.1623e-04
Validation auc = 0.495714
Epoch 15
Loss = 6.7950e-01, PNorm = 55.1751, GNorm = 0.2903, lr_0 = 2.8242e-04
Validation auc = 0.498571
Epoch 16
Loss = 6.6368e-01, PNorm = 55.1751, GNorm = 0.2196, lr_0 = 2.5483e-04
Validation auc = 0.500000
Epoch 17
Loss = 6.7712e-01, PNorm = 55.1751, GNorm = 0.3304, lr_0 = 2.2758e-04
Validation auc = 0.504286
Epoch 18
Loss = 6.7773e-01, PNorm = 55.1751, GNorm = 0.2262, lr_0 = 2.0535e-04
Validation auc = 0.507143
Epoch 19
Loss = 6.7353e-01, PNorm = 55.1751, GNorm = 0.2593, lr_0 = 1.8340e-04
Validation auc = 0.510000
Epoch 20
Validation auc = 0.507143
Epoch 21
Loss = 6.7526e-01, PNorm = 55.1751, GNorm = 0.2709, lr_0 = 1.6379e-04
Validation auc = 0.507143
Epoch 22
Loss = 6.6157e-01, PNorm = 55.1751, GNorm = 0.3814, lr_0 = 1.4779e-04
Validation auc = 0.507143
Epoch 23
Loss = 6.8214e-01, PNorm = 55.1751, GNorm = 0.4918, lr_0 = 1.3199e-04
Validation auc = 0.507143
Epoch 24
Loss = 6.7579e-01, PNorm = 55.1751, GNorm = 0.3642, lr_0 = 1.1909e-04
Validation auc = 0.507143
Epoch 25
Loss = 6.7160e-01, PNorm = 55.1751, GNorm = 0.7811, lr_0 = 1.0636e-04
Validation auc = 0.507143
Epoch 26
Validation auc = 0.507143
Epoch 27
Loss = 6.7274e-01, PNorm = 55.1751, GNorm = 0.3038, lr_0 = 1.0000e-04
Validation auc = 0.508571
Epoch 28
Loss = 6.5315e-01, PNorm = 55.1751, GNorm = 0.5405, lr_0 = 1.0000e-04
Validation auc = 0.511429
Epoch 29
Loss = 6.6512e-01, PNorm = 55.1751, GNorm = 0.4272, lr_0 = 1.0000e-04
Validation auc = 0.511429
Model 0 best validation auc = 0.511429 on epoch 28
Loading pretrained parameter "encoder.encoder.0.cached_zero_vector".
Loading pretrained parameter "encoder.encoder.0.W_h.weight".
Loading pretrained parameter "encoder.encoder.0.in_fc.weight".
Loading pretrained parameter "encoder.encoder.0.in_fc.bias".
Loading pretrained parameter "encoder.encoder.0.out_fc.weight".
Loading pretrained parameter "encoder.encoder.0.out_fc.bias".
Loading pretrained parameter "encoder.encoder.0.reset_gate.0.weight".
Loading pretrained parameter "encoder.encoder.0.reset_gate.0.bias".
Loading pretrained parameter "encoder.encoder.0.update_gate.0.weight".
Loading pretrained parameter "encoder.encoder.0.update_gate.0.bias".
Loading pretrained parameter "encoder.encoder.0.transform.0.weight".
Loading pretrained parameter "encoder.encoder.0.transform.0.bias".
Loading pretrained parameter "encoder.encoder.0.out.0.weight".
Loading pretrained parameter "encoder.encoder.0.out.0.bias".
Loading pretrained parameter "encoder.encoder.0.out.2.weight".
Loading pretrained parameter "encoder.encoder.0.out.2.bias".
Loading pretrained parameter "ffn.1.weight".
Loading pretrained parameter "ffn.1.bias".
Loading pretrained parameter "ffn.4.weight".
Loading pretrained parameter "ffn.4.bias".
Moving model to cuda
Model 0 test auc = 0.534559
Ensemble test auc = 0.534559
Fold 2
Splitting data with seed 2
Class sizes
0 0: 60.15%, 1: 39.85%
Total size = 532 | train size = 425 | val size = 53 | test size = 54
Building model 0
MoleculeModel(
  (sigmoid): Sigmoid()
  (encoder): GGNN(
    (encoder): ModuleList(
      (0): GGNNEncoder(
        (W_h): Linear(in_features=133, out_features=300, bias=False)
        (in_fc): Linear(in_features=300, out_features=300, bias=True)
        (out_fc): Linear(in_features=300, out_features=300, bias=True)
        (reset_gate): Sequential(
          (0): Linear(in_features=900, out_features=300, bias=True)
          (1): Sigmoid()
        )
        (update_gate): Sequential(
          (0): Linear(in_features=900, out_features=300, bias=True)
          (1): Sigmoid()
        )
        (transform): Sequential(
          (0): Linear(in_features=900, out_features=300, bias=True)
          (1): Tanh()
        )
        (out): Sequential(
          (0): Linear(in_features=300, out_features=300, bias=True)
          (1): Tanh()
          (2): Linear(in_features=300, out_features=300, bias=True)
        )
      )
    )
  )
  (ffn): Sequential(
    (0): Dropout(p=0.0, inplace=False)
    (1): Linear(in_features=300, out_features=300, bias=True)
    (2): ReLU()
    (3): Dropout(p=0.0, inplace=False)
    (4): Linear(in_features=300, out_features=1, bias=True)
  )
)
Number of parameters = 1,302,901
Moving model to cuda
Epoch 0
Validation auc = 0.423851
Epoch 1
Loss = 7.0204e-01, PNorm = 55.1750, GNorm = 0.6908, lr_0 = 7.7500e-04
Validation auc = 0.390805
Epoch 2
Loss = 6.9699e-01, PNorm = 55.1750, GNorm = 1.1440, lr_0 = 9.4019e-04
Validation auc = 0.359195
Epoch 3
Loss = 6.9011e-01, PNorm = 55.1750, GNorm = 0.9902, lr_0 = 8.3967e-04
Validation auc = 0.367816
Epoch 4
Loss = 6.8532e-01, PNorm = 55.1750, GNorm = 0.7668, lr_0 = 7.5764e-04
Validation auc = 0.370690
Epoch 5
Loss = 6.8262e-01, PNorm = 55.1750, GNorm = 0.4750, lr_0 = 6.7664e-04
Validation auc = 0.330460
Epoch 6
Validation auc = 0.314655
Epoch 7
Loss = 6.9420e-01, PNorm = 55.1750, GNorm = 0.2071, lr_0 = 6.0430e-04
Validation auc = 0.310345
Epoch 8
Loss = 6.6220e-01, PNorm = 55.1750, GNorm = 0.8997, lr_0 = 5.4526e-04
Validation auc = 0.333333
Epoch 9
Loss = 6.7357e-01, PNorm = 55.1750, GNorm = 0.6180, lr_0 = 4.8697e-04
Validation auc = 0.349138
Epoch 10
Loss = 6.6798e-01, PNorm = 55.1751, GNorm = 1.0399, lr_0 = 4.3940e-04
Validation auc = 0.364943
Epoch 11
Loss = 6.7337e-01, PNorm = 55.1751, GNorm = 0.2636, lr_0 = 3.9242e-04
Validation auc = 0.377874
Epoch 12
Loss = 6.7523e-01, PNorm = 55.1751, GNorm = 0.8091, lr_0 = 3.5408e-04
Loss = 6.5784e-01, PNorm = 55.1751, GNorm = 0.8883, lr_0 = 3.5046e-04
Validation auc = 0.389368
Epoch 13
Validation auc = 0.393678
Epoch 14
Loss = 6.8761e-01, PNorm = 55.1751, GNorm = 0.1631, lr_0 = 3.1623e-04
Validation auc = 0.399425
Epoch 15
Loss = 6.7350e-01, PNorm = 55.1751, GNorm = 0.2392, lr_0 = 2.8242e-04
Validation auc = 0.403736
Epoch 16
Loss = 6.7121e-01, PNorm = 55.1751, GNorm = 0.3680, lr_0 = 2.5483e-04
Validation auc = 0.412356
Epoch 17
Loss = 6.7679e-01, PNorm = 55.1751, GNorm = 0.1589, lr_0 = 2.2758e-04
Validation auc = 0.419540
Epoch 18
Loss = 6.7478e-01, PNorm = 55.1751, GNorm = 0.3852, lr_0 = 2.0535e-04
Validation auc = 0.419540
Epoch 19
Loss = 6.7322e-01, PNorm = 55.1751, GNorm = 0.5930, lr_0 = 1.8340e-04
Validation auc = 0.426724
Epoch 20
Validation auc = 0.425287
Epoch 21
Loss = 6.6496e-01, PNorm = 55.1751, GNorm = 0.5872, lr_0 = 1.6379e-04
Validation auc = 0.425287
Epoch 22
Loss = 6.7531e-01, PNorm = 55.1751, GNorm = 0.3937, lr_0 = 1.4779e-04
Validation auc = 0.431034
Epoch 23
Loss = 6.8130e-01, PNorm = 55.1751, GNorm = 0.3953, lr_0 = 1.3199e-04
Validation auc = 0.433908
Epoch 24
Loss = 6.7237e-01, PNorm = 55.1751, GNorm = 0.5956, lr_0 = 1.1909e-04
Validation auc = 0.433908
Epoch 25
Loss = 6.6558e-01, PNorm = 55.1751, GNorm = 0.2804, lr_0 = 1.0636e-04
Validation auc = 0.431034
Epoch 26
Validation auc = 0.433908
Epoch 27
Loss = 6.6730e-01, PNorm = 55.1751, GNorm = 0.3870, lr_0 = 1.0000e-04
Validation auc = 0.432471
Epoch 28
Loss = 6.7180e-01, PNorm = 55.1751, GNorm = 0.1493, lr_0 = 1.0000e-04
Validation auc = 0.436782
Epoch 29
Loss = 6.8770e-01, PNorm = 55.1751, GNorm = 0.5652, lr_0 = 1.0000e-04
Validation auc = 0.441092
Model 0 best validation auc = 0.441092 on epoch 29
Loading pretrained parameter "encoder.encoder.0.cached_zero_vector".
Loading pretrained parameter "encoder.encoder.0.W_h.weight".
Loading pretrained parameter "encoder.encoder.0.in_fc.weight".
Loading pretrained parameter "encoder.encoder.0.in_fc.bias".
Loading pretrained parameter "encoder.encoder.0.out_fc.weight".
Loading pretrained parameter "encoder.encoder.0.out_fc.bias".
Loading pretrained parameter "encoder.encoder.0.reset_gate.0.weight".
Loading pretrained parameter "encoder.encoder.0.reset_gate.0.bias".
Loading pretrained parameter "encoder.encoder.0.update_gate.0.weight".
Loading pretrained parameter "encoder.encoder.0.update_gate.0.bias".
Loading pretrained parameter "encoder.encoder.0.transform.0.weight".
Loading pretrained parameter "encoder.encoder.0.transform.0.bias".
Loading pretrained parameter "encoder.encoder.0.out.0.weight".
Loading pretrained parameter "encoder.encoder.0.out.0.bias".
Loading pretrained parameter "encoder.encoder.0.out.2.weight".
Loading pretrained parameter "encoder.encoder.0.out.2.bias".
Loading pretrained parameter "ffn.1.weight".
Loading pretrained parameter "ffn.1.bias".
Loading pretrained parameter "ffn.4.weight".
Loading pretrained parameter "ffn.4.bias".
Moving model to cuda
Model 0 test auc = 0.573633
Ensemble test auc = 0.573633
3-fold cross validation
	Seed 0 ==> test auc = 0.489706
	Seed 1 ==> test auc = 0.534559
	Seed 2 ==> test auc = 0.573633
Overall test auc = 0.532632 +/- 0.034290
