Fold 0
Model 0 best validation auc = 0.847973 on epoch 17
Model 0 test auc = 0.670588
Ensemble test auc = 0.670588
Fold 1
Model 0 best validation auc = 0.805714 on epoch 24
Model 0 test auc = 0.717647
Ensemble test auc = 0.717647
Fold 2
Model 0 best validation auc = 0.699713 on epoch 21
Model 0 test auc = 0.726508
Ensemble test auc = 0.726508
3-fold cross validation
	Seed 0 ==> test auc = 0.670588
	Seed 1 ==> test auc = 0.717647
	Seed 2 ==> test auc = 0.726508
Overall test auc = 0.704914 +/- 0.024540
