Fold 0
Model 0 best validation auc = 0.982143 on epoch 23
Model 0 test auc = 0.915385
Ensemble test auc = 0.915385
Fold 1
Model 0 best validation auc = 1.000000 on epoch 9
Model 0 test auc = 0.814815
Ensemble test auc = 0.814815
Fold 2
Model 0 best validation auc = 1.000000 on epoch 6
Model 0 test auc = 0.869048
Ensemble test auc = 0.869048
3-fold cross validation
	Seed 0 ==> test auc = 0.915385
	Seed 1 ==> test auc = 0.814815
	Seed 2 ==> test auc = 0.869048
Overall test auc = 0.866416 +/- 0.041100
