Fold 0
Model 0 best validation auc = 0.821429 on epoch 27
Model 0 test auc = 0.415385
Ensemble test auc = 0.415385
Fold 1
Model 0 best validation auc = 0.500000 on epoch 17
Model 0 test auc = 0.666667
Ensemble test auc = 0.666667
Fold 2
Model 0 best validation auc = 0.641975 on epoch 14
Model 0 test auc = 0.952381
Ensemble test auc = 0.952381
3-fold cross validation
	Seed 0 ==> test auc = 0.415385
	Seed 1 ==> test auc = 0.666667
	Seed 2 ==> test auc = 0.952381
Overall test auc = 0.678144 +/- 0.219378
