Fold 0
Model 0 best validation auc = 1.000000 on epoch 7
Model 0 test auc = 0.769231
Ensemble test auc = 0.769231
Fold 1
Model 0 best validation auc = 0.973333 on epoch 10
Model 0 test auc = 0.919192
Ensemble test auc = 0.919192
Fold 2
Model 0 best validation auc = 0.845238 on epoch 17
Model 0 test auc = 0.875000
Ensemble test auc = 0.875000
3-fold cross validation
	Seed 0 ==> test auc = 0.769231
	Seed 1 ==> test auc = 0.919192
	Seed 2 ==> test auc = 0.875000
Overall test auc = 0.854474 +/- 0.062918
