Fold 0
Model 0 best validation auc = 0.809524 on epoch 19
Model 0 test auc = 0.380952
Ensemble test auc = 0.380952
Fold 1
Model 0 best validation auc = 0.791667 on epoch 29
Model 0 test auc = 1.000000
Ensemble test auc = 1.000000
Fold 2
Model 0 best validation auc = 0.937500 on epoch 2
Model 0 test auc = 0.320000
Ensemble test auc = 0.320000
3-fold cross validation
	Seed 0 ==> test auc = 0.380952
	Seed 1 ==> test auc = 1.000000
	Seed 2 ==> test auc = 0.320000
Overall test auc = 0.566984 +/- 0.307198
