Command line
python main.py
Args
{'activation': 'ReLU',
 'adding_h': False,
 'aggregation': 'mean',
 'aggregation_norm': 100,
 'atom_descriptor_scaling': True,
 'atom_descriptors': None,
 'atom_descriptors_path': None,
 'atom_descriptors_size': 0,
 'atom_features_size': 0,
 'atom_messages': False,
 'batch_size': 50,
 'bias': False,
 'bias_solvent': False,
 'bond_feature_scaling': True,
 'bond_features_path': None,
 'bond_features_size': 0,
 'cache_cutoff': 10000,
 'checkpoint_dir': None,
 'checkpoint_frzn': None,
 'checkpoint_path': None,
 'checkpoint_paths': None,
 'class_balance': False,
 'config_path': None,
 'crossval_index_dir': None,
 'crossval_index_file': None,
 'crossval_index_sets': None,
 'cuda': True,
 'data_path': './data/HDAC/HDAC8.csv',
 'data_weights_path': None,
 'dataset_type': 'classification',
 'depth': 3,
 'depth_solvent': 3,
 'device': device(type='cuda'),
 'dropout': 0.0,
 'empty_cache': False,
 'ensemble_size': 1,
 'epochs': 30,
 'evidential_regularization': 0,
 'explicit_h': False,
 'extra_metrics': [],
 'features_generator': None,
 'features_only': False,
 'features_path': None,
 'features_scaling': True,
 'features_size': None,
 'ffn_hidden_size': 300,
 'ffn_num_layers': 2,
 'final_lr': 0.0001,
 'folds_file': None,
 'frac_order': 1.0,
 'freeze_first_only': False,
 'frzn_ffn_layers': 0,
 'gpu': None,
 'grad_clip': None,
 'hidden_size': 300,
 'hidden_size_solvent': 300,
 'ignore_columns': None,
 'init_lr': 0.0001,
 'log_frequency': 10,
 'loss_function': 'binary_cross_entropy',
 'max_data_size': None,
 'max_lr': 0.001,
 'metric': 'auc',
 'metrics': ['auc'],
 'minimize_score': False,
 'model_name': 'MPN',
 'mpn_shared': False,
 'multiclass_num_classes': 3,
 'no_atom_descriptor_scaling': False,
 'no_bond_features_scaling': False,
 'no_cache_mol': False,
 'no_cuda': False,
 'no_features_scaling': False,
 'num_folds': 3,
 'num_lrs': 1,
 'num_tasks': 1,
 'num_workers': 8,
 'number_of_molecules': 1,
 'optimizer': 'SGD',
 'overwrite_default_atom_features': False,
 'overwrite_default_bond_features': False,
 'phase_features_path': None,
 'pytorch_seed': 0,
 'quiet': False,
 'reaction': False,
 'reaction_mode': 'reac_diff',
 'reaction_solvent': False,
 'resume_experiment': False,
 'save_dir': './result/classification/HDAC/HDAC8/MPN/SGD/1.0',
 'save_preds': True,
 'save_smiles_splits': False,
 'seed': 0,
 'separate_test_atom_descriptors_path': None,
 'separate_test_bond_features_path': None,
 'separate_test_features_path': None,
 'separate_test_path': None,
 'separate_test_phase_features_path': None,
 'separate_val_atom_descriptors_path': None,
 'separate_val_bond_features_path': None,
 'separate_val_features_path': None,
 'separate_val_path': None,
 'separate_val_phase_features_path': None,
 'show_individual_scores': False,
 'smiles_columns': ['COc1ccc(NC(=O)[C@@H]2Cc3ccc(OCC(=O)NO)cc3CN2C(=O)c2ccccc2)cc1'],
 'spectra_activation': 'exp',
 'spectra_phase_mask_path': None,
 'spectra_target_floor': 1e-08,
 'split_key_molecule': 0,
 'split_sizes': [0.8, 0.1, 0.1],
 'split_type': 'random',
 'target_columns': None,
 'target_weights': None,
 'task_names': ['1'],
 'test': False,
 'test_fold_index': None,
 'train_data_size': None,
 'undirected': False,
 'use_input_features': False,
 'val_fold_index': None,
 'warmup_epochs': 2.0}
Setting molecule featurization parameters to default.
Loading data
Number of tasks = 1
Fold 0
Splitting data with seed 0
Class sizes
1 0: 30.46%, 1: 69.54%
Total size = 1,228 | train size = 982 | val size = 123 | test size = 123
Building model 0
MoleculeModel(
  (sigmoid): Sigmoid()
  (encoder): MPN(
    (encoder): ModuleList(
      (0): MPNEncoder(
        (dropout_layer): Dropout(p=0.0, inplace=False)
        (act_func): ReLU()
        (W_i): Linear(in_features=147, out_features=300, bias=False)
        (W_h): Linear(in_features=300, out_features=300, bias=False)
        (W_o): Linear(in_features=433, out_features=300, bias=True)
      )
    )
  )
  (ffn): Sequential(
    (0): Dropout(p=0.0, inplace=False)
    (1): Linear(in_features=300, out_features=300, bias=True)
    (2): ReLU()
    (3): Dropout(p=0.0, inplace=False)
    (4): Linear(in_features=300, out_features=1, bias=True)
  )
)
Number of parameters = 355,201
Moving model to cuda
Epoch 0
Loss = 6.9221e-01, PNorm = 34.0103, GNorm = 1.5833, lr_0 = 3.6053e-04
Validation auc = 0.308205
Epoch 1
Loss = 6.7731e-01, PNorm = 34.0103, GNorm = 1.3508, lr_0 = 6.2105e-04
Loss = 6.6661e-01, PNorm = 34.0104, GNorm = 1.7674, lr_0 = 8.5789e-04
Validation auc = 0.349930
Epoch 2
Loss = 6.3266e-01, PNorm = 34.0104, GNorm = 1.5082, lr_0 = 9.8284e-04
Loss = 6.4158e-01, PNorm = 34.0105, GNorm = 0.4812, lr_0 = 9.4120e-04
Validation auc = 0.379383
Epoch 3
Loss = 6.5865e-01, PNorm = 34.0105, GNorm = 0.5347, lr_0 = 8.9744e-04
Loss = 6.1074e-01, PNorm = 34.0106, GNorm = 1.1862, lr_0 = 8.5943e-04
Validation auc = 0.390954
Epoch 4
Loss = 6.5308e-01, PNorm = 34.0106, GNorm = 0.4727, lr_0 = 8.2303e-04
Loss = 6.1949e-01, PNorm = 34.0106, GNorm = 0.2277, lr_0 = 7.8816e-04
Validation auc = 0.398668
Epoch 5
Loss = 6.4389e-01, PNorm = 34.0107, GNorm = 0.2316, lr_0 = 7.5478e-04
Loss = 6.3005e-01, PNorm = 34.0107, GNorm = 0.7601, lr_0 = 7.2281e-04
Validation auc = 0.403927
Epoch 6
Loss = 6.0318e-01, PNorm = 34.0107, GNorm = 0.3930, lr_0 = 6.8920e-04
Loss = 6.1102e-01, PNorm = 34.0107, GNorm = 0.4635, lr_0 = 6.6001e-04
Validation auc = 0.406381
Epoch 7
Loss = 5.7380e-01, PNorm = 34.0108, GNorm = 0.7104, lr_0 = 6.3205e-04
Loss = 6.1909e-01, PNorm = 34.0108, GNorm = 0.6596, lr_0 = 6.0528e-04
Validation auc = 0.408135
Epoch 8
Loss = 6.3840e-01, PNorm = 34.0108, GNorm = 0.2693, lr_0 = 5.7964e-04
Loss = 6.1080e-01, PNorm = 34.0108, GNorm = 0.3027, lr_0 = 5.5509e-04
Validation auc = 0.409537
Epoch 9
Loss = 6.1178e-01, PNorm = 34.0108, GNorm = 0.3105, lr_0 = 5.2928e-04
Loss = 6.1565e-01, PNorm = 34.0108, GNorm = 0.3976, lr_0 = 5.0686e-04
Validation auc = 0.411641
Epoch 10
Loss = 6.0015e-01, PNorm = 34.0108, GNorm = 0.6204, lr_0 = 4.8539e-04
Loss = 6.1784e-01, PNorm = 34.0108, GNorm = 0.2133, lr_0 = 4.6483e-04
Validation auc = 0.413745
Epoch 11
Loss = 5.8576e-01, PNorm = 34.0108, GNorm = 0.5101, lr_0 = 4.4514e-04
Loss = 6.3358e-01, PNorm = 34.0108, GNorm = 0.2701, lr_0 = 4.2628e-04
Validation auc = 0.414797
Epoch 12
Loss = 6.3981e-01, PNorm = 34.0108, GNorm = 0.2997, lr_0 = 4.0646e-04
Loss = 5.8836e-01, PNorm = 34.0109, GNorm = 1.2681, lr_0 = 3.8925e-04
Validation auc = 0.416199
Epoch 13
Loss = 6.2399e-01, PNorm = 34.0109, GNorm = 0.8764, lr_0 = 3.7276e-04
Loss = 6.1245e-01, PNorm = 34.0109, GNorm = 0.2163, lr_0 = 3.5697e-04
Validation auc = 0.416550
Epoch 14
Loss = 6.3778e-01, PNorm = 34.0109, GNorm = 0.6535, lr_0 = 3.4037e-04
Loss = 5.9365e-01, PNorm = 34.0109, GNorm = 0.4768, lr_0 = 3.2596e-04
Validation auc = 0.416550
Epoch 15
Loss = 6.2119e-01, PNorm = 34.0109, GNorm = 0.3171, lr_0 = 3.1215e-04
Loss = 6.0932e-01, PNorm = 34.0109, GNorm = 1.0887, lr_0 = 2.9893e-04
Validation auc = 0.416900
Epoch 16
Loss = 6.1856e-01, PNorm = 34.0109, GNorm = 1.2612, lr_0 = 2.8626e-04
Loss = 5.9569e-01, PNorm = 34.0109, GNorm = 0.3078, lr_0 = 2.7414e-04
Validation auc = 0.417602
Epoch 17
Loss = 5.9885e-01, PNorm = 34.0109, GNorm = 0.2983, lr_0 = 2.6139e-04
Loss = 6.0764e-01, PNorm = 34.0109, GNorm = 0.3055, lr_0 = 2.5032e-04
Validation auc = 0.418303
Epoch 18
Loss = 6.4722e-01, PNorm = 34.0109, GNorm = 0.1777, lr_0 = 2.3972e-04
Loss = 5.9203e-01, PNorm = 34.0109, GNorm = 0.2003, lr_0 = 2.2956e-04
Validation auc = 0.419004
Epoch 19
Loss = 6.2606e-01, PNorm = 34.0109, GNorm = 0.4250, lr_0 = 2.1984e-04
Loss = 6.0254e-01, PNorm = 34.0109, GNorm = 0.9657, lr_0 = 2.1053e-04
Validation auc = 0.419004
Epoch 20
Loss = 5.9996e-01, PNorm = 34.0109, GNorm = 0.6865, lr_0 = 2.0074e-04
Loss = 6.0280e-01, PNorm = 34.0109, GNorm = 0.3731, lr_0 = 1.9224e-04
Validation auc = 0.419705
Epoch 21
Loss = 6.3242e-01, PNorm = 34.0109, GNorm = 0.7301, lr_0 = 1.8409e-04
Loss = 5.9865e-01, PNorm = 34.0109, GNorm = 0.6464, lr_0 = 1.7630e-04
Validation auc = 0.420407
Epoch 22
Loss = 6.0276e-01, PNorm = 34.0109, GNorm = 0.6063, lr_0 = 1.6883e-04
Loss = 6.1265e-01, PNorm = 34.0109, GNorm = 0.3512, lr_0 = 1.6168e-04
Validation auc = 0.420407
Epoch 23
Loss = 6.1126e-01, PNorm = 34.0109, GNorm = 0.5199, lr_0 = 1.5416e-04
Loss = 6.0459e-01, PNorm = 34.0109, GNorm = 1.3315, lr_0 = 1.4763e-04
Validation auc = 0.420757
Epoch 24
Loss = 6.3409e-01, PNorm = 34.0109, GNorm = 0.9462, lr_0 = 1.4138e-04
Loss = 5.9179e-01, PNorm = 34.0109, GNorm = 0.7519, lr_0 = 1.3539e-04
Validation auc = 0.420757
Epoch 25
Loss = 6.2415e-01, PNorm = 34.0109, GNorm = 0.6926, lr_0 = 1.2965e-04
Loss = 5.9634e-01, PNorm = 34.0109, GNorm = 0.7338, lr_0 = 1.2416e-04
Loss = 6.4467e-01, PNorm = 34.0109, GNorm = 0.4494, lr_0 = 1.2362e-04
Validation auc = 0.420757
Epoch 26
Loss = 6.0957e-01, PNorm = 34.0109, GNorm = 0.6790, lr_0 = 1.1839e-04
Loss = 6.1146e-01, PNorm = 34.0109, GNorm = 0.3131, lr_0 = 1.1337e-04
Validation auc = 0.421108
Epoch 27
Loss = 6.0055e-01, PNorm = 34.0109, GNorm = 1.2252, lr_0 = 1.0857e-04
Validation auc = 0.421809
Epoch 28
Loss = 5.9863e-01, PNorm = 34.0109, GNorm = 0.2510, lr_0 = 1.0352e-04
Loss = 6.1547e-01, PNorm = 34.0109, GNorm = 0.4939, lr_0 = 1.0000e-04
Validation auc = 0.421809
Epoch 29
Loss = 6.0437e-01, PNorm = 34.0109, GNorm = 0.1709, lr_0 = 1.0000e-04
Loss = 6.0325e-01, PNorm = 34.0109, GNorm = 0.4462, lr_0 = 1.0000e-04
Validation auc = 0.422511
Model 0 best validation auc = 0.422511 on epoch 29
Loading pretrained parameter "encoder.encoder.0.cached_zero_vector".
Loading pretrained parameter "encoder.encoder.0.W_i.weight".
Loading pretrained parameter "encoder.encoder.0.W_h.weight".
Loading pretrained parameter "encoder.encoder.0.W_o.weight".
Loading pretrained parameter "encoder.encoder.0.W_o.bias".
Loading pretrained parameter "ffn.1.weight".
Loading pretrained parameter "ffn.1.bias".
Loading pretrained parameter "ffn.4.weight".
Loading pretrained parameter "ffn.4.bias".
Moving model to cuda
Model 0 test auc = 0.493732
Ensemble test auc = 0.493732
Fold 1
Splitting data with seed 1
Class sizes
1 0: 30.46%, 1: 69.54%
Total size = 1,228 | train size = 982 | val size = 123 | test size = 123
Building model 0
MoleculeModel(
  (sigmoid): Sigmoid()
  (encoder): MPN(
    (encoder): ModuleList(
      (0): MPNEncoder(
        (dropout_layer): Dropout(p=0.0, inplace=False)
        (act_func): ReLU()
        (W_i): Linear(in_features=147, out_features=300, bias=False)
        (W_h): Linear(in_features=300, out_features=300, bias=False)
        (W_o): Linear(in_features=433, out_features=300, bias=True)
      )
    )
  )
  (ffn): Sequential(
    (0): Dropout(p=0.0, inplace=False)
    (1): Linear(in_features=300, out_features=300, bias=True)
    (2): ReLU()
    (3): Dropout(p=0.0, inplace=False)
    (4): Linear(in_features=300, out_features=1, bias=True)
  )
)
Number of parameters = 355,201
Moving model to cuda
Epoch 0
Loss = 6.9304e-01, PNorm = 34.0103, GNorm = 2.1856, lr_0 = 3.6053e-04
Validation auc = 0.427350
Epoch 1
Loss = 6.8450e-01, PNorm = 34.0103, GNorm = 0.8324, lr_0 = 6.2105e-04
Loss = 6.6792e-01, PNorm = 34.0104, GNorm = 1.5534, lr_0 = 8.5789e-04
Validation auc = 0.433761
Epoch 2
Loss = 6.2687e-01, PNorm = 34.0104, GNorm = 1.6506, lr_0 = 9.8284e-04
Loss = 6.4036e-01, PNorm = 34.0105, GNorm = 0.7773, lr_0 = 9.4120e-04
Validation auc = 0.439103
Epoch 3
Loss = 6.6251e-01, PNorm = 34.0105, GNorm = 0.4120, lr_0 = 8.9744e-04
Loss = 6.1063e-01, PNorm = 34.0106, GNorm = 1.5050, lr_0 = 8.5943e-04
Validation auc = 0.439255
Epoch 4
Loss = 6.1548e-01, PNorm = 34.0106, GNorm = 1.1994, lr_0 = 8.2303e-04
Loss = 6.2337e-01, PNorm = 34.0106, GNorm = 0.3029, lr_0 = 7.8816e-04
Validation auc = 0.438950
Epoch 5
Loss = 6.1706e-01, PNorm = 34.0107, GNorm = 0.1735, lr_0 = 7.5478e-04
Loss = 6.0947e-01, PNorm = 34.0107, GNorm = 0.3828, lr_0 = 7.2281e-04
Validation auc = 0.443223
Epoch 6
Loss = 6.0103e-01, PNorm = 34.0107, GNorm = 0.7112, lr_0 = 6.8920e-04
Loss = 6.2396e-01, PNorm = 34.0108, GNorm = 0.6257, lr_0 = 6.6001e-04
Validation auc = 0.445360
Epoch 7
Loss = 6.1461e-01, PNorm = 34.0108, GNorm = 0.6464, lr_0 = 6.3205e-04
Loss = 6.2621e-01, PNorm = 34.0108, GNorm = 0.9932, lr_0 = 6.0528e-04
Validation auc = 0.448107
Epoch 8
Loss = 6.4021e-01, PNorm = 34.0108, GNorm = 0.6887, lr_0 = 5.7964e-04
Loss = 5.9691e-01, PNorm = 34.0108, GNorm = 0.3106, lr_0 = 5.5509e-04
Validation auc = 0.447802
Epoch 9
Loss = 6.0452e-01, PNorm = 34.0108, GNorm = 0.9436, lr_0 = 5.2928e-04
Loss = 5.9742e-01, PNorm = 34.0109, GNorm = 0.3629, lr_0 = 5.0686e-04
Validation auc = 0.448413
Epoch 10
Loss = 6.2369e-01, PNorm = 34.0108, GNorm = 0.5058, lr_0 = 4.8539e-04
Loss = 6.0579e-01, PNorm = 34.0109, GNorm = 0.8551, lr_0 = 4.6483e-04
Validation auc = 0.448718
Epoch 11
Loss = 6.1181e-01, PNorm = 34.0109, GNorm = 0.4383, lr_0 = 4.4514e-04
Loss = 6.2294e-01, PNorm = 34.0109, GNorm = 0.6854, lr_0 = 4.2628e-04
Validation auc = 0.450549
Epoch 12
Loss = 6.2595e-01, PNorm = 34.0109, GNorm = 0.5223, lr_0 = 4.0646e-04
Loss = 6.0398e-01, PNorm = 34.0109, GNorm = 0.2068, lr_0 = 3.8925e-04
Validation auc = 0.451770
Epoch 13
Loss = 6.3963e-01, PNorm = 34.0109, GNorm = 0.1838, lr_0 = 3.7276e-04
Loss = 5.9771e-01, PNorm = 34.0109, GNorm = 0.9509, lr_0 = 3.5697e-04
Validation auc = 0.452686
Epoch 14
Loss = 6.1116e-01, PNorm = 34.0109, GNorm = 0.5884, lr_0 = 3.4037e-04
Loss = 5.9758e-01, PNorm = 34.0109, GNorm = 0.2891, lr_0 = 3.2596e-04
Validation auc = 0.453297
Epoch 15
Loss = 5.8077e-01, PNorm = 34.0109, GNorm = 0.2039, lr_0 = 3.1215e-04
Loss = 6.3008e-01, PNorm = 34.0109, GNorm = 0.6421, lr_0 = 2.9893e-04
Validation auc = 0.453602
Epoch 16
Loss = 6.1610e-01, PNorm = 34.0109, GNorm = 0.3634, lr_0 = 2.8626e-04
Loss = 6.0917e-01, PNorm = 34.0109, GNorm = 0.3395, lr_0 = 2.7414e-04
Validation auc = 0.454823
Epoch 17
Loss = 6.1935e-01, PNorm = 34.0109, GNorm = 0.7613, lr_0 = 2.6139e-04
Loss = 6.0569e-01, PNorm = 34.0109, GNorm = 0.3322, lr_0 = 2.5032e-04
Validation auc = 0.455739
Epoch 18
Loss = 6.1431e-01, PNorm = 34.0109, GNorm = 0.3330, lr_0 = 2.3972e-04
Loss = 6.1164e-01, PNorm = 34.0109, GNorm = 0.3091, lr_0 = 2.2956e-04
Validation auc = 0.456044
Epoch 19
Loss = 6.1376e-01, PNorm = 34.0109, GNorm = 0.1809, lr_0 = 2.1984e-04
Loss = 6.1736e-01, PNorm = 34.0109, GNorm = 0.6319, lr_0 = 2.1053e-04
Validation auc = 0.456960
Epoch 20
Loss = 6.0958e-01, PNorm = 34.0109, GNorm = 0.1672, lr_0 = 2.0074e-04
Loss = 6.0607e-01, PNorm = 34.0109, GNorm = 0.1750, lr_0 = 1.9224e-04
Validation auc = 0.457875
Epoch 21
Loss = 6.1507e-01, PNorm = 34.0109, GNorm = 0.4837, lr_0 = 1.8409e-04
Loss = 5.9563e-01, PNorm = 34.0109, GNorm = 0.2715, lr_0 = 1.7630e-04
Validation auc = 0.458486
Epoch 22
Loss = 5.9931e-01, PNorm = 34.0109, GNorm = 0.5487, lr_0 = 1.6883e-04
Loss = 6.1905e-01, PNorm = 34.0109, GNorm = 1.0228, lr_0 = 1.6168e-04
Validation auc = 0.459096
Epoch 23
Loss = 6.2023e-01, PNorm = 34.0109, GNorm = 1.1572, lr_0 = 1.5416e-04
Loss = 6.0104e-01, PNorm = 34.0109, GNorm = 1.1332, lr_0 = 1.4763e-04
Validation auc = 0.459707
Epoch 24
Loss = 6.0746e-01, PNorm = 34.0109, GNorm = 0.6054, lr_0 = 1.4138e-04
Loss = 6.1269e-01, PNorm = 34.0109, GNorm = 0.7049, lr_0 = 1.3539e-04
Validation auc = 0.460317
Epoch 25
Loss = 6.2713e-01, PNorm = 34.0109, GNorm = 0.2588, lr_0 = 1.2965e-04
Loss = 5.9871e-01, PNorm = 34.0109, GNorm = 0.3172, lr_0 = 1.2416e-04
Loss = 5.2640e-01, PNorm = 34.0109, GNorm = 0.8814, lr_0 = 1.2362e-04
Validation auc = 0.460623
Epoch 26
Loss = 6.3147e-01, PNorm = 34.0109, GNorm = 0.2139, lr_0 = 1.1839e-04
Loss = 5.8479e-01, PNorm = 34.0109, GNorm = 0.7973, lr_0 = 1.1337e-04
Validation auc = 0.460623
Epoch 27
Loss = 6.1482e-01, PNorm = 34.0109, GNorm = 0.5223, lr_0 = 1.0857e-04
Validation auc = 0.461233
Epoch 28
Loss = 5.3620e-01, PNorm = 34.0109, GNorm = 0.7998, lr_0 = 1.0352e-04
Loss = 6.1049e-01, PNorm = 34.0109, GNorm = 0.2238, lr_0 = 1.0000e-04
Validation auc = 0.461233
Epoch 29
Loss = 5.8343e-01, PNorm = 34.0109, GNorm = 0.3597, lr_0 = 1.0000e-04
Loss = 6.0739e-01, PNorm = 34.0109, GNorm = 0.4639, lr_0 = 1.0000e-04
Validation auc = 0.461233
Model 0 best validation auc = 0.461233 on epoch 27
Loading pretrained parameter "encoder.encoder.0.cached_zero_vector".
Loading pretrained parameter "encoder.encoder.0.W_i.weight".
Loading pretrained parameter "encoder.encoder.0.W_h.weight".
Loading pretrained parameter "encoder.encoder.0.W_o.weight".
Loading pretrained parameter "encoder.encoder.0.W_o.bias".
Loading pretrained parameter "ffn.1.weight".
Loading pretrained parameter "ffn.1.bias".
Loading pretrained parameter "ffn.4.weight".
Loading pretrained parameter "ffn.4.bias".
Moving model to cuda
Model 0 test auc = 0.561050
Ensemble test auc = 0.561050
Fold 2
Splitting data with seed 2
Class sizes
1 0: 30.46%, 1: 69.54%
Total size = 1,228 | train size = 982 | val size = 123 | test size = 123
Building model 0
MoleculeModel(
  (sigmoid): Sigmoid()
  (encoder): MPN(
    (encoder): ModuleList(
      (0): MPNEncoder(
        (dropout_layer): Dropout(p=0.0, inplace=False)
        (act_func): ReLU()
        (W_i): Linear(in_features=147, out_features=300, bias=False)
        (W_h): Linear(in_features=300, out_features=300, bias=False)
        (W_o): Linear(in_features=433, out_features=300, bias=True)
      )
    )
  )
  (ffn): Sequential(
    (0): Dropout(p=0.0, inplace=False)
    (1): Linear(in_features=300, out_features=300, bias=True)
    (2): ReLU()
    (3): Dropout(p=0.0, inplace=False)
    (4): Linear(in_features=300, out_features=1, bias=True)
  )
)
Number of parameters = 355,201
Moving model to cuda
Epoch 0
Loss = 6.9195e-01, PNorm = 34.0103, GNorm = 1.9010, lr_0 = 3.6053e-04
Validation auc = 0.425342
Epoch 1
Loss = 6.6341e-01, PNorm = 34.0103, GNorm = 2.2640, lr_0 = 6.2105e-04
Loss = 6.6650e-01, PNorm = 34.0104, GNorm = 1.6781, lr_0 = 8.5789e-04
Validation auc = 0.455384
Epoch 2
Loss = 6.4928e-01, PNorm = 34.0104, GNorm = 0.8498, lr_0 = 9.8284e-04
Loss = 6.4198e-01, PNorm = 34.0105, GNorm = 0.7807, lr_0 = 9.4120e-04
Validation auc = 0.475015
Epoch 3
Loss = 6.2698e-01, PNorm = 34.0105, GNorm = 0.7942, lr_0 = 8.9744e-04
Loss = 6.3154e-01, PNorm = 34.0106, GNorm = 0.9981, lr_0 = 8.5943e-04
Validation auc = 0.480964
Epoch 4
Loss = 6.2630e-01, PNorm = 34.0106, GNorm = 0.8969, lr_0 = 8.2303e-04
Loss = 6.0846e-01, PNorm = 34.0107, GNorm = 0.1860, lr_0 = 7.8816e-04
Validation auc = 0.483938
Epoch 5
Loss = 6.0508e-01, PNorm = 34.0107, GNorm = 0.5627, lr_0 = 7.5478e-04
Loss = 6.1945e-01, PNorm = 34.0107, GNorm = 0.3579, lr_0 = 7.2281e-04
Validation auc = 0.488995
Epoch 6
Loss = 6.3257e-01, PNorm = 34.0107, GNorm = 0.3311, lr_0 = 6.8920e-04
Loss = 6.0184e-01, PNorm = 34.0108, GNorm = 0.4872, lr_0 = 6.6001e-04
Validation auc = 0.491077
Epoch 7
Loss = 6.3002e-01, PNorm = 34.0108, GNorm = 0.4451, lr_0 = 6.3205e-04
Loss = 6.1366e-01, PNorm = 34.0108, GNorm = 0.7308, lr_0 = 6.0528e-04
Validation auc = 0.494051
Epoch 8
Loss = 6.3360e-01, PNorm = 34.0108, GNorm = 0.3584, lr_0 = 5.7964e-04
Loss = 6.2020e-01, PNorm = 34.0108, GNorm = 0.2355, lr_0 = 5.5509e-04
Validation auc = 0.496133
Epoch 9
Loss = 5.7457e-01, PNorm = 34.0108, GNorm = 1.0047, lr_0 = 5.2928e-04
Loss = 6.0906e-01, PNorm = 34.0108, GNorm = 0.8600, lr_0 = 5.0686e-04
Validation auc = 0.497918
Epoch 10
Loss = 6.2168e-01, PNorm = 34.0108, GNorm = 0.6843, lr_0 = 4.8539e-04
Loss = 6.0184e-01, PNorm = 34.0109, GNorm = 0.2989, lr_0 = 4.6483e-04
Validation auc = 0.500892
Epoch 11
Loss = 6.3253e-01, PNorm = 34.0109, GNorm = 0.3710, lr_0 = 4.4514e-04
Loss = 5.9975e-01, PNorm = 34.0109, GNorm = 0.3732, lr_0 = 4.2628e-04
Validation auc = 0.501487
Epoch 12
Loss = 6.1128e-01, PNorm = 34.0109, GNorm = 0.8646, lr_0 = 4.0646e-04
Loss = 6.0903e-01, PNorm = 34.0109, GNorm = 0.2066, lr_0 = 3.8925e-04
Validation auc = 0.501487
Epoch 13
Loss = 6.2035e-01, PNorm = 34.0109, GNorm = 0.2395, lr_0 = 3.7276e-04
Loss = 6.0295e-01, PNorm = 34.0109, GNorm = 0.4267, lr_0 = 3.5697e-04
Validation auc = 0.501487
Epoch 14
Loss = 6.3077e-01, PNorm = 34.0109, GNorm = 0.5311, lr_0 = 3.4037e-04
Loss = 5.8904e-01, PNorm = 34.0109, GNorm = 0.3658, lr_0 = 3.2596e-04
Validation auc = 0.502380
Epoch 15
Loss = 6.2755e-01, PNorm = 34.0109, GNorm = 0.5023, lr_0 = 3.1215e-04
Loss = 6.0048e-01, PNorm = 34.0109, GNorm = 1.0758, lr_0 = 2.9893e-04
Validation auc = 0.502380
Epoch 16
Loss = 5.8779e-01, PNorm = 34.0109, GNorm = 1.3053, lr_0 = 2.8626e-04
Loss = 6.2647e-01, PNorm = 34.0109, GNorm = 0.2224, lr_0 = 2.7414e-04
Validation auc = 0.502380
Epoch 17
Loss = 6.3426e-01, PNorm = 34.0109, GNorm = 0.7043, lr_0 = 2.6139e-04
Loss = 5.6728e-01, PNorm = 34.0109, GNorm = 1.4454, lr_0 = 2.5032e-04
Validation auc = 0.503867
Epoch 18
Loss = 6.0431e-01, PNorm = 34.0109, GNorm = 0.1834, lr_0 = 2.3972e-04
Loss = 6.0770e-01, PNorm = 34.0109, GNorm = 0.2861, lr_0 = 2.2956e-04
Validation auc = 0.503867
Epoch 19
Loss = 6.0228e-01, PNorm = 34.0109, GNorm = 0.7222, lr_0 = 2.1984e-04
Loss = 6.1600e-01, PNorm = 34.0109, GNorm = 0.5606, lr_0 = 2.1053e-04
Validation auc = 0.504164
Epoch 20
Loss = 6.0754e-01, PNorm = 34.0109, GNorm = 0.2366, lr_0 = 2.0074e-04
Loss = 6.1518e-01, PNorm = 34.0109, GNorm = 0.2734, lr_0 = 1.9224e-04
Validation auc = 0.505057
Epoch 21
Loss = 6.1417e-01, PNorm = 34.0109, GNorm = 0.2135, lr_0 = 1.8409e-04
Loss = 6.0860e-01, PNorm = 34.0109, GNorm = 0.1712, lr_0 = 1.7630e-04
Validation auc = 0.505354
Epoch 22
Loss = 6.1846e-01, PNorm = 34.0109, GNorm = 0.1828, lr_0 = 1.6883e-04
Loss = 6.0327e-01, PNorm = 34.0109, GNorm = 0.1847, lr_0 = 1.6168e-04
Validation auc = 0.505354
Epoch 23
Loss = 6.2524e-01, PNorm = 34.0109, GNorm = 0.1958, lr_0 = 1.5416e-04
Loss = 5.9787e-01, PNorm = 34.0109, GNorm = 0.2917, lr_0 = 1.4763e-04
Validation auc = 0.505651
Epoch 24
Loss = 6.0896e-01, PNorm = 34.0109, GNorm = 0.6105, lr_0 = 1.4138e-04
Loss = 6.0857e-01, PNorm = 34.0109, GNorm = 0.8651, lr_0 = 1.3539e-04
Validation auc = 0.505949
Epoch 25
Loss = 5.9383e-01, PNorm = 34.0109, GNorm = 0.4544, lr_0 = 1.2965e-04
Loss = 6.1982e-01, PNorm = 34.0109, GNorm = 0.3186, lr_0 = 1.2416e-04
Loss = 6.1796e-01, PNorm = 34.0109, GNorm = 0.2486, lr_0 = 1.2362e-04
Validation auc = 0.506246
Epoch 26
Loss = 6.0514e-01, PNorm = 34.0109, GNorm = 0.5931, lr_0 = 1.1839e-04
Loss = 6.1379e-01, PNorm = 34.0109, GNorm = 1.0746, lr_0 = 1.1337e-04
Validation auc = 0.506246
Epoch 27
Loss = 5.7897e-01, PNorm = 34.0109, GNorm = 0.5050, lr_0 = 1.0857e-04
Validation auc = 0.507139
Epoch 28
Loss = 5.8498e-01, PNorm = 34.0109, GNorm = 0.2996, lr_0 = 1.0352e-04
Loss = 6.1913e-01, PNorm = 34.0109, GNorm = 0.5324, lr_0 = 1.0000e-04
Validation auc = 0.507436
Epoch 29
Loss = 6.6067e-01, PNorm = 34.0109, GNorm = 0.5420, lr_0 = 1.0000e-04
Loss = 5.9755e-01, PNorm = 34.0109, GNorm = 1.1595, lr_0 = 1.0000e-04
Validation auc = 0.507733
Model 0 best validation auc = 0.507733 on epoch 29
Loading pretrained parameter "encoder.encoder.0.cached_zero_vector".
Loading pretrained parameter "encoder.encoder.0.W_i.weight".
Loading pretrained parameter "encoder.encoder.0.W_h.weight".
Loading pretrained parameter "encoder.encoder.0.W_o.weight".
Loading pretrained parameter "encoder.encoder.0.W_o.bias".
Loading pretrained parameter "ffn.1.weight".
Loading pretrained parameter "ffn.1.bias".
Loading pretrained parameter "ffn.4.weight".
Loading pretrained parameter "ffn.4.bias".
Moving model to cuda
Model 0 test auc = 0.513126
Ensemble test auc = 0.513126
3-fold cross validation
	Seed 0 ==> test auc = 0.493732
	Seed 1 ==> test auc = 0.561050
	Seed 2 ==> test auc = 0.513126
Overall test auc = 0.522636 +/- 0.028293
