Fold 0
Model 0 best validation auc = 0.897119 on epoch 26
Model 0 test auc = 0.666667
Ensemble test auc = 0.666667
Fold 1
Model 0 best validation auc = 0.807692 on epoch 28
Model 0 test auc = 0.815385
Ensemble test auc = 0.815385
Fold 2
Model 0 best validation auc = 0.926108 on epoch 29
Model 0 test auc = 0.789474
Ensemble test auc = 0.789474
3-fold cross validation
	Seed 0 ==> test auc = 0.666667
	Seed 1 ==> test auc = 0.815385
	Seed 2 ==> test auc = 0.789474
Overall test auc = 0.757175 +/- 0.064867
