Fold 0
Model 0 best validation auc = 1.000000 on epoch 0
Model 0 test auc = 0.933333
Ensemble test auc = 0.933333
Fold 1
Model 0 best validation auc = 1.000000 on epoch 0
Model 0 test auc = 0.717949
Ensemble test auc = 0.717949
Fold 2
Model 0 best validation auc = 0.963636 on epoch 28
Model 0 test auc = 0.958333
Ensemble test auc = 0.958333
3-fold cross validation
	Seed 0 ==> test auc = 0.933333
	Seed 1 ==> test auc = 0.717949
	Seed 2 ==> test auc = 0.958333
Overall test auc = 0.869872 +/- 0.107910
