Command line
python main.py
Args
{'activation': 'ReLU',
 'adding_h': False,
 'aggregation': 'mean',
 'aggregation_norm': 100,
 'atom_descriptor_scaling': True,
 'atom_descriptors': None,
 'atom_descriptors_path': None,
 'atom_descriptors_size': 0,
 'atom_features_size': 0,
 'atom_messages': False,
 'batch_size': 50,
 'bias': False,
 'bias_solvent': False,
 'bond_feature_scaling': True,
 'bond_features_path': None,
 'bond_features_size': 0,
 'cache_cutoff': 10000,
 'checkpoint_dir': None,
 'checkpoint_frzn': None,
 'checkpoint_path': None,
 'checkpoint_paths': None,
 'class_balance': False,
 'config_path': None,
 'crossval_index_dir': None,
 'crossval_index_file': None,
 'crossval_index_sets': None,
 'cuda': True,
 'data_path': './data/HDAC/HDAC11.csv',
 'data_weights_path': None,
 'dataset_type': 'classification',
 'depth': 3,
 'depth_solvent': 3,
 'device': device(type='cuda'),
 'dropout': 0.0,
 'empty_cache': False,
 'ensemble_size': 1,
 'epochs': 30,
 'evidential_regularization': 0,
 'explicit_h': False,
 'extra_metrics': [],
 'features_generator': None,
 'features_only': False,
 'features_path': None,
 'features_scaling': True,
 'features_size': None,
 'ffn_hidden_size': 300,
 'ffn_num_layers': 2,
 'final_lr': 0.0001,
 'folds_file': None,
 'frac_order': 1.0,
 'freeze_first_only': False,
 'frzn_ffn_layers': 0,
 'gpu': None,
 'grad_clip': None,
 'hidden_size': 300,
 'hidden_size_solvent': 300,
 'ignore_columns': None,
 'init_lr': 0.0001,
 'log_frequency': 10,
 'loss_function': 'binary_cross_entropy',
 'max_data_size': None,
 'max_lr': 0.001,
 'metric': 'auc',
 'metrics': ['auc'],
 'minimize_score': False,
 'model_name': 'GGNN',
 'mpn_shared': False,
 'multiclass_num_classes': 3,
 'no_atom_descriptor_scaling': False,
 'no_bond_features_scaling': False,
 'no_cache_mol': False,
 'no_cuda': False,
 'no_features_scaling': False,
 'num_folds': 3,
 'num_lrs': 1,
 'num_tasks': 1,
 'num_workers': 8,
 'number_of_molecules': 1,
 'optimizer': 'SGD',
 'overwrite_default_atom_features': False,
 'overwrite_default_bond_features': False,
 'phase_features_path': None,
 'pytorch_seed': 0,
 'quiet': False,
 'reaction': False,
 'reaction_mode': 'reac_diff',
 'reaction_solvent': False,
 'resume_experiment': False,
 'save_dir': './result/classification/HDAC/HDAC11/GGNN/SGD/1.0',
 'save_preds': True,
 'save_smiles_splits': False,
 'seed': 0,
 'separate_test_atom_descriptors_path': None,
 'separate_test_bond_features_path': None,
 'separate_test_features_path': None,
 'separate_test_path': None,
 'separate_test_phase_features_path': None,
 'separate_val_atom_descriptors_path': None,
 'separate_val_bond_features_path': None,
 'separate_val_features_path': None,
 'separate_val_path': None,
 'separate_val_phase_features_path': None,
 'show_individual_scores': False,
 'smiles_columns': ['CC(/C=C/C(=O)NO)=C\\[C@@H](C)C(=O)c1ccc(N(C)C)cc1'],
 'spectra_activation': 'exp',
 'spectra_phase_mask_path': None,
 'spectra_target_floor': 1e-08,
 'split_key_molecule': 0,
 'split_sizes': [0.8, 0.1, 0.1],
 'split_type': 'random',
 'target_columns': None,
 'target_weights': None,
 'task_names': ['1'],
 'test': False,
 'test_fold_index': None,
 'train_data_size': None,
 'undirected': False,
 'use_input_features': False,
 'val_fold_index': None,
 'warmup_epochs': 2.0}
Setting molecule featurization parameters to default.
Loading data
Number of tasks = 1
Fold 0
Splitting data with seed 0
Class sizes
1 0: 36.36%, 1: 63.64%
Total size = 209 | train size = 167 | val size = 21 | test size = 21
Building model 0
MoleculeModel(
  (sigmoid): Sigmoid()
  (encoder): GGNN(
    (encoder): ModuleList(
      (0): GGNNEncoder(
        (W_h): Linear(in_features=133, out_features=300, bias=False)
        (in_fc): Linear(in_features=300, out_features=300, bias=True)
        (out_fc): Linear(in_features=300, out_features=300, bias=True)
        (reset_gate): Sequential(
          (0): Linear(in_features=900, out_features=300, bias=True)
          (1): Sigmoid()
        )
        (update_gate): Sequential(
          (0): Linear(in_features=900, out_features=300, bias=True)
          (1): Sigmoid()
        )
        (transform): Sequential(
          (0): Linear(in_features=900, out_features=300, bias=True)
          (1): Tanh()
        )
        (out): Sequential(
          (0): Linear(in_features=300, out_features=300, bias=True)
          (1): Tanh()
          (2): Linear(in_features=300, out_features=300, bias=True)
        )
      )
    )
  )
  (ffn): Sequential(
    (0): Dropout(p=0.0, inplace=False)
    (1): Linear(in_features=300, out_features=300, bias=True)
    (2): ReLU()
    (3): Dropout(p=0.0, inplace=False)
    (4): Linear(in_features=300, out_features=1, bias=True)
  )
)
Number of parameters = 1,302,901
Moving model to cuda
Epoch 0
Validation auc = 0.275000
Epoch 1
Validation auc = 0.275000
Epoch 2
Loss = 6.8966e-01, PNorm = 55.1750, GNorm = 0.5036, lr_0 = 8.2540e-04
Validation auc = 0.287500
Epoch 3
Validation auc = 0.312500
Epoch 4
Validation auc = 0.325000
Epoch 5
Loss = 6.8498e-01, PNorm = 55.1750, GNorm = 1.1948, lr_0 = 5.9403e-04
Validation auc = 0.337500
Epoch 6
Validation auc = 0.337500
Epoch 7
Validation auc = 0.337500
Epoch 8
Loss = 6.8714e-01, PNorm = 55.1750, GNorm = 0.5496, lr_0 = 4.2752e-04
Validation auc = 0.337500
Epoch 9
Validation auc = 0.337500
Epoch 10
Validation auc = 0.337500
Epoch 11
Loss = 6.7930e-01, PNorm = 55.1750, GNorm = 1.5069, lr_0 = 3.0768e-04
Validation auc = 0.337500
Epoch 12
Validation auc = 0.337500
Epoch 13
Validation auc = 0.337500
Epoch 14
Loss = 6.8412e-01, PNorm = 55.1750, GNorm = 0.3320, lr_0 = 2.2143e-04
Validation auc = 0.337500
Epoch 15
Validation auc = 0.337500
Epoch 16
Validation auc = 0.337500
Epoch 17
Loss = 6.8264e-01, PNorm = 55.1750, GNorm = 0.4324, lr_0 = 1.5936e-04
Validation auc = 0.337500
Epoch 18
Validation auc = 0.337500
Epoch 19
Validation auc = 0.337500
Epoch 20
Loss = 6.8206e-01, PNorm = 55.1750, GNorm = 0.3953, lr_0 = 1.1469e-04
Validation auc = 0.337500
Epoch 21
Validation auc = 0.337500
Epoch 22
Validation auc = 0.337500
Epoch 23
Loss = 6.8267e-01, PNorm = 55.1750, GNorm = 0.2804, lr_0 = 1.0000e-04
Validation auc = 0.350000
Epoch 24
Validation auc = 0.350000
Epoch 25
Validation auc = 0.350000
Epoch 26
Loss = 6.8472e-01, PNorm = 55.1750, GNorm = 0.6820, lr_0 = 1.0000e-04
Validation auc = 0.350000
Epoch 27
Validation auc = 0.362500
Epoch 28
Validation auc = 0.375000
Epoch 29
Loss = 6.8080e-01, PNorm = 55.1750, GNorm = 0.3881, lr_0 = 1.0000e-04
Validation auc = 0.375000
Model 0 best validation auc = 0.375000 on epoch 28
Loading pretrained parameter "encoder.encoder.0.cached_zero_vector".
Loading pretrained parameter "encoder.encoder.0.W_h.weight".
Loading pretrained parameter "encoder.encoder.0.in_fc.weight".
Loading pretrained parameter "encoder.encoder.0.in_fc.bias".
Loading pretrained parameter "encoder.encoder.0.out_fc.weight".
Loading pretrained parameter "encoder.encoder.0.out_fc.bias".
Loading pretrained parameter "encoder.encoder.0.reset_gate.0.weight".
Loading pretrained parameter "encoder.encoder.0.reset_gate.0.bias".
Loading pretrained parameter "encoder.encoder.0.update_gate.0.weight".
Loading pretrained parameter "encoder.encoder.0.update_gate.0.bias".
Loading pretrained parameter "encoder.encoder.0.transform.0.weight".
Loading pretrained parameter "encoder.encoder.0.transform.0.bias".
Loading pretrained parameter "encoder.encoder.0.out.0.weight".
Loading pretrained parameter "encoder.encoder.0.out.0.bias".
Loading pretrained parameter "encoder.encoder.0.out.2.weight".
Loading pretrained parameter "encoder.encoder.0.out.2.bias".
Loading pretrained parameter "ffn.1.weight".
Loading pretrained parameter "ffn.1.bias".
Loading pretrained parameter "ffn.4.weight".
Loading pretrained parameter "ffn.4.bias".
Moving model to cuda
Model 0 test auc = 0.511111
Ensemble test auc = 0.511111
Fold 1
Splitting data with seed 1
Class sizes
1 0: 36.36%, 1: 63.64%
Total size = 209 | train size = 167 | val size = 21 | test size = 21
Building model 0
MoleculeModel(
  (sigmoid): Sigmoid()
  (encoder): GGNN(
    (encoder): ModuleList(
      (0): GGNNEncoder(
        (W_h): Linear(in_features=133, out_features=300, bias=False)
        (in_fc): Linear(in_features=300, out_features=300, bias=True)
        (out_fc): Linear(in_features=300, out_features=300, bias=True)
        (reset_gate): Sequential(
          (0): Linear(in_features=900, out_features=300, bias=True)
          (1): Sigmoid()
        )
        (update_gate): Sequential(
          (0): Linear(in_features=900, out_features=300, bias=True)
          (1): Sigmoid()
        )
        (transform): Sequential(
          (0): Linear(in_features=900, out_features=300, bias=True)
          (1): Tanh()
        )
        (out): Sequential(
          (0): Linear(in_features=300, out_features=300, bias=True)
          (1): Tanh()
          (2): Linear(in_features=300, out_features=300, bias=True)
        )
      )
    )
  )
  (ffn): Sequential(
    (0): Dropout(p=0.0, inplace=False)
    (1): Linear(in_features=300, out_features=300, bias=True)
    (2): ReLU()
    (3): Dropout(p=0.0, inplace=False)
    (4): Linear(in_features=300, out_features=1, bias=True)
  )
)
Number of parameters = 1,302,901
Moving model to cuda
Epoch 0
Validation auc = 0.337500
Epoch 1
Validation auc = 0.337500
Epoch 2
Loss = 6.9101e-01, PNorm = 55.1750, GNorm = 0.6054, lr_0 = 8.2540e-04
Validation auc = 0.337500
Epoch 3
Validation auc = 0.337500
Epoch 4
Validation auc = 0.350000
Epoch 5
Loss = 6.8720e-01, PNorm = 55.1750, GNorm = 0.5055, lr_0 = 5.9403e-04
Validation auc = 0.362500
Epoch 6
Validation auc = 0.350000
Epoch 7
Validation auc = 0.350000
Epoch 8
Loss = 6.8318e-01, PNorm = 55.1750, GNorm = 1.1245, lr_0 = 4.2752e-04
Validation auc = 0.350000
Epoch 9
Validation auc = 0.350000
Epoch 10
Validation auc = 0.350000
Epoch 11
Loss = 6.8254e-01, PNorm = 55.1750, GNorm = 1.2062, lr_0 = 3.0768e-04
Validation auc = 0.350000
Epoch 12
Validation auc = 0.337500
Epoch 13
Validation auc = 0.350000
Epoch 14
Loss = 6.8274e-01, PNorm = 55.1750, GNorm = 0.7862, lr_0 = 2.2143e-04
Validation auc = 0.350000
Epoch 15
Validation auc = 0.350000
Epoch 16
Validation auc = 0.350000
Epoch 17
Loss = 6.8511e-01, PNorm = 55.1750, GNorm = 0.3899, lr_0 = 1.5936e-04
Validation auc = 0.350000
Epoch 18
Validation auc = 0.350000
Epoch 19
Validation auc = 0.350000
Epoch 20
Loss = 6.8090e-01, PNorm = 55.1750, GNorm = 0.7321, lr_0 = 1.1469e-04
Validation auc = 0.350000
Epoch 21
Validation auc = 0.350000
Epoch 22
Validation auc = 0.350000
Epoch 23
Loss = 6.8969e-01, PNorm = 55.1750, GNorm = 1.4197, lr_0 = 1.0000e-04
Validation auc = 0.350000
Epoch 24
Validation auc = 0.350000
Epoch 25
Validation auc = 0.350000
Epoch 26
Loss = 6.7923e-01, PNorm = 55.1750, GNorm = 1.1114, lr_0 = 1.0000e-04
Validation auc = 0.350000
Epoch 27
Validation auc = 0.350000
Epoch 28
Validation auc = 0.350000
Epoch 29
Loss = 6.7881e-01, PNorm = 55.1750, GNorm = 1.0284, lr_0 = 1.0000e-04
Validation auc = 0.350000
Model 0 best validation auc = 0.362500 on epoch 5
Loading pretrained parameter "encoder.encoder.0.cached_zero_vector".
Loading pretrained parameter "encoder.encoder.0.W_h.weight".
Loading pretrained parameter "encoder.encoder.0.in_fc.weight".
Loading pretrained parameter "encoder.encoder.0.in_fc.bias".
Loading pretrained parameter "encoder.encoder.0.out_fc.weight".
Loading pretrained parameter "encoder.encoder.0.out_fc.bias".
Loading pretrained parameter "encoder.encoder.0.reset_gate.0.weight".
Loading pretrained parameter "encoder.encoder.0.reset_gate.0.bias".
Loading pretrained parameter "encoder.encoder.0.update_gate.0.weight".
Loading pretrained parameter "encoder.encoder.0.update_gate.0.bias".
Loading pretrained parameter "encoder.encoder.0.transform.0.weight".
Loading pretrained parameter "encoder.encoder.0.transform.0.bias".
Loading pretrained parameter "encoder.encoder.0.out.0.weight".
Loading pretrained parameter "encoder.encoder.0.out.0.bias".
Loading pretrained parameter "encoder.encoder.0.out.2.weight".
Loading pretrained parameter "encoder.encoder.0.out.2.bias".
Loading pretrained parameter "ffn.1.weight".
Loading pretrained parameter "ffn.1.bias".
Loading pretrained parameter "ffn.4.weight".
Loading pretrained parameter "ffn.4.bias".
Moving model to cuda
Model 0 test auc = 0.187500
Ensemble test auc = 0.187500
Fold 2
Splitting data with seed 2
Class sizes
1 0: 36.36%, 1: 63.64%
Total size = 209 | train size = 167 | val size = 21 | test size = 21
Building model 0
MoleculeModel(
  (sigmoid): Sigmoid()
  (encoder): GGNN(
    (encoder): ModuleList(
      (0): GGNNEncoder(
        (W_h): Linear(in_features=133, out_features=300, bias=False)
        (in_fc): Linear(in_features=300, out_features=300, bias=True)
        (out_fc): Linear(in_features=300, out_features=300, bias=True)
        (reset_gate): Sequential(
          (0): Linear(in_features=900, out_features=300, bias=True)
          (1): Sigmoid()
        )
        (update_gate): Sequential(
          (0): Linear(in_features=900, out_features=300, bias=True)
          (1): Sigmoid()
        )
        (transform): Sequential(
          (0): Linear(in_features=900, out_features=300, bias=True)
          (1): Tanh()
        )
        (out): Sequential(
          (0): Linear(in_features=300, out_features=300, bias=True)
          (1): Tanh()
          (2): Linear(in_features=300, out_features=300, bias=True)
        )
      )
    )
  )
  (ffn): Sequential(
    (0): Dropout(p=0.0, inplace=False)
    (1): Linear(in_features=300, out_features=300, bias=True)
    (2): ReLU()
    (3): Dropout(p=0.0, inplace=False)
    (4): Linear(in_features=300, out_features=1, bias=True)
  )
)
Number of parameters = 1,302,901
Moving model to cuda
Epoch 0
Validation auc = 0.175000
Epoch 1
Validation auc = 0.175000
Epoch 2
Loss = 6.8462e-01, PNorm = 55.1750, GNorm = 0.4486, lr_0 = 8.2540e-04
Validation auc = 0.175000
Epoch 3
Validation auc = 0.162500
Epoch 4
Validation auc = 0.162500
Epoch 5
Loss = 6.7682e-01, PNorm = 55.1750, GNorm = 1.5564, lr_0 = 5.9403e-04
Validation auc = 0.162500
Epoch 6
Validation auc = 0.175000
Epoch 7
Validation auc = 0.175000
Epoch 8
Loss = 6.7475e-01, PNorm = 55.1750, GNorm = 1.0670, lr_0 = 4.2752e-04
Validation auc = 0.175000
Epoch 9
Validation auc = 0.175000
Epoch 10
Validation auc = 0.175000
Epoch 11
Loss = 6.7476e-01, PNorm = 55.1750, GNorm = 0.6905, lr_0 = 3.0768e-04
Validation auc = 0.175000
Epoch 12
Validation auc = 0.175000
Epoch 13
Validation auc = 0.162500
Epoch 14
Loss = 6.6954e-01, PNorm = 55.1751, GNorm = 1.4505, lr_0 = 2.2143e-04
Validation auc = 0.162500
Epoch 15
Validation auc = 0.162500
Epoch 16
Validation auc = 0.162500
Epoch 17
Loss = 6.7534e-01, PNorm = 55.1751, GNorm = 0.5016, lr_0 = 1.5936e-04
Validation auc = 0.162500
Epoch 18
Validation auc = 0.162500
Epoch 19
Validation auc = 0.162500
Epoch 20
Loss = 6.7557e-01, PNorm = 55.1751, GNorm = 0.3329, lr_0 = 1.1469e-04
Validation auc = 0.162500
Epoch 21
Validation auc = 0.162500
Epoch 22
Validation auc = 0.162500
Epoch 23
Loss = 6.6964e-01, PNorm = 55.1751, GNorm = 1.0545, lr_0 = 1.0000e-04
Validation auc = 0.162500
Epoch 24
Validation auc = 0.162500
Epoch 25
Validation auc = 0.162500
Epoch 26
Loss = 6.6421e-01, PNorm = 55.1751, GNorm = 1.7479, lr_0 = 1.0000e-04
Validation auc = 0.162500
Epoch 27
Validation auc = 0.162500
Epoch 28
Validation auc = 0.162500
Epoch 29
Loss = 6.7047e-01, PNorm = 55.1751, GNorm = 0.6123, lr_0 = 1.0000e-04
Validation auc = 0.162500
Model 0 best validation auc = 0.175000 on epoch 0
Loading pretrained parameter "encoder.encoder.0.cached_zero_vector".
Loading pretrained parameter "encoder.encoder.0.W_h.weight".
Loading pretrained parameter "encoder.encoder.0.in_fc.weight".
Loading pretrained parameter "encoder.encoder.0.in_fc.bias".
Loading pretrained parameter "encoder.encoder.0.out_fc.weight".
Loading pretrained parameter "encoder.encoder.0.out_fc.bias".
Loading pretrained parameter "encoder.encoder.0.reset_gate.0.weight".
Loading pretrained parameter "encoder.encoder.0.reset_gate.0.bias".
Loading pretrained parameter "encoder.encoder.0.update_gate.0.weight".
Loading pretrained parameter "encoder.encoder.0.update_gate.0.bias".
Loading pretrained parameter "encoder.encoder.0.transform.0.weight".
Loading pretrained parameter "encoder.encoder.0.transform.0.bias".
Loading pretrained parameter "encoder.encoder.0.out.0.weight".
Loading pretrained parameter "encoder.encoder.0.out.0.bias".
Loading pretrained parameter "encoder.encoder.0.out.2.weight".
Loading pretrained parameter "encoder.encoder.0.out.2.bias".
Loading pretrained parameter "ffn.1.weight".
Loading pretrained parameter "ffn.1.bias".
Loading pretrained parameter "ffn.4.weight".
Loading pretrained parameter "ffn.4.bias".
Moving model to cuda
Model 0 test auc = 0.263636
Ensemble test auc = 0.263636
3-fold cross validation
	Seed 0 ==> test auc = 0.511111
	Seed 1 ==> test auc = 0.187500
	Seed 2 ==> test auc = 0.263636
Overall test auc = 0.320749 +/- 0.138148
