Command line
python main.py
Args
{'activation': 'ReLU',
 'adding_h': False,
 'aggregation': 'mean',
 'aggregation_norm': 100,
 'atom_descriptor_scaling': True,
 'atom_descriptors': None,
 'atom_descriptors_path': None,
 'atom_descriptors_size': 0,
 'atom_features_size': 0,
 'atom_messages': False,
 'batch_size': 50,
 'bias': False,
 'bias_solvent': False,
 'bond_feature_scaling': True,
 'bond_features_path': None,
 'bond_features_size': 0,
 'cache_cutoff': 10000,
 'checkpoint_dir': None,
 'checkpoint_frzn': None,
 'checkpoint_path': None,
 'checkpoint_paths': None,
 'class_balance': False,
 'config_path': None,
 'crossval_index_dir': None,
 'crossval_index_file': None,
 'crossval_index_sets': None,
 'cuda': True,
 'data_path': './data/HDAC/HDAC11.csv',
 'data_weights_path': None,
 'dataset_type': 'classification',
 'depth': 3,
 'depth_solvent': 3,
 'device': device(type='cuda'),
 'dropout': 0.0,
 'empty_cache': False,
 'ensemble_size': 1,
 'epochs': 30,
 'evidential_regularization': 0,
 'explicit_h': False,
 'extra_metrics': [],
 'features_generator': None,
 'features_only': False,
 'features_path': None,
 'features_scaling': True,
 'features_size': None,
 'ffn_hidden_size': 300,
 'ffn_num_layers': 2,
 'final_lr': 0.0001,
 'folds_file': None,
 'frac_order': 1.0,
 'freeze_first_only': False,
 'frzn_ffn_layers': 0,
 'gpu': None,
 'grad_clip': None,
 'hidden_size': 300,
 'hidden_size_solvent': 300,
 'ignore_columns': None,
 'init_lr': 0.0001,
 'log_frequency': 10,
 'loss_function': 'binary_cross_entropy',
 'max_data_size': None,
 'max_lr': 0.001,
 'metric': 'auc',
 'metrics': ['auc'],
 'minimize_score': False,
 'model_name': 'GCN',
 'mpn_shared': False,
 'multiclass_num_classes': 3,
 'no_atom_descriptor_scaling': False,
 'no_bond_features_scaling': False,
 'no_cache_mol': False,
 'no_cuda': False,
 'no_features_scaling': False,
 'num_folds': 3,
 'num_lrs': 1,
 'num_tasks': 1,
 'num_workers': 8,
 'number_of_molecules': 1,
 'optimizer': 'SGD',
 'overwrite_default_atom_features': False,
 'overwrite_default_bond_features': False,
 'phase_features_path': None,
 'pytorch_seed': 0,
 'quiet': False,
 'reaction': False,
 'reaction_mode': 'reac_diff',
 'reaction_solvent': False,
 'resume_experiment': False,
 'save_dir': './result/classification/HDAC/HDAC11/GCN/SGD/1.0',
 'save_preds': True,
 'save_smiles_splits': False,
 'seed': 0,
 'separate_test_atom_descriptors_path': None,
 'separate_test_bond_features_path': None,
 'separate_test_features_path': None,
 'separate_test_path': None,
 'separate_test_phase_features_path': None,
 'separate_val_atom_descriptors_path': None,
 'separate_val_bond_features_path': None,
 'separate_val_features_path': None,
 'separate_val_path': None,
 'separate_val_phase_features_path': None,
 'show_individual_scores': False,
 'smiles_columns': ['CC(/C=C/C(=O)NO)=C\\[C@@H](C)C(=O)c1ccc(N(C)C)cc1'],
 'spectra_activation': 'exp',
 'spectra_phase_mask_path': None,
 'spectra_target_floor': 1e-08,
 'split_key_molecule': 0,
 'split_sizes': [0.8, 0.1, 0.1],
 'split_type': 'random',
 'target_columns': None,
 'target_weights': None,
 'task_names': ['1'],
 'test': False,
 'test_fold_index': None,
 'train_data_size': None,
 'undirected': False,
 'use_input_features': False,
 'val_fold_index': None,
 'warmup_epochs': 2.0}
Setting molecule featurization parameters to default.
Loading data
Number of tasks = 1
Fold 0
Splitting data with seed 0
Class sizes
1 0: 36.36%, 1: 63.64%
Total size = 209 | train size = 167 | val size = 21 | test size = 21
Building model 0
MoleculeModel(
  (sigmoid): Sigmoid()
  (encoder): GCN(
    (encoder): ModuleList(
      (0): GCNEncoder(
        (gc1): graphconvolution(
          (fc): Linear(in_features=133, out_features=300, bias=True)
        )
        (gc2): graphconvolution(
          (fc): Linear(in_features=300, out_features=300, bias=True)
        )
        (gc3): graphconvolution(
          (fc): Linear(in_features=300, out_features=300, bias=True)
        )
      )
    )
  )
  (ffn): Sequential(
    (0): Dropout(p=0.0, inplace=False)
    (1): Linear(in_features=300, out_features=300, bias=True)
    (2): ReLU()
    (3): Dropout(p=0.0, inplace=False)
    (4): Linear(in_features=300, out_features=1, bias=True)
  )
)
Number of parameters = 532,501
Moving model to cuda
Epoch 0
Validation auc = 0.350000
Epoch 1
Validation auc = 0.425000
Epoch 2
Loss = 1.1669e+00, PNorm = 43.2600, GNorm = 6.7222, lr_0 = 8.2540e-04
Validation auc = 0.700000
Epoch 3
Validation auc = 0.712500
Epoch 4
Validation auc = 0.725000
Epoch 5
Loss = 6.1421e-01, PNorm = 43.2600, GNorm = 7.5389, lr_0 = 5.9403e-04
Validation auc = 0.700000
Epoch 6
Validation auc = 0.725000
Epoch 7
Validation auc = 0.687500
Epoch 8
Loss = 6.1976e-01, PNorm = 43.2600, GNorm = 7.0139, lr_0 = 4.2752e-04
Validation auc = 0.700000
Epoch 9
Validation auc = 0.700000
Epoch 10
Validation auc = 0.700000
Epoch 11
Loss = 5.6711e-01, PNorm = 43.2600, GNorm = 10.3768, lr_0 = 3.0768e-04
Validation auc = 0.700000
Epoch 12
Validation auc = 0.700000
Epoch 13
Validation auc = 0.700000
Epoch 14
Loss = 6.0236e-01, PNorm = 43.2600, GNorm = 12.3833, lr_0 = 2.2143e-04
Validation auc = 0.687500
Epoch 15
Validation auc = 0.687500
Epoch 16
Validation auc = 0.687500
Epoch 17
Loss = 5.7014e-01, PNorm = 43.2601, GNorm = 6.2459, lr_0 = 1.5936e-04
Validation auc = 0.687500
Epoch 18
Validation auc = 0.687500
Epoch 19
Validation auc = 0.687500
Epoch 20
Loss = 5.6581e-01, PNorm = 43.2601, GNorm = 5.8707, lr_0 = 1.1469e-04
Validation auc = 0.700000
Epoch 21
Validation auc = 0.700000
Epoch 22
Validation auc = 0.687500
Epoch 23
Loss = 5.8315e-01, PNorm = 43.2601, GNorm = 9.1879, lr_0 = 1.0000e-04
Validation auc = 0.687500
Epoch 24
Validation auc = 0.687500
Epoch 25
Validation auc = 0.700000
Epoch 26
Loss = 5.8393e-01, PNorm = 43.2601, GNorm = 17.3247, lr_0 = 1.0000e-04
Validation auc = 0.700000
Epoch 27
Validation auc = 0.687500
Epoch 28
Validation auc = 0.687500
Epoch 29
Loss = 5.7128e-01, PNorm = 43.2601, GNorm = 6.5923, lr_0 = 1.0000e-04
Validation auc = 0.687500
Model 0 best validation auc = 0.725000 on epoch 4
Loading pretrained parameter "encoder.encoder.0.cached_zero_vector".
Loading pretrained parameter "encoder.encoder.0.gc1.weight".
Loading pretrained parameter "encoder.encoder.0.gc1.bias".
Loading pretrained parameter "encoder.encoder.0.gc1.fc.weight".
Loading pretrained parameter "encoder.encoder.0.gc1.fc.bias".
Loading pretrained parameter "encoder.encoder.0.gc2.weight".
Loading pretrained parameter "encoder.encoder.0.gc2.bias".
Loading pretrained parameter "encoder.encoder.0.gc2.fc.weight".
Loading pretrained parameter "encoder.encoder.0.gc2.fc.bias".
Loading pretrained parameter "encoder.encoder.0.gc3.weight".
Loading pretrained parameter "encoder.encoder.0.gc3.bias".
Loading pretrained parameter "encoder.encoder.0.gc3.fc.weight".
Loading pretrained parameter "encoder.encoder.0.gc3.fc.bias".
Loading pretrained parameter "ffn.1.weight".
Loading pretrained parameter "ffn.1.bias".
Loading pretrained parameter "ffn.4.weight".
Loading pretrained parameter "ffn.4.bias".
Moving model to cuda
Model 0 test auc = 0.500000
Ensemble test auc = 0.500000
Fold 1
Splitting data with seed 1
Class sizes
1 0: 36.36%, 1: 63.64%
Total size = 209 | train size = 167 | val size = 21 | test size = 21
Building model 0
MoleculeModel(
  (sigmoid): Sigmoid()
  (encoder): GCN(
    (encoder): ModuleList(
      (0): GCNEncoder(
        (gc1): graphconvolution(
          (fc): Linear(in_features=133, out_features=300, bias=True)
        )
        (gc2): graphconvolution(
          (fc): Linear(in_features=300, out_features=300, bias=True)
        )
        (gc3): graphconvolution(
          (fc): Linear(in_features=300, out_features=300, bias=True)
        )
      )
    )
  )
  (ffn): Sequential(
    (0): Dropout(p=0.0, inplace=False)
    (1): Linear(in_features=300, out_features=300, bias=True)
    (2): ReLU()
    (3): Dropout(p=0.0, inplace=False)
    (4): Linear(in_features=300, out_features=1, bias=True)
  )
)
Number of parameters = 532,501
Moving model to cuda
Epoch 0
Validation auc = 0.662500
Epoch 1
Validation auc = 0.675000
Epoch 2
Loss = 1.1559e+00, PNorm = 43.2598, GNorm = 31.2692, lr_0 = 8.2540e-04
Validation auc = 0.737500
Epoch 3
Validation auc = 0.775000
Epoch 4
Validation auc = 0.612500
Epoch 5
Loss = 6.4771e-01, PNorm = 43.2597, GNorm = 6.5770, lr_0 = 5.9403e-04
Validation auc = 0.787500
Epoch 6
Validation auc = 0.787500
Epoch 7
Validation auc = 0.762500
Epoch 8
Loss = 6.1333e-01, PNorm = 43.2597, GNorm = 15.9014, lr_0 = 4.2752e-04
Validation auc = 0.675000
Epoch 9
Validation auc = 0.775000
Epoch 10
Validation auc = 0.750000
Epoch 11
Loss = 6.0112e-01, PNorm = 43.2597, GNorm = 10.8843, lr_0 = 3.0768e-04
Validation auc = 0.775000
Epoch 12
Validation auc = 0.812500
Epoch 13
Validation auc = 0.775000
Epoch 14
Loss = 5.8909e-01, PNorm = 43.2597, GNorm = 4.6905, lr_0 = 2.2143e-04
Validation auc = 0.787500
Epoch 15
Validation auc = 0.787500
Epoch 16
Validation auc = 0.812500
Epoch 17
Loss = 6.0519e-01, PNorm = 43.2598, GNorm = 6.4561, lr_0 = 1.5936e-04
Validation auc = 0.812500
Epoch 18
Validation auc = 0.800000
Epoch 19
Validation auc = 0.812500
Epoch 20
Loss = 5.9898e-01, PNorm = 43.2598, GNorm = 2.7410, lr_0 = 1.1469e-04
Validation auc = 0.812500
Epoch 21
Validation auc = 0.812500
Epoch 22
Validation auc = 0.812500
Epoch 23
Loss = 6.1802e-01, PNorm = 43.2598, GNorm = 20.0983, lr_0 = 1.0000e-04
Validation auc = 0.800000
Epoch 24
Validation auc = 0.812500
Epoch 25
Validation auc = 0.812500
Epoch 26
Loss = 5.7585e-01, PNorm = 43.2598, GNorm = 11.0992, lr_0 = 1.0000e-04
Validation auc = 0.812500
Epoch 27
Validation auc = 0.787500
Epoch 28
Validation auc = 0.812500
Epoch 29
Loss = 6.0533e-01, PNorm = 43.2598, GNorm = 9.5304, lr_0 = 1.0000e-04
Validation auc = 0.812500
Model 0 best validation auc = 0.812500 on epoch 12
Loading pretrained parameter "encoder.encoder.0.cached_zero_vector".
Loading pretrained parameter "encoder.encoder.0.gc1.weight".
Loading pretrained parameter "encoder.encoder.0.gc1.bias".
Loading pretrained parameter "encoder.encoder.0.gc1.fc.weight".
Loading pretrained parameter "encoder.encoder.0.gc1.fc.bias".
Loading pretrained parameter "encoder.encoder.0.gc2.weight".
Loading pretrained parameter "encoder.encoder.0.gc2.bias".
Loading pretrained parameter "encoder.encoder.0.gc2.fc.weight".
Loading pretrained parameter "encoder.encoder.0.gc2.fc.bias".
Loading pretrained parameter "encoder.encoder.0.gc3.weight".
Loading pretrained parameter "encoder.encoder.0.gc3.bias".
Loading pretrained parameter "encoder.encoder.0.gc3.fc.weight".
Loading pretrained parameter "encoder.encoder.0.gc3.fc.bias".
Loading pretrained parameter "ffn.1.weight".
Loading pretrained parameter "ffn.1.bias".
Loading pretrained parameter "ffn.4.weight".
Loading pretrained parameter "ffn.4.bias".
Moving model to cuda
Model 0 test auc = 0.950000
Ensemble test auc = 0.950000
Fold 2
Splitting data with seed 2
Class sizes
1 0: 36.36%, 1: 63.64%
Total size = 209 | train size = 167 | val size = 21 | test size = 21
Building model 0
MoleculeModel(
  (sigmoid): Sigmoid()
  (encoder): GCN(
    (encoder): ModuleList(
      (0): GCNEncoder(
        (gc1): graphconvolution(
          (fc): Linear(in_features=133, out_features=300, bias=True)
        )
        (gc2): graphconvolution(
          (fc): Linear(in_features=300, out_features=300, bias=True)
        )
        (gc3): graphconvolution(
          (fc): Linear(in_features=300, out_features=300, bias=True)
        )
      )
    )
  )
  (ffn): Sequential(
    (0): Dropout(p=0.0, inplace=False)
    (1): Linear(in_features=300, out_features=300, bias=True)
    (2): ReLU()
    (3): Dropout(p=0.0, inplace=False)
    (4): Linear(in_features=300, out_features=1, bias=True)
  )
)
Number of parameters = 532,501
Moving model to cuda
Epoch 0
Validation auc = 0.950000
Epoch 1
Validation auc = 0.887500
Epoch 2
Loss = 7.9092e-01, PNorm = 43.2604, GNorm = 24.3873, lr_0 = 8.2540e-04
Validation auc = 0.825000
Epoch 3
Validation auc = 0.787500
Epoch 4
Validation auc = 1.000000
Epoch 5
Loss = 6.2519e-01, PNorm = 43.2602, GNorm = 3.7441, lr_0 = 5.9403e-04
Validation auc = 0.925000
Epoch 6
Validation auc = 0.962500
Epoch 7
Validation auc = 1.000000
Epoch 8
Loss = 6.2112e-01, PNorm = 43.2602, GNorm = 7.8101, lr_0 = 4.2752e-04
Validation auc = 0.987500
Epoch 9
Validation auc = 1.000000
Epoch 10
Validation auc = 1.000000
Epoch 11
Loss = 6.0217e-01, PNorm = 43.2602, GNorm = 8.0858, lr_0 = 3.0768e-04
Validation auc = 1.000000
Epoch 12
Validation auc = 1.000000
Epoch 13
Validation auc = 1.000000
Epoch 14
Loss = 5.7668e-01, PNorm = 43.2602, GNorm = 12.5279, lr_0 = 2.2143e-04
Validation auc = 1.000000
Epoch 15
Validation auc = 0.987500
Epoch 16
Validation auc = 1.000000
Epoch 17
Loss = 5.9593e-01, PNorm = 43.2602, GNorm = 17.1725, lr_0 = 1.5936e-04
Validation auc = 1.000000
Epoch 18
Validation auc = 1.000000
Epoch 19
Validation auc = 1.000000
Epoch 20
Loss = 5.8605e-01, PNorm = 43.2602, GNorm = 3.5756, lr_0 = 1.1469e-04
Validation auc = 1.000000
Epoch 21
Validation auc = 1.000000
Epoch 22
Validation auc = 1.000000
Epoch 23
Loss = 5.6499e-01, PNorm = 43.2602, GNorm = 4.7371, lr_0 = 1.0000e-04
Validation auc = 1.000000
Epoch 24
Validation auc = 1.000000
Epoch 25
Validation auc = 1.000000
Epoch 26
Loss = 5.5858e-01, PNorm = 43.2602, GNorm = 9.5364, lr_0 = 1.0000e-04
Validation auc = 1.000000
Epoch 27
Validation auc = 1.000000
Epoch 28
Validation auc = 1.000000
Epoch 29
Loss = 5.7316e-01, PNorm = 43.2602, GNorm = 5.6081, lr_0 = 1.0000e-04
Validation auc = 1.000000
Model 0 best validation auc = 1.000000 on epoch 4
Loading pretrained parameter "encoder.encoder.0.cached_zero_vector".
Loading pretrained parameter "encoder.encoder.0.gc1.weight".
Loading pretrained parameter "encoder.encoder.0.gc1.bias".
Loading pretrained parameter "encoder.encoder.0.gc1.fc.weight".
Loading pretrained parameter "encoder.encoder.0.gc1.fc.bias".
Loading pretrained parameter "encoder.encoder.0.gc2.weight".
Loading pretrained parameter "encoder.encoder.0.gc2.bias".
Loading pretrained parameter "encoder.encoder.0.gc2.fc.weight".
Loading pretrained parameter "encoder.encoder.0.gc2.fc.bias".
Loading pretrained parameter "encoder.encoder.0.gc3.weight".
Loading pretrained parameter "encoder.encoder.0.gc3.bias".
Loading pretrained parameter "encoder.encoder.0.gc3.fc.weight".
Loading pretrained parameter "encoder.encoder.0.gc3.fc.bias".
Loading pretrained parameter "ffn.1.weight".
Loading pretrained parameter "ffn.1.bias".
Loading pretrained parameter "ffn.4.weight".
Loading pretrained parameter "ffn.4.bias".
Moving model to cuda
Model 0 test auc = 0.609091
Ensemble test auc = 0.609091
3-fold cross validation
	Seed 0 ==> test auc = 0.500000
	Seed 1 ==> test auc = 0.950000
	Seed 2 ==> test auc = 0.609091
Overall test auc = 0.686364 +/- 0.191665
