Fold 0
Model 0 best validation auc = 0.600000 on epoch 12
Model 0 test auc = 0.400000
Ensemble test auc = 0.400000
Fold 1
Model 0 best validation auc = 0.888889 on epoch 0
Warning: Found a task with targets all 0s or all 1s
Model 0 test auc = nan
Warning: Found a task with targets all 0s or all 1s
Ensemble test auc = nan
Fold 2
Model 0 best validation auc = 0.833333 on epoch 1
Model 0 test auc = 0.500000
Ensemble test auc = 0.500000
3-fold cross validation
	Seed 0 ==> test auc = 0.400000
	Seed 1 ==> test auc = nan
	Seed 2 ==> test auc = 0.500000
Overall test auc = nan +/- nan
