Fold 0
Model 0 best validation auc = 0.729167 on epoch 27
Model 0 test auc = 0.525455
Ensemble test auc = 0.525455
Fold 1
Model 0 best validation auc = 0.758448 on epoch 29
Model 0 test auc = 0.685535
Ensemble test auc = 0.685535
Fold 2
Model 0 best validation auc = 0.579661 on epoch 29
Model 0 test auc = 0.876364
Ensemble test auc = 0.876364
3-fold cross validation
	Seed 0 ==> test auc = 0.525455
	Seed 1 ==> test auc = 0.685535
	Seed 2 ==> test auc = 0.876364
Overall test auc = 0.695784 +/- 0.143441
