Fold 0
Model 0 best validation auc = 0.857143 on epoch 0
Model 0 test auc = 0.428571
Ensemble test auc = 0.428571
Fold 1
Model 0 best validation auc = 0.625000 on epoch 17
Model 0 test auc = 0.916667
Ensemble test auc = 0.916667
Fold 2
Model 0 best validation auc = 0.875000 on epoch 2
Model 0 test auc = 0.280000
Ensemble test auc = 0.280000
3-fold cross validation
	Seed 0 ==> test auc = 0.428571
	Seed 1 ==> test auc = 0.916667
	Seed 2 ==> test auc = 0.280000
Overall test auc = 0.541746 +/- 0.271959
