Command line
python main.py
Args
{'activation': 'ReLU',
 'adding_h': False,
 'aggregation': 'mean',
 'aggregation_norm': 100,
 'atom_descriptor_scaling': True,
 'atom_descriptors': None,
 'atom_descriptors_path': None,
 'atom_descriptors_size': 0,
 'atom_features_size': 0,
 'atom_messages': False,
 'batch_size': 50,
 'bias': False,
 'bias_solvent': False,
 'bond_feature_scaling': True,
 'bond_features_path': None,
 'bond_features_size': 0,
 'cache_cutoff': 10000,
 'checkpoint_dir': None,
 'checkpoint_frzn': None,
 'checkpoint_path': None,
 'checkpoint_paths': None,
 'class_balance': False,
 'config_path': None,
 'crossval_index_dir': None,
 'crossval_index_file': None,
 'crossval_index_sets': None,
 'cuda': True,
 'data_path': './data/HDAC/HDAC11.csv',
 'data_weights_path': None,
 'dataset_type': 'classification',
 'depth': 3,
 'depth_solvent': 3,
 'device': device(type='cuda'),
 'dropout': 0.0,
 'empty_cache': False,
 'ensemble_size': 1,
 'epochs': 30,
 'evidential_regularization': 0,
 'explicit_h': False,
 'extra_metrics': [],
 'features_generator': None,
 'features_only': False,
 'features_path': None,
 'features_scaling': True,
 'features_size': None,
 'ffn_hidden_size': 300,
 'ffn_num_layers': 2,
 'final_lr': 0.0001,
 'folds_file': None,
 'frac_order': 1.0,
 'freeze_first_only': False,
 'frzn_ffn_layers': 0,
 'gpu': None,
 'grad_clip': None,
 'hidden_size': 300,
 'hidden_size_solvent': 300,
 'ignore_columns': None,
 'init_lr': 0.0001,
 'log_frequency': 10,
 'loss_function': 'binary_cross_entropy',
 'max_data_size': None,
 'max_lr': 0.001,
 'metric': 'auc',
 'metrics': ['auc'],
 'minimize_score': False,
 'model_name': 'GCN',
 'mpn_shared': False,
 'multiclass_num_classes': 3,
 'no_atom_descriptor_scaling': False,
 'no_bond_features_scaling': False,
 'no_cache_mol': False,
 'no_cuda': False,
 'no_features_scaling': False,
 'num_folds': 3,
 'num_lrs': 1,
 'num_tasks': 1,
 'num_workers': 8,
 'number_of_molecules': 1,
 'optimizer': 'Adam',
 'overwrite_default_atom_features': False,
 'overwrite_default_bond_features': False,
 'phase_features_path': None,
 'pytorch_seed': 0,
 'quiet': False,
 'reaction': False,
 'reaction_mode': 'reac_diff',
 'reaction_solvent': False,
 'resume_experiment': False,
 'save_dir': './result/classification/HDAC/HDAC11/GCN/Adam/1.0',
 'save_preds': True,
 'save_smiles_splits': False,
 'seed': 0,
 'separate_test_atom_descriptors_path': None,
 'separate_test_bond_features_path': None,
 'separate_test_features_path': None,
 'separate_test_path': None,
 'separate_test_phase_features_path': None,
 'separate_val_atom_descriptors_path': None,
 'separate_val_bond_features_path': None,
 'separate_val_features_path': None,
 'separate_val_path': None,
 'separate_val_phase_features_path': None,
 'show_individual_scores': False,
 'smiles_columns': ['CC(/C=C/C(=O)NO)=C\\[C@@H](C)C(=O)c1ccc(N(C)C)cc1'],
 'spectra_activation': 'exp',
 'spectra_phase_mask_path': None,
 'spectra_target_floor': 1e-08,
 'split_key_molecule': 0,
 'split_sizes': [0.8, 0.1, 0.1],
 'split_type': 'random',
 'target_columns': None,
 'target_weights': None,
 'task_names': ['1'],
 'test': False,
 'test_fold_index': None,
 'train_data_size': None,
 'undirected': False,
 'use_input_features': False,
 'val_fold_index': None,
 'warmup_epochs': 2.0}
Setting molecule featurization parameters to default.
Loading data
Number of tasks = 1
Fold 0
Splitting data with seed 0
Class sizes
1 0: 36.36%, 1: 63.64%
Total size = 209 | train size = 167 | val size = 21 | test size = 21
Building model 0
MoleculeModel(
  (sigmoid): Sigmoid()
  (encoder): GCN(
    (encoder): ModuleList(
      (0): GCNEncoder(
        (gc1): graphconvolution(
          (fc): Linear(in_features=133, out_features=300, bias=True)
        )
        (gc2): graphconvolution(
          (fc): Linear(in_features=300, out_features=300, bias=True)
        )
        (gc3): graphconvolution(
          (fc): Linear(in_features=300, out_features=300, bias=True)
        )
      )
    )
  )
  (ffn): Sequential(
    (0): Dropout(p=0.0, inplace=False)
    (1): Linear(in_features=300, out_features=300, bias=True)
    (2): ReLU()
    (3): Dropout(p=0.0, inplace=False)
    (4): Linear(in_features=300, out_features=1, bias=True)
  )
)
Number of parameters = 532,501
Moving model to cuda
Epoch 0
Validation auc = 0.637500
Epoch 1
Validation auc = 0.575000
Epoch 2
Loss = 6.7559e-01, PNorm = 43.2644, GNorm = 6.5246, lr_0 = 8.2540e-04
Validation auc = 0.687500
Epoch 3
Validation auc = 0.700000
Epoch 4
Validation auc = 0.662500
Epoch 5
Loss = 5.5276e-01, PNorm = 43.2720, GNorm = 4.3600, lr_0 = 5.9403e-04
Validation auc = 0.675000
Epoch 6
Validation auc = 0.675000
Epoch 7
Validation auc = 0.662500
Epoch 8
Loss = 5.3782e-01, PNorm = 43.2792, GNorm = 7.4574, lr_0 = 4.2752e-04
Validation auc = 0.637500
Epoch 9
Validation auc = 0.650000
Epoch 10
Validation auc = 0.650000
Epoch 11
Loss = 5.0453e-01, PNorm = 43.2854, GNorm = 5.7262, lr_0 = 3.0768e-04
Validation auc = 0.650000
Epoch 12
Validation auc = 0.675000
Epoch 13
Validation auc = 0.675000
Epoch 14
Loss = 4.7115e-01, PNorm = 43.2894, GNorm = 5.1389, lr_0 = 2.2143e-04
Validation auc = 0.662500
Epoch 15
Validation auc = 0.650000
Epoch 16
Validation auc = 0.662500
Epoch 17
Loss = 4.2248e-01, PNorm = 43.2933, GNorm = 12.3987, lr_0 = 1.5936e-04
Validation auc = 0.675000
Epoch 18
Validation auc = 0.675000
Epoch 19
Validation auc = 0.687500
Epoch 20
Loss = 4.1608e-01, PNorm = 43.2964, GNorm = 6.8960, lr_0 = 1.1469e-04
Validation auc = 0.687500
Epoch 21
Validation auc = 0.687500
Epoch 22
Validation auc = 0.687500
Epoch 23
Loss = 3.8128e-01, PNorm = 43.2989, GNorm = 5.9081, lr_0 = 1.0000e-04
Validation auc = 0.687500
Epoch 24
Validation auc = 0.687500
Epoch 25
Validation auc = 0.687500
Epoch 26
Loss = 3.9706e-01, PNorm = 43.3016, GNorm = 22.3177, lr_0 = 1.0000e-04
Validation auc = 0.687500
Epoch 27
Validation auc = 0.675000
Epoch 28
Validation auc = 0.687500
Epoch 29
Loss = 3.4390e-01, PNorm = 43.3041, GNorm = 6.8678, lr_0 = 1.0000e-04
Validation auc = 0.712500
Model 0 best validation auc = 0.712500 on epoch 29
Loading pretrained parameter "encoder.encoder.0.cached_zero_vector".
Loading pretrained parameter "encoder.encoder.0.gc1.weight".
Loading pretrained parameter "encoder.encoder.0.gc1.bias".
Loading pretrained parameter "encoder.encoder.0.gc1.fc.weight".
Loading pretrained parameter "encoder.encoder.0.gc1.fc.bias".
Loading pretrained parameter "encoder.encoder.0.gc2.weight".
Loading pretrained parameter "encoder.encoder.0.gc2.bias".
Loading pretrained parameter "encoder.encoder.0.gc2.fc.weight".
Loading pretrained parameter "encoder.encoder.0.gc2.fc.bias".
Loading pretrained parameter "encoder.encoder.0.gc3.weight".
Loading pretrained parameter "encoder.encoder.0.gc3.bias".
Loading pretrained parameter "encoder.encoder.0.gc3.fc.weight".
Loading pretrained parameter "encoder.encoder.0.gc3.fc.bias".
Loading pretrained parameter "ffn.1.weight".
Loading pretrained parameter "ffn.1.bias".
Loading pretrained parameter "ffn.4.weight".
Loading pretrained parameter "ffn.4.bias".
Moving model to cuda
Model 0 test auc = 0.688889
Ensemble test auc = 0.688889
Fold 1
Splitting data with seed 1
Class sizes
1 0: 36.36%, 1: 63.64%
Total size = 209 | train size = 167 | val size = 21 | test size = 21
Building model 0
MoleculeModel(
  (sigmoid): Sigmoid()
  (encoder): GCN(
    (encoder): ModuleList(
      (0): GCNEncoder(
        (gc1): graphconvolution(
          (fc): Linear(in_features=133, out_features=300, bias=True)
        )
        (gc2): graphconvolution(
          (fc): Linear(in_features=300, out_features=300, bias=True)
        )
        (gc3): graphconvolution(
          (fc): Linear(in_features=300, out_features=300, bias=True)
        )
      )
    )
  )
  (ffn): Sequential(
    (0): Dropout(p=0.0, inplace=False)
    (1): Linear(in_features=300, out_features=300, bias=True)
    (2): ReLU()
    (3): Dropout(p=0.0, inplace=False)
    (4): Linear(in_features=300, out_features=1, bias=True)
  )
)
Number of parameters = 532,501
Moving model to cuda
Epoch 0
Validation auc = 0.637500
Epoch 1
Validation auc = 0.625000
Epoch 2
Loss = 7.7374e-01, PNorm = 43.2648, GNorm = 14.5808, lr_0 = 8.2540e-04
Validation auc = 0.725000
Epoch 3
Validation auc = 0.687500
Epoch 4
Validation auc = 0.737500
Epoch 5
Loss = 6.5665e-01, PNorm = 43.2719, GNorm = 8.8989, lr_0 = 5.9403e-04
Validation auc = 0.750000
Epoch 6
Validation auc = 0.787500
Epoch 7
Validation auc = 0.762500
Epoch 8
Loss = 5.9934e-01, PNorm = 43.2761, GNorm = 10.0477, lr_0 = 4.2752e-04
Validation auc = 0.775000
Epoch 9
Validation auc = 0.787500
Epoch 10
Validation auc = 0.812500
Epoch 11
Loss = 5.3681e-01, PNorm = 43.2796, GNorm = 5.9802, lr_0 = 3.0768e-04
Validation auc = 0.800000
Epoch 12
Validation auc = 0.775000
Epoch 13
Validation auc = 0.800000
Epoch 14
Loss = 4.9714e-01, PNorm = 43.2832, GNorm = 2.6342, lr_0 = 2.2143e-04
Validation auc = 0.800000
Epoch 15
Validation auc = 0.812500
Epoch 16
Validation auc = 0.850000
Epoch 17
Loss = 5.1561e-01, PNorm = 43.2864, GNorm = 3.0566, lr_0 = 1.5936e-04
Validation auc = 0.875000
Epoch 18
Validation auc = 0.862500
Epoch 19
Validation auc = 0.850000
Epoch 20
Loss = 4.9359e-01, PNorm = 43.2892, GNorm = 2.4971, lr_0 = 1.1469e-04
Validation auc = 0.875000
Epoch 21
Validation auc = 0.900000
Epoch 22
Validation auc = 0.887500
Epoch 23
Loss = 4.8609e-01, PNorm = 43.2917, GNorm = 13.8800, lr_0 = 1.0000e-04
Validation auc = 0.875000
Epoch 24
Validation auc = 0.900000
Epoch 25
Validation auc = 0.887500
Epoch 26
Loss = 4.3597e-01, PNorm = 43.2942, GNorm = 12.2079, lr_0 = 1.0000e-04
Validation auc = 0.912500
Epoch 27
Validation auc = 0.912500
Epoch 28
Validation auc = 0.887500
Epoch 29
Loss = 4.4922e-01, PNorm = 43.2968, GNorm = 7.0450, lr_0 = 1.0000e-04
Validation auc = 0.925000
Model 0 best validation auc = 0.925000 on epoch 29
Loading pretrained parameter "encoder.encoder.0.cached_zero_vector".
Loading pretrained parameter "encoder.encoder.0.gc1.weight".
Loading pretrained parameter "encoder.encoder.0.gc1.bias".
Loading pretrained parameter "encoder.encoder.0.gc1.fc.weight".
Loading pretrained parameter "encoder.encoder.0.gc1.fc.bias".
Loading pretrained parameter "encoder.encoder.0.gc2.weight".
Loading pretrained parameter "encoder.encoder.0.gc2.bias".
Loading pretrained parameter "encoder.encoder.0.gc2.fc.weight".
Loading pretrained parameter "encoder.encoder.0.gc2.fc.bias".
Loading pretrained parameter "encoder.encoder.0.gc3.weight".
Loading pretrained parameter "encoder.encoder.0.gc3.bias".
Loading pretrained parameter "encoder.encoder.0.gc3.fc.weight".
Loading pretrained parameter "encoder.encoder.0.gc3.fc.bias".
Loading pretrained parameter "ffn.1.weight".
Loading pretrained parameter "ffn.1.bias".
Loading pretrained parameter "ffn.4.weight".
Loading pretrained parameter "ffn.4.bias".
Moving model to cuda
Model 0 test auc = 0.850000
Ensemble test auc = 0.850000
Fold 2
Splitting data with seed 2
Class sizes
1 0: 36.36%, 1: 63.64%
Total size = 209 | train size = 167 | val size = 21 | test size = 21
Building model 0
MoleculeModel(
  (sigmoid): Sigmoid()
  (encoder): GCN(
    (encoder): ModuleList(
      (0): GCNEncoder(
        (gc1): graphconvolution(
          (fc): Linear(in_features=133, out_features=300, bias=True)
        )
        (gc2): graphconvolution(
          (fc): Linear(in_features=300, out_features=300, bias=True)
        )
        (gc3): graphconvolution(
          (fc): Linear(in_features=300, out_features=300, bias=True)
        )
      )
    )
  )
  (ffn): Sequential(
    (0): Dropout(p=0.0, inplace=False)
    (1): Linear(in_features=300, out_features=300, bias=True)
    (2): ReLU()
    (3): Dropout(p=0.0, inplace=False)
    (4): Linear(in_features=300, out_features=1, bias=True)
  )
)
Number of parameters = 532,501
Moving model to cuda
Epoch 0
Validation auc = 0.850000
Epoch 1
Validation auc = 0.837500
Epoch 2
Loss = 8.0420e-01, PNorm = 43.2651, GNorm = 14.9074, lr_0 = 8.2540e-04
Validation auc = 0.950000
Epoch 3
Validation auc = 0.912500
Epoch 4
Validation auc = 0.812500
Epoch 5
Loss = 6.3013e-01, PNorm = 43.2696, GNorm = 4.9310, lr_0 = 5.9403e-04
Validation auc = 1.000000
Epoch 6
Validation auc = 1.000000
Epoch 7
Validation auc = 1.000000
Epoch 8
Loss = 5.9656e-01, PNorm = 43.2735, GNorm = 6.0553, lr_0 = 4.2752e-04
Validation auc = 1.000000
Epoch 9
Validation auc = 1.000000
Epoch 10
Validation auc = 1.000000
Epoch 11
Loss = 5.9326e-01, PNorm = 43.2765, GNorm = 7.1617, lr_0 = 3.0768e-04
Validation auc = 1.000000
Epoch 12
Validation auc = 1.000000
Epoch 13
Validation auc = 1.000000
Epoch 14
Loss = 5.7498e-01, PNorm = 43.2794, GNorm = 11.6752, lr_0 = 2.2143e-04
Validation auc = 1.000000
Epoch 15
Validation auc = 1.000000
Epoch 16
Validation auc = 1.000000
Epoch 17
Loss = 5.4951e-01, PNorm = 43.2817, GNorm = 4.5958, lr_0 = 1.5936e-04
Validation auc = 1.000000
Epoch 18
Validation auc = 1.000000
Epoch 19
Validation auc = 1.000000
Epoch 20
Loss = 5.3830e-01, PNorm = 43.2837, GNorm = 2.5491, lr_0 = 1.1469e-04
Validation auc = 1.000000
Epoch 21
Validation auc = 1.000000
Epoch 22
Validation auc = 1.000000
Epoch 23
Loss = 4.9668e-01, PNorm = 43.2854, GNorm = 2.2216, lr_0 = 1.0000e-04
Validation auc = 1.000000
Epoch 24
Validation auc = 1.000000
Epoch 25
Validation auc = 1.000000
Epoch 26
Loss = 4.8277e-01, PNorm = 43.2875, GNorm = 8.0603, lr_0 = 1.0000e-04
Validation auc = 1.000000
Epoch 27
Validation auc = 1.000000
Epoch 28
Validation auc = 1.000000
Epoch 29
Loss = 4.7962e-01, PNorm = 43.2898, GNorm = 2.5815, lr_0 = 1.0000e-04
Validation auc = 1.000000
Model 0 best validation auc = 1.000000 on epoch 5
Loading pretrained parameter "encoder.encoder.0.cached_zero_vector".
Loading pretrained parameter "encoder.encoder.0.gc1.weight".
Loading pretrained parameter "encoder.encoder.0.gc1.bias".
Loading pretrained parameter "encoder.encoder.0.gc1.fc.weight".
Loading pretrained parameter "encoder.encoder.0.gc1.fc.bias".
Loading pretrained parameter "encoder.encoder.0.gc2.weight".
Loading pretrained parameter "encoder.encoder.0.gc2.bias".
Loading pretrained parameter "encoder.encoder.0.gc2.fc.weight".
Loading pretrained parameter "encoder.encoder.0.gc2.fc.bias".
Loading pretrained parameter "encoder.encoder.0.gc3.weight".
Loading pretrained parameter "encoder.encoder.0.gc3.bias".
Loading pretrained parameter "encoder.encoder.0.gc3.fc.weight".
Loading pretrained parameter "encoder.encoder.0.gc3.fc.bias".
Loading pretrained parameter "ffn.1.weight".
Loading pretrained parameter "ffn.1.bias".
Loading pretrained parameter "ffn.4.weight".
Loading pretrained parameter "ffn.4.bias".
Moving model to cuda
Model 0 test auc = 0.572727
Ensemble test auc = 0.572727
3-fold cross validation
	Seed 0 ==> test auc = 0.688889
	Seed 1 ==> test auc = 0.850000
	Seed 2 ==> test auc = 0.572727
Overall test auc = 0.703872 +/- 0.113691
