Fold 0
Model 0 best validation auc = 0.663793 on epoch 29
Model 0 test auc = 0.699519
Ensemble test auc = 0.699519
Fold 1
Model 0 best validation auc = 0.715385 on epoch 27
Model 0 test auc = 0.834568
Ensemble test auc = 0.834568
Fold 2
Model 0 best validation auc = 0.780193 on epoch 29
Model 0 test auc = 0.798408
Ensemble test auc = 0.798408
3-fold cross validation
	Seed 0 ==> test auc = 0.699519
	Seed 1 ==> test auc = 0.834568
	Seed 2 ==> test auc = 0.798408
Overall test auc = 0.777499 +/- 0.057082
