"GCN": {
    'TN': 92108,
    'FP': 117858,
    'FN': 4365,
    'TP': 5924,
    'TPR': 0.5757605209446982,
    'TNR': 0.4386805482792452,
    'PPV': 0.04785833158294421,
    'NPV': 0.9547541799259897,
    'FPR': 0.5613194517207548,
    'FNR': 0.4242394790553018,
    'FDR': 0.9521416684170558,
    'ACC': 0.44508410705772855,
}

"GGNN": {
    'TN': 106439,
    'FP': 103527,
    'FN': 5102,
    'TP': 5187,
    'TPR': 0.5041306249392555,
    'TNR': 0.5069344560547898,
    'PPV': 0.04771234615596887,
    'NPV': 0.9542589720371881,
    'FPR': 0.4930655439452102,
    'FNR': 0.49586937506074447,
    'FDR': 0.9522876538440311,
    'ACC': 0.5068034777871104,
}

"MPN": {
    'TN': 90215,
    'FP': 119751,
    'FN': 5141,
    'TP': 5148,
    'TPR': 0.5003401691126446,
    'TNR': 0.4296648028728461,
    'PPV': 0.041217303581293684,
    'NPV': 0.9460862452284072,
    'FPR': 0.570335197127154,
    'FNR': 0.49965983088735544,
    'FDR': 0.9587826964187063,
    'ACC': 0.43296633447594834
}
