{
    "data-140708822262928": {
        "protein": "HDAC",
        "target": "SIRT3",
        "model": "MPN",
        "optimizer": "SGD",
        "auc": 0.866667,
        "active": 39.0,
        "deactive": 63.0,
        "TP": 0,
        "TN": 18,
        "FP": 0,
        "FN": 13,
        "mcc": 0,
        "f1": 0,
        "precision": 0,
        "recall": 0.0,
        "accuracy": 0.5806451612903226
    },
    "data-140708822262608": {
        "protein": "HDAC",
        "target": "SIRT3",
        "model": "MPN",
        "optimizer": "Adam",
        "auc": 0.977778,
        "active": 39.0,
        "deactive": 63.0,
        "TP": 5,
        "TN": 18,
        "FP": 0,
        "FN": 8,
        "mcc": 0.5160156871153361,
        "f1": 0.5555555555555556,
        "precision": 1.0,
        "recall": 0.38461538461538464,
        "accuracy": 0.7419354838709677
    },
    "data-140708822262288": {
        "protein": "HDAC",
        "target": "SIRT3",
        "model": "GGNN",
        "optimizer": "SGD",
        "auc": 0.133333,
        "active": 39.0,
        "deactive": 63.0,
        "TP": 0,
        "TN": 12,
        "FP": 6,
        "FN": 13,
        "mcc": -0.4163331998932266,
        "f1": 0,
        "precision": 0.0,
        "recall": 0.0,
        "accuracy": 0.3870967741935484
    },
    "data-140708822261968": {
        "protein": "HDAC",
        "target": "SIRT3",
        "model": "GGNN",
        "optimizer": "Adam",
        "auc": 0.966667,
        "active": 39.0,
        "deactive": 63.0,
        "TP": 5,
        "TN": 17,
        "FP": 1,
        "FN": 8,
        "mcc": 0.4109955947663903,
        "f1": 0.5263157894736842,
        "precision": 0.8333333333333334,
        "recall": 0.38461538461538464,
        "accuracy": 0.7096774193548387
    },
    "data-140708822282064": {
        "protein": "HDAC",
        "target": "SIRT3",
        "model": "GCN",
        "optimizer": "SGD",
        "auc": 0.933333,
        "active": 39.0,
        "deactive": 63.0,
        "TP": 5,
        "TN": 18,
        "FP": 0,
        "FN": 8,
        "mcc": 0.5160156871153361,
        "f1": 0.5555555555555556,
        "precision": 1.0,
        "recall": 0.38461538461538464,
        "accuracy": 0.7419354838709677
    },
    "data-140708822281744": {
        "protein": "HDAC",
        "target": "SIRT3",
        "model": "GCN",
        "optimizer": "Adam",
        "auc": 0.944444,
        "active": 39.0,
        "deactive": 63.0,
        "TP": 11,
        "TN": 16,
        "FP": 2,
        "FN": 2,
        "mcc": 0.7350427350427351,
        "f1": 0.8461538461538461,
        "precision": 0.8461538461538461,
        "recall": 0.8461538461538461,
        "accuracy": 0.8709677419354839
    },
    "data-140708822281424": {
        "protein": "HDAC",
        "target": "SIRT2",
        "model": "MPN",
        "optimizer": "SGD",
        "auc": 0.715576,
        "active": 212.0,
        "deactive": 321.0,
        "TP": 0,
        "TN": 89,
        "FP": 0,
        "FN": 59,
        "mcc": 0,
        "f1": 0,
        "precision": 0,
        "recall": 0.0,
        "accuracy": 0.6013513513513513
    },
    "data-140708821897296": {
        "protein": "HDM",
        "target": "SIRT2",
        "model": "MPN",
        "optimizer": "SGD",
        "auc": 0.715576,
        "active": 212.0,
        "deactive": 321.0,
        "TP": 0,
        "TN": 89,
        "FP": 0,
        "FN": 59,
        "mcc": 0,
        "f1": 0,
        "precision": 0,
        "recall": 0.0,
        "accuracy": 0.6013513513513513
    },
    "data-140708822281104": {
        "protein": "HDAC",
        "target": "SIRT2",
        "model": "MPN",
        "optimizer": "Adam",
        "auc": 0.743445,
        "active": 212.0,
        "deactive": 321.0,
        "TP": 34,
        "TN": 72,
        "FP": 17,
        "FN": 25,
        "mcc": 0.3969208552329576,
        "f1": 0.6181818181818182,
        "precision": 0.6666666666666666,
        "recall": 0.576271186440678,
        "accuracy": 0.7162162162162162
    },
    "data-140708821896912": {
        "protein": "HDM",
        "target": "SIRT2",
        "model": "MPN",
        "optimizer": "Adam",
        "auc": 0.743445,
        "active": 212.0,
        "deactive": 321.0,
        "TP": 34,
        "TN": 72,
        "FP": 17,
        "FN": 25,
        "mcc": 0.3969208552329576,
        "f1": 0.6181818181818182,
        "precision": 0.6666666666666666,
        "recall": 0.576271186440678,
        "accuracy": 0.7162162162162162
    },
    "data-140708822280784": {
        "protein": "HDAC",
        "target": "SIRT2",
        "model": "GGNN",
        "optimizer": "SGD",
        "auc": 0.532632,
        "active": 212.0,
        "deactive": 321.0,
        "TP": 0,
        "TN": 89,
        "FP": 0,
        "FN": 59,
        "mcc": 0,
        "f1": 0,
        "precision": 0,
        "recall": 0.0,
        "accuracy": 0.6013513513513513
    },
    "data-140708821896592": {
        "protein": "HDM",
        "target": "SIRT2",
        "model": "GGNN",
        "optimizer": "SGD",
        "auc": 0.532632,
        "active": 212.0,
        "deactive": 321.0,
        "TP": 0,
        "TN": 89,
        "FP": 0,
        "FN": 59,
        "mcc": 0,
        "f1": 0,
        "precision": 0,
        "recall": 0.0,
        "accuracy": 0.6013513513513513
    },
    "data-140708822280464": {
        "protein": "HDAC",
        "target": "SIRT2",
        "model": "GGNN",
        "optimizer": "Adam",
        "auc": 0.703693,
        "active": 212.0,
        "deactive": 321.0,
        "TP": 38,
        "TN": 57,
        "FP": 32,
        "FN": 21,
        "mcc": 0.279018671769337,
        "f1": 0.5891472868217054,
        "precision": 0.5428571428571428,
        "recall": 0.6440677966101694,
        "accuracy": 0.6418918918918919
    },
    "data-140708821896272": {
        "protein": "HDM",
        "target": "SIRT2",
        "model": "GGNN",
        "optimizer": "Adam",
        "auc": 0.703693,
        "active": 212.0,
        "deactive": 321.0,
        "TP": 38,
        "TN": 57,
        "FP": 32,
        "FN": 21,
        "mcc": 0.279018671769337,
        "f1": 0.5891472868217054,
        "precision": 0.5428571428571428,
        "recall": 0.6440677966101694,
        "accuracy": 0.6418918918918919
    },
    "data-140708822280144": {
        "protein": "HDAC",
        "target": "SIRT2",
        "model": "GCN",
        "optimizer": "SGD",
        "auc": 0.730277,
        "active": 212.0,
        "deactive": 321.0,
        "TP": 28,
        "TN": 69,
        "FP": 20,
        "FN": 31,
        "mcc": 0.2613317683530095,
        "f1": 0.5233644859813085,
        "precision": 0.5833333333333334,
        "recall": 0.4745762711864407,
        "accuracy": 0.6554054054054054
    },
    "data-140708821895952": {
        "protein": "HDM",
        "target": "SIRT2",
        "model": "GCN",
        "optimizer": "SGD",
        "auc": 0.730277,
        "active": 212.0,
        "deactive": 321.0,
        "TP": 28,
        "TN": 69,
        "FP": 20,
        "FN": 31,
        "mcc": 0.2613317683530095,
        "f1": 0.5233644859813085,
        "precision": 0.5833333333333334,
        "recall": 0.4745762711864407,
        "accuracy": 0.6554054054054054
    },
    "data-140708822279824": {
        "protein": "HDAC",
        "target": "SIRT2",
        "model": "GCN",
        "optimizer": "Adam",
        "auc": 0.741135,
        "active": 212.0,
        "deactive": 321.0,
        "TP": 26,
        "TN": 73,
        "FP": 16,
        "FN": 33,
        "mcc": 0.2833491930690943,
        "f1": 0.5148514851485149,
        "precision": 0.6190476190476191,
        "recall": 0.4406779661016949,
        "accuracy": 0.668918918918919
    },
    "data-140708821895632": {
        "protein": "HDM",
        "target": "SIRT2",
        "model": "GCN",
        "optimizer": "Adam",
        "auc": 0.741135,
        "active": 212.0,
        "deactive": 321.0,
        "TP": 26,
        "TN": 73,
        "FP": 16,
        "FN": 33,
        "mcc": 0.2833491930690943,
        "f1": 0.5148514851485149,
        "precision": 0.6190476190476191,
        "recall": 0.4406779661016949,
        "accuracy": 0.668918918918919
    },
    "data-140708822279504": {
        "protein": "HDAC",
        "target": "SIRT1",
        "model": "MPN",
        "optimizer": "SGD",
        "auc": 0.785013,
        "active": 140.0,
        "deactive": 274.0,
        "TP": 0,
        "TN": 80,
        "FP": 0,
        "FN": 39,
        "mcc": 0,
        "f1": 0,
        "precision": 0,
        "recall": 0.0,
        "accuracy": 0.6722689075630253
    },
    "data-140708821895312": {
        "protein": "HDM",
        "target": "SIRT1",
        "model": "MPN",
        "optimizer": "SGD",
        "auc": 0.785013,
        "active": 140.0,
        "deactive": 274.0,
        "TP": 0,
        "TN": 80,
        "FP": 0,
        "FN": 39,
        "mcc": 0,
        "f1": 0,
        "precision": 0,
        "recall": 0.0,
        "accuracy": 0.6722689075630253
    },
    "data-140708822279184": {
        "protein": "HDAC",
        "target": "SIRT1",
        "model": "MPN",
        "optimizer": "Adam",
        "auc": 0.883061,
        "active": 140.0,
        "deactive": 274.0,
        "TP": 32,
        "TN": 69,
        "FP": 11,
        "FN": 7,
        "mcc": 0.6673676161162173,
        "f1": 0.7804878048780488,
        "precision": 0.7441860465116279,
        "recall": 0.8205128205128205,
        "accuracy": 0.8487394957983193
    },
    "data-140708821894992": {
        "protein": "HDM",
        "target": "SIRT1",
        "model": "MPN",
        "optimizer": "Adam",
        "auc": 0.883061,
        "active": 140.0,
        "deactive": 274.0,
        "TP": 32,
        "TN": 69,
        "FP": 11,
        "FN": 7,
        "mcc": 0.6673676161162173,
        "f1": 0.7804878048780488,
        "precision": 0.7441860465116279,
        "recall": 0.8205128205128205,
        "accuracy": 0.8487394957983193
    },
    "data-140708822278864": {
        "protein": "HDAC",
        "target": "SIRT1",
        "model": "GGNN",
        "optimizer": "SGD",
        "auc": 0.777499,
        "active": 140.0,
        "deactive": 274.0,
        "TP": 0,
        "TN": 80,
        "FP": 0,
        "FN": 39,
        "mcc": 0,
        "f1": 0,
        "precision": 0,
        "recall": 0.0,
        "accuracy": 0.6722689075630253
    },
    "data-140708821894672": {
        "protein": "HDM",
        "target": "SIRT1",
        "model": "GGNN",
        "optimizer": "SGD",
        "auc": 0.777499,
        "active": 140.0,
        "deactive": 274.0,
        "TP": 0,
        "TN": 80,
        "FP": 0,
        "FN": 39,
        "mcc": 0,
        "f1": 0,
        "precision": 0,
        "recall": 0.0,
        "accuracy": 0.6722689075630253
    },
    "data-140708822278544": {
        "protein": "HDAC",
        "target": "SIRT1",
        "model": "GGNN",
        "optimizer": "Adam",
        "auc": 0.885172,
        "active": 140.0,
        "deactive": 274.0,
        "TP": 28,
        "TN": 70,
        "FP": 10,
        "FN": 11,
        "mcc": 0.596980470097707,
        "f1": 0.7272727272727273,
        "precision": 0.7368421052631579,
        "recall": 0.717948717948718,
        "accuracy": 0.8235294117647058
    },
    "data-140708821894352": {
        "protein": "HDM",
        "target": "SIRT1",
        "model": "GGNN",
        "optimizer": "Adam",
        "auc": 0.885172,
        "active": 140.0,
        "deactive": 274.0,
        "TP": 28,
        "TN": 70,
        "FP": 10,
        "FN": 11,
        "mcc": 0.596980470097707,
        "f1": 0.7272727272727273,
        "precision": 0.7368421052631579,
        "recall": 0.717948717948718,
        "accuracy": 0.8235294117647058
    },
    "data-140708822278224": {
        "protein": "HDAC",
        "target": "SIRT1",
        "model": "GCN",
        "optimizer": "SGD",
        "auc": 0.840522,
        "active": 140.0,
        "deactive": 274.0,
        "TP": 30,
        "TN": 65,
        "FP": 15,
        "FN": 9,
        "mcc": 0.5630892232315171,
        "f1": 0.7142857142857142,
        "precision": 0.6666666666666666,
        "recall": 0.7692307692307693,
        "accuracy": 0.7983193277310925
    },
    "data-140708821894032": {
        "protein": "HDM",
        "target": "SIRT1",
        "model": "GCN",
        "optimizer": "SGD",
        "auc": 0.840522,
        "active": 140.0,
        "deactive": 274.0,
        "TP": 30,
        "TN": 65,
        "FP": 15,
        "FN": 9,
        "mcc": 0.5630892232315171,
        "f1": 0.7142857142857142,
        "precision": 0.6666666666666666,
        "recall": 0.7692307692307693,
        "accuracy": 0.7983193277310925
    },
    "data-140708821893712": {
        "protein": "HDM",
        "target": "SIRT1",
        "model": "GCN",
        "optimizer": "Adam",
        "auc": 0.906347,
        "active": 140.0,
        "deactive": 274.0,
        "TP": 27,
        "TN": 68,
        "FP": 12,
        "FN": 12,
        "mcc": 0.5423076923076923,
        "f1": 0.6923076923076923,
        "precision": 0.6923076923076923,
        "recall": 0.6923076923076923,
        "accuracy": 0.7983193277310925
    },
    "data-140708822286032": {
        "protein": "HDAC",
        "target": "SIRT1",
        "model": "GCN",
        "optimizer": "Adam",
        "auc": 0.906347,
        "active": 140.0,
        "deactive": 274.0,
        "TP": 27,
        "TN": 68,
        "FP": 12,
        "FN": 12,
        "mcc": 0.5423076923076923,
        "f1": 0.6923076923076923,
        "precision": 0.6923076923076923,
        "recall": 0.6923076923076923,
        "accuracy": 0.7983193277310925
    },
    "data-140708821769552": {
        "protein": "HMT",
        "target": "PRMT3",
        "model": "MPN",
        "optimizer": "SGD",
        "auc": 0.597222,
        "active": 60.0,
        "deactive": 41.0,
        "TP": 16,
        "TN": 2,
        "FP": 10,
        "FN": 0,
        "mcc": 0.32025630761017426,
        "f1": 0.761904761904762,
        "precision": 0.6153846153846154,
        "recall": 1.0,
        "accuracy": 0.6428571428571429
    },
    "data-140708821769232": {
        "protein": "HMT",
        "target": "PRMT3",
        "model": "MPN",
        "optimizer": "Adam",
        "auc": 0.722222,
        "active": 60.0,
        "deactive": 41.0,
        "TP": 16,
        "TN": 7,
        "FP": 5,
        "FN": 0,
        "mcc": 0.6666666666666666,
        "f1": 0.8648648648648648,
        "precision": 0.7619047619047619,
        "recall": 1.0,
        "accuracy": 0.8214285714285714
    },
    "data-140708821768912": {
        "protein": "HMT",
        "target": "PRMT3",
        "model": "GGNN",
        "optimizer": "SGD",
        "auc": 0.680556,
        "active": 60.0,
        "deactive": 41.0,
        "TP": 16,
        "TN": 0,
        "FP": 12,
        "FN": 0,
        "mcc": 0,
        "f1": 0.7272727272727273,
        "precision": 0.5714285714285714,
        "recall": 1.0,
        "accuracy": 0.5714285714285714
    },
    "data-140708821768592": {
        "protein": "HMT",
        "target": "PRMT3",
        "model": "GGNN",
        "optimizer": "Adam",
        "auc": 0.819444,
        "active": 60.0,
        "deactive": 41.0,
        "TP": 10,
        "TN": 7,
        "FP": 5,
        "FN": 6,
        "mcc": 0.20672455764868078,
        "f1": 0.6451612903225806,
        "precision": 0.6666666666666666,
        "recall": 0.625,
        "accuracy": 0.6071428571428571
    },
    "data-140708821768272": {
        "protein": "HMT",
        "target": "PRMT3",
        "model": "GCN",
        "optimizer": "SGD",
        "auc": 0.75,
        "active": 60.0,
        "deactive": 41.0,
        "TP": 16,
        "TN": 3,
        "FP": 9,
        "FN": 0,
        "mcc": 0.4,
        "f1": 0.7804878048780487,
        "precision": 0.64,
        "recall": 1.0,
        "accuracy": 0.6785714285714286
    },
    "data-140708821767952": {
        "protein": "HMT",
        "target": "PRMT3",
        "model": "GCN",
        "optimizer": "Adam",
        "auc": 0.916667,
        "active": 60.0,
        "deactive": 41.0,
        "TP": 15,
        "TN": 7,
        "FP": 5,
        "FN": 1,
        "mcc": 0.570544330734548,
        "f1": 0.8333333333333334,
        "precision": 0.75,
        "recall": 0.9375,
        "accuracy": 0.7857142857142857
    },
    "data-140708821767632": {
        "protein": "HMT",
        "target": "PRKCB",
        "model": "MPN",
        "optimizer": "SGD",
        "auc": 0.68997,
        "active": 527.0,
        "deactive": 115.0,
        "TP": 150,
        "TN": 0,
        "FP": 30,
        "FN": 0,
        "mcc": 0,
        "f1": 0.9090909090909091,
        "precision": 0.8333333333333334,
        "recall": 1.0,
        "accuracy": 0.8333333333333334
    },
    "data-140708821767312": {
        "protein": "HMT",
        "target": "PRKCB",
        "model": "MPN",
        "optimizer": "Adam",
        "auc": 0.965881,
        "active": 527.0,
        "deactive": 115.0,
        "TP": 142,
        "TN": 20,
        "FP": 10,
        "FN": 8,
        "mcc": 0.6306697716731441,
        "f1": 0.9403973509933775,
        "precision": 0.9342105263157895,
        "recall": 0.9466666666666667,
        "accuracy": 0.9
    },
    "data-140708821766992": {
        "protein": "HMT",
        "target": "PRKCB",
        "model": "GGNN",
        "optimizer": "SGD",
        "auc": 0.440888,
        "active": 527.0,
        "deactive": 115.0,
        "TP": 150,
        "TN": 0,
        "FP": 30,
        "FN": 0,
        "mcc": 0,
        "f1": 0.9090909090909091,
        "precision": 0.8333333333333334,
        "recall": 1.0,
        "accuracy": 0.8333333333333334
    },
    "data-140708821766672": {
        "protein": "HMT",
        "target": "PRKCB",
        "model": "GGNN",
        "optimizer": "Adam",
        "auc": 0.933238,
        "active": 527.0,
        "deactive": 115.0,
        "TP": 141,
        "TN": 15,
        "FP": 15,
        "FN": 9,
        "mcc": 0.4823819106188661,
        "f1": 0.9215686274509804,
        "precision": 0.9038461538461539,
        "recall": 0.94,
        "accuracy": 0.8666666666666667
    },
    "data-140708821766352": {
        "protein": "HMT",
        "target": "PRKCB",
        "model": "GCN",
        "optimizer": "SGD",
        "auc": 0.909634,
        "active": 527.0,
        "deactive": 115.0,
        "TP": 149,
        "TN": 2,
        "FP": 28,
        "FN": 1,
        "mcc": 0.1746667529218746,
        "f1": 0.91131498470948,
        "precision": 0.8418079096045198,
        "recall": 0.9933333333333333,
        "accuracy": 0.8388888888888889
    },
    "data-140708821831504": {
        "protein": "HMT",
        "target": "PRKCB",
        "model": "GCN",
        "optimizer": "Adam",
        "auc": 0.951942,
        "active": 527.0,
        "deactive": 115.0,
        "TP": 143,
        "TN": 15,
        "FP": 15,
        "FN": 7,
        "mcc": 0.5158031934831006,
        "f1": 0.9285714285714286,
        "precision": 0.9050632911392406,
        "recall": 0.9533333333333334,
        "accuracy": 0.8777777777777778
    },
    "data-140708821893392": {
        "protein": "HDM",
        "target": "KDM6B",
        "model": "MPN",
        "optimizer": "SGD",
        "auc": 0.563889,
        "active": 44.0,
        "deactive": 58.0,
        "TP": 3,
        "TN": 11,
        "FP": 6,
        "FN": 11,
        "mcc": -0.15201724802626507,
        "f1": 0.2608695652173913,
        "precision": 0.3333333333333333,
        "recall": 0.21428571428571427,
        "accuracy": 0.45161290322580644
    },
    "data-140708821753744": {
        "protein": "HDM",
        "target": "KDM6B",
        "model": "MPN",
        "optimizer": "Adam",
        "auc": 0.833333,
        "active": 44.0,
        "deactive": 58.0,
        "TP": 10,
        "TN": 11,
        "FP": 6,
        "FN": 4,
        "mcc": 0.3598357857649609,
        "f1": 0.6666666666666666,
        "precision": 0.625,
        "recall": 0.7142857142857143,
        "accuracy": 0.6774193548387096
    },
    "data-140708821753424": {
        "protein": "HDM",
        "target": "KDM6B",
        "model": "GGNN",
        "optimizer": "SGD",
        "auc": 0.530556,
        "active": 44.0,
        "deactive": 58.0,
        "TP": 14,
        "TN": 0,
        "FP": 17,
        "FN": 0,
        "mcc": 0,
        "f1": 0.6222222222222222,
        "precision": 0.45161290322580644,
        "recall": 1.0,
        "accuracy": 0.45161290322580644
    },
    "data-140708821753104": {
        "protein": "HDM",
        "target": "KDM6B",
        "model": "GGNN",
        "optimizer": "Adam",
        "auc": 0.738889,
        "active": 44.0,
        "deactive": 58.0,
        "TP": 2,
        "TN": 15,
        "FP": 2,
        "FN": 12,
        "mcc": 0.03742405942825599,
        "f1": 0.22222222222222224,
        "precision": 0.5,
        "recall": 0.14285714285714285,
        "accuracy": 0.5483870967741935
    },
    "data-140708821752784": {
        "protein": "HDM",
        "target": "KDM6B",
        "model": "GCN",
        "optimizer": "SGD",
        "auc": 0.561111,
        "active": 44.0,
        "deactive": 58.0,
        "TP": 7,
        "TN": 11,
        "FP": 6,
        "FN": 7,
        "mcc": 0.14831041055276875,
        "f1": 0.5185185185185186,
        "precision": 0.5384615384615384,
        "recall": 0.5,
        "accuracy": 0.5806451612903226
    },
    "data-140708821752464": {
        "protein": "HDM",
        "target": "KDM6B",
        "model": "GCN",
        "optimizer": "Adam",
        "auc": 0.9,
        "active": 44.0,
        "deactive": 58.0,
        "TP": 4,
        "TN": 17,
        "FP": 0,
        "FN": 10,
        "mcc": 0.4241393401869012,
        "f1": 0.4444444444444445,
        "precision": 1.0,
        "recall": 0.2857142857142857,
        "accuracy": 0.6774193548387096
    },
    "data-140708821752144": {
        "protein": "HDM",
        "target": "KDM5A",
        "model": "MPN",
        "optimizer": "SGD",
        "auc": 0.763568,
        "active": 49.0,
        "deactive": 112.0,
        "TP": 0,
        "TN": 33,
        "FP": 0,
        "FN": 12,
        "mcc": 0,
        "f1": 0,
        "precision": 0,
        "recall": 0.0,
        "accuracy": 0.7333333333333333
    },
    "data-140708821751824": {
        "protein": "HDM",
        "target": "KDM5A",
        "model": "MPN",
        "optimizer": "Adam",
        "auc": 0.870513,
        "active": 49.0,
        "deactive": 112.0,
        "TP": 2,
        "TN": 31,
        "FP": 2,
        "FN": 10,
        "mcc": 0.1648085632718039,
        "f1": 0.25,
        "precision": 0.5,
        "recall": 0.16666666666666666,
        "accuracy": 0.7333333333333333
    },
    "data-140708821751504": {
        "protein": "HDM",
        "target": "KDM5A",
        "model": "GGNN",
        "optimizer": "SGD",
        "auc": 0.605769,
        "active": 49.0,
        "deactive": 112.0,
        "TP": 7,
        "TN": 23,
        "FP": 10,
        "FN": 5,
        "mcc": 0.2556653716805367,
        "f1": 0.4827586206896552,
        "precision": 0.4117647058823529,
        "recall": 0.5833333333333334,
        "accuracy": 0.6666666666666666
    },
    "data-140708821751184": {
        "protein": "HDM",
        "target": "KDM5A",
        "model": "GGNN",
        "optimizer": "Adam",
        "auc": 0.893162,
        "active": 49.0,
        "deactive": 112.0,
        "TP": 5,
        "TN": 31,
        "FP": 2,
        "FN": 7,
        "mcc": 0.43444089665483965,
        "f1": 0.5263157894736842,
        "precision": 0.7142857142857143,
        "recall": 0.4166666666666667,
        "accuracy": 0.8
    },
    "data-140708821750864": {
        "protein": "HDM",
        "target": "KDM5A",
        "model": "GCN",
        "optimizer": "SGD",
        "auc": 0.869338,
        "active": 49.0,
        "deactive": 112.0,
        "TP": 7,
        "TN": 28,
        "FP": 5,
        "FN": 5,
        "mcc": 0.4318181818181818,
        "f1": 0.5833333333333334,
        "precision": 0.5833333333333334,
        "recall": 0.5833333333333334,
        "accuracy": 0.7777777777777778
    },
    "data-140708821750544": {
        "protein": "HDM",
        "target": "KDM5A",
        "model": "GCN",
        "optimizer": "Adam",
        "auc": 0.869872,
        "active": 49.0,
        "deactive": 112.0,
        "TP": 2,
        "TN": 32,
        "FP": 1,
        "FN": 10,
        "mcc": 0.24174688920761409,
        "f1": 0.26666666666666666,
        "precision": 0.6666666666666666,
        "recall": 0.16666666666666666,
        "accuracy": 0.7555555555555555
    },
    "data-140708821750224": {
        "protein": "HDM",
        "target": "KDM4E",
        "model": "MPN",
        "optimizer": "SGD",
        "auc": 0.359722,
        "active": 34.0,
        "deactive": 39.0,
        "TP": 5,
        "TN": 5,
        "FP": 8,
        "FN": 5,
        "mcc": -0.11538461538461539,
        "f1": 0.4347826086956522,
        "precision": 0.38461538461538464,
        "recall": 0.5,
        "accuracy": 0.43478260869565216
    },
    "data-140708821749904": {
        "protein": "HDM",
        "target": "KDM4E",
        "model": "MPN",
        "optimizer": "Adam",
        "auc": 0.738889,
        "active": 34.0,
        "deactive": 39.0,
        "TP": 6,
        "TN": 10,
        "FP": 3,
        "FN": 4,
        "mcc": 0.3750457847507963,
        "f1": 0.631578947368421,
        "precision": 0.6666666666666666,
        "recall": 0.6,
        "accuracy": 0.6956521739130435
    },
    "data-140708821827344": {
        "protein": "HDM",
        "target": "KDM4E",
        "model": "GGNN",
        "optimizer": "SGD",
        "auc": 0.631944,
        "active": 34.0,
        "deactive": 39.0,
        "TP": 10,
        "TN": 0,
        "FP": 13,
        "FN": 0,
        "mcc": 0,
        "f1": 0.6060606060606061,
        "precision": 0.43478260869565216,
        "recall": 1.0,
        "accuracy": 0.43478260869565216
    },
    "data-140708821827024": {
        "protein": "HDM",
        "target": "KDM4E",
        "model": "GGNN",
        "optimizer": "Adam",
        "auc": 0.548611,
        "active": 34.0,
        "deactive": 39.0,
        "TP": 0,
        "TN": 12,
        "FP": 1,
        "FN": 10,
        "mcc": -0.18698939800169143,
        "f1": 0,
        "precision": 0.0,
        "recall": 0.0,
        "accuracy": 0.5217391304347826
    },
    "data-140708821826704": {
        "protein": "HDM",
        "target": "KDM4E",
        "model": "GCN",
        "optimizer": "SGD",
        "auc": 0.740278,
        "active": 34.0,
        "deactive": 39.0,
        "TP": 3,
        "TN": 12,
        "FP": 1,
        "FN": 7,
        "mcc": 0.29175581826225594,
        "f1": 0.4285714285714285,
        "precision": 0.75,
        "recall": 0.3,
        "accuracy": 0.6521739130434783
    },
    "data-140708821826384": {
        "protein": "HDM",
        "target": "KDM4E",
        "model": "GCN",
        "optimizer": "Adam",
        "auc": 0.741667,
        "active": 34.0,
        "deactive": 39.0,
        "TP": 3,
        "TN": 8,
        "FP": 5,
        "FN": 7,
        "mcc": -0.08807048459279793,
        "f1": 0.33333333333333326,
        "precision": 0.375,
        "recall": 0.3,
        "accuracy": 0.4782608695652174
    },
    "data-140708821826064": {
        "protein": "HDM",
        "target": "KDM4C",
        "model": "MPN",
        "optimizer": "SGD",
        "auc": 0.525184,
        "active": 98.0,
        "deactive": 101.0,
        "TP": 17,
        "TN": 10,
        "FP": 22,
        "FN": 5,
        "mcc": 0.09349469900084573,
        "f1": 0.5573770491803278,
        "precision": 0.4358974358974359,
        "recall": 0.7727272727272727,
        "accuracy": 0.5
    },
    "data-140708821825744": {
        "protein": "HDM",
        "target": "KDM4C",
        "model": "MPN",
        "optimizer": "Adam",
        "auc": 0.898771,
        "active": 98.0,
        "deactive": 101.0,
        "TP": 16,
        "TN": 23,
        "FP": 9,
        "FN": 6,
        "mcc": 0.4395156211003456,
        "f1": 0.6808510638297872,
        "precision": 0.64,
        "recall": 0.7272727272727273,
        "accuracy": 0.7222222222222222
    },
    "data-140708821825424": {
        "protein": "HDM",
        "target": "KDM4C",
        "model": "GGNN",
        "optimizer": "SGD",
        "auc": 0.646423,
        "active": 98.0,
        "deactive": 101.0,
        "TP": 21,
        "TN": 5,
        "FP": 27,
        "FN": 1,
        "mcc": 0.17322558203893348,
        "f1": 0.6,
        "precision": 0.4375,
        "recall": 0.9545454545454546,
        "accuracy": 0.48148148148148145
    },
    "data-140708821825104": {
        "protein": "HDM",
        "target": "KDM4C",
        "model": "GGNN",
        "optimizer": "Adam",
        "auc": 0.871566,
        "active": 98.0,
        "deactive": 101.0,
        "TP": 20,
        "TN": 22,
        "FP": 10,
        "FN": 2,
        "mcc": 0.5899248796553368,
        "f1": 0.7692307692307692,
        "precision": 0.6666666666666666,
        "recall": 0.9090909090909091,
        "accuracy": 0.7777777777777778
    },
    "data-140708821824784": {
        "protein": "HDM",
        "target": "KDM4C",
        "model": "GCN",
        "optimizer": "SGD",
        "auc": 0.847635,
        "active": 98.0,
        "deactive": 101.0,
        "TP": 17,
        "TN": 17,
        "FP": 15,
        "FN": 5,
        "mcc": 0.3039772727272727,
        "f1": 0.6296296296296297,
        "precision": 0.53125,
        "recall": 0.7727272727272727,
        "accuracy": 0.6296296296296297
    },
    "data-140708821824464": {
        "protein": "HDM",
        "target": "KDM4C",
        "model": "GCN",
        "optimizer": "Adam",
        "auc": 0.828492,
        "active": 98.0,
        "deactive": 101.0,
        "TP": 21,
        "TN": 5,
        "FP": 27,
        "FN": 1,
        "mcc": 0.17322558203893348,
        "f1": 0.6,
        "precision": 0.4375,
        "recall": 0.9545454545454546,
        "accuracy": 0.48148148148148145
    },
    "data-140708821824144": {
        "protein": "HDM",
        "target": "KDM4A",
        "model": "MPN",
        "optimizer": "SGD",
        "auc": 0.0,
        "active": 31.0,
        "deactive": 57.0,
        "TP": 0,
        "TN": 16,
        "FP": 2,
        "FN": 8,
        "mcc": -0.19245008972987526,
        "f1": 0,
        "precision": 0.0,
        "recall": 0.0,
        "accuracy": 0.6153846153846154
    },
    "data-140708821823824": {
        "protein": "HDM",
        "target": "KDM4A",
        "model": "MPN",
        "optimizer": "Adam",
        "auc": 0.0,
        "active": 31.0,
        "deactive": 57.0,
        "TP": 0,
        "TN": 18,
        "FP": 0,
        "FN": 8,
        "mcc": 0,
        "f1": 0,
        "precision": 0,
        "recall": 0.0,
        "accuracy": 0.6923076923076923
    },
    "data-140708822265808": {
        "protein": "HDM",
        "target": "KDM4A",
        "model": "GGNN",
        "optimizer": "SGD",
        "auc": 0.0,
        "active": 31.0,
        "deactive": 57.0,
        "TP": 8,
        "TN": 1,
        "FP": 17,
        "FN": 0,
        "mcc": 0.13333333333333333,
        "f1": 0.48484848484848486,
        "precision": 0.32,
        "recall": 1.0,
        "accuracy": 0.34615384615384615
    },
    "data-140708822265488": {
        "protein": "HDM",
        "target": "KDM4A",
        "model": "GGNN",
        "optimizer": "Adam",
        "auc": 0.0,
        "active": 31.0,
        "deactive": 57.0,
        "TP": 1,
        "TN": 14,
        "FP": 4,
        "FN": 7,
        "mcc": -0.1138550085106622,
        "f1": 0.15384615384615385,
        "precision": 0.2,
        "recall": 0.125,
        "accuracy": 0.5769230769230769
    },
    "data-140708822265168": {
        "protein": "HDM",
        "target": "KDM4A",
        "model": "GCN",
        "optimizer": "SGD",
        "auc": 0.0,
        "active": 31.0,
        "deactive": 57.0,
        "TP": 0,
        "TN": 14,
        "FP": 4,
        "FN": 8,
        "mcc": -0.2842676218074806,
        "f1": 0,
        "precision": 0.0,
        "recall": 0.0,
        "accuracy": 0.5384615384615384
    },
    "data-140708822264848": {
        "protein": "HDM",
        "target": "KDM4A",
        "model": "GCN",
        "optimizer": "Adam",
        "auc": 0.0,
        "active": 31.0,
        "deactive": 57.0,
        "TP": 0,
        "TN": 12,
        "FP": 6,
        "FN": 8,
        "mcc": -0.36514837167011077,
        "f1": 0,
        "precision": 0.0,
        "recall": 0.0,
        "accuracy": 0.46153846153846156
    },
    "data-140708822264528": {
        "protein": "HDM",
        "target": "KDM1A",
        "model": "MPN",
        "optimizer": "SGD",
        "auc": 0.752377,
        "active": 330.0,
        "deactive": 117.0,
        "TP": 98,
        "TN": 0,
        "FP": 28,
        "FN": 0,
        "mcc": 0,
        "f1": 0.8750000000000001,
        "precision": 0.7777777777777778,
        "recall": 1.0,
        "accuracy": 0.7777777777777778
    },
    "data-140708822264208": {
        "protein": "HDM",
        "target": "KDM1A",
        "model": "MPN",
        "optimizer": "Adam",
        "auc": 0.873819,
        "active": 330.0,
        "deactive": 117.0,
        "TP": 94,
        "TN": 16,
        "FP": 12,
        "FN": 4,
        "mcc": 0.6036724982763437,
        "f1": 0.9215686274509803,
        "precision": 0.8867924528301887,
        "recall": 0.9591836734693877,
        "accuracy": 0.873015873015873
    },
    "data-140708822263888": {
        "protein": "HDM",
        "target": "KDM1A",
        "model": "GGNN",
        "optimizer": "SGD",
        "auc": 0.787193,
        "active": 330.0,
        "deactive": 117.0,
        "TP": 98,
        "TN": 0,
        "FP": 28,
        "FN": 0,
        "mcc": 0,
        "f1": 0.8750000000000001,
        "precision": 0.7777777777777778,
        "recall": 1.0,
        "accuracy": 0.7777777777777778
    },
    "data-140708822263568": {
        "protein": "HDM",
        "target": "KDM1A",
        "model": "GGNN",
        "optimizer": "Adam",
        "auc": 0.840694,
        "active": 330.0,
        "deactive": 117.0,
        "TP": 89,
        "TN": 18,
        "FP": 10,
        "FN": 9,
        "mcc": 0.5582905262390825,
        "f1": 0.9035532994923858,
        "precision": 0.898989898989899,
        "recall": 0.9081632653061225,
        "accuracy": 0.8492063492063492
    },
    "data-140708822263248": {
        "protein": "HDM",
        "target": "KDM1A",
        "model": "GCN",
        "optimizer": "SGD",
        "auc": 0.843866,
        "active": 330.0,
        "deactive": 117.0,
        "TP": 83,
        "TN": 19,
        "FP": 9,
        "FN": 15,
        "mcc": 0.4921979886852093,
        "f1": 0.8736842105263158,
        "precision": 0.9021739130434783,
        "recall": 0.8469387755102041,
        "accuracy": 0.8095238095238095
    },
    "data-140708822262800": {
        "protein": "HDM",
        "target": "KDM1A",
        "model": "GCN",
        "optimizer": "Adam",
        "auc": 0.876762,
        "active": 330.0,
        "deactive": 117.0,
        "TP": 89,
        "TN": 15,
        "FP": 13,
        "FN": 9,
        "mcc": 0.4699476995753192,
        "f1": 0.89,
        "precision": 0.8725490196078431,
        "recall": 0.9081632653061225,
        "accuracy": 0.8253968253968254
    },
    "data-140708822216528": {
        "protein": "HAT",
        "target": "KAT2B",
        "model": "MPN",
        "optimizer": "SGD",
        "auc": 0.678836,
        "active": 53.0,
        "deactive": 59.0,
        "TP": 11,
        "TN": 9,
        "FP": 8,
        "FN": 4,
        "mcc": 0.2669661729972685,
        "f1": 0.6470588235294117,
        "precision": 0.5789473684210527,
        "recall": 0.7333333333333333,
        "accuracy": 0.625
    },
    "data-140708822214096": {
        "protein": "HAT",
        "target": "KAT2B",
        "model": "MPN",
        "optimizer": "Adam",
        "auc": 0.736243,
        "active": 53.0,
        "deactive": 59.0,
        "TP": 8,
        "TN": 11,
        "FP": 6,
        "FN": 7,
        "mcc": 0.1814627428602745,
        "f1": 0.5517241379310344,
        "precision": 0.5714285714285714,
        "recall": 0.5333333333333333,
        "accuracy": 0.59375
    },
    "data-140708822215696": {
        "protein": "HAT",
        "target": "KAT2B",
        "model": "GGNN",
        "optimizer": "SGD",
        "auc": 0.499735,
        "active": 53.0,
        "deactive": 59.0,
        "TP": 15,
        "TN": 2,
        "FP": 15,
        "FN": 0,
        "mcc": 0.24253562503633297,
        "f1": 0.6666666666666666,
        "precision": 0.5,
        "recall": 1.0,
        "accuracy": 0.53125
    },
    "data-140708822222288": {
        "protein": "HAT",
        "target": "KAT2B",
        "model": "GGNN",
        "optimizer": "Adam",
        "auc": 0.690212,
        "active": 53.0,
        "deactive": 59.0,
        "TP": 0,
        "TN": 17,
        "FP": 0,
        "FN": 15,
        "mcc": 0,
        "f1": 0,
        "precision": 0,
        "recall": 0.0,
        "accuracy": 0.53125
    },
    "data-140708822223888": {
        "protein": "HAT",
        "target": "KAT2B",
        "model": "GCN",
        "optimizer": "SGD",
        "auc": 0.707407,
        "active": 53.0,
        "deactive": 59.0,
        "TP": 13,
        "TN": 5,
        "FP": 12,
        "FN": 2,
        "mcc": 0.19408623801577188,
        "f1": 0.65,
        "precision": 0.52,
        "recall": 0.8666666666666667,
        "accuracy": 0.5625
    },
    "data-140708822225552": {
        "protein": "HAT",
        "target": "KAT2B",
        "model": "GCN",
        "optimizer": "Adam",
        "auc": 0.717196,
        "active": 53.0,
        "deactive": 59.0,
        "TP": 15,
        "TN": 0,
        "FP": 17,
        "FN": 0,
        "mcc": 0,
        "f1": 0.6382978723404256,
        "precision": 0.46875,
        "recall": 1.0,
        "accuracy": 0.46875
    },
    "data-140708822285712": {
        "protein": "HDAC",
        "target": "HDAC9",
        "model": "MPN",
        "optimizer": "SGD",
        "auc": 0.579284,
        "active": 103.0,
        "deactive": 122.0,
        "TP": 12,
        "TN": 20,
        "FP": 8,
        "FN": 23,
        "mcc": 0.06099942813304187,
        "f1": 0.43636363636363634,
        "precision": 0.6,
        "recall": 0.34285714285714286,
        "accuracy": 0.5079365079365079
    },
    "data-140708822285392": {
        "protein": "HDAC",
        "target": "HDAC9",
        "model": "MPN",
        "optimizer": "Adam",
        "auc": 0.834921,
        "active": 103.0,
        "deactive": 122.0,
        "TP": 29,
        "TN": 18,
        "FP": 10,
        "FN": 6,
        "mcc": 0.48238191061886604,
        "f1": 0.7837837837837838,
        "precision": 0.7435897435897436,
        "recall": 0.8285714285714286,
        "accuracy": 0.746031746031746
    },
    "data-140708822285072": {
        "protein": "HDAC",
        "target": "HDAC9",
        "model": "GGNN",
        "optimizer": "SGD",
        "auc": 0.642084,
        "active": 103.0,
        "deactive": 122.0,
        "TP": 8,
        "TN": 25,
        "FP": 3,
        "FN": 27,
        "mcc": 0.1589409883014377,
        "f1": 0.34782608695652173,
        "precision": 0.7272727272727273,
        "recall": 0.22857142857142856,
        "accuracy": 0.5238095238095238
    },
    "data-140708822284752": {
        "protein": "HDAC",
        "target": "HDAC9",
        "model": "GGNN",
        "optimizer": "Adam",
        "auc": 0.673341,
        "active": 103.0,
        "deactive": 122.0,
        "TP": 30,
        "TN": 12,
        "FP": 16,
        "FN": 5,
        "mcc": 0.31984651050360063,
        "f1": 0.7407407407407407,
        "precision": 0.6521739130434783,
        "recall": 0.8571428571428571,
        "accuracy": 0.6666666666666666
    },
    "data-140708822284432": {
        "protein": "HDAC",
        "target": "HDAC9",
        "model": "GCN",
        "optimizer": "SGD",
        "auc": 0.674237,
        "active": 103.0,
        "deactive": 122.0,
        "TP": 26,
        "TN": 14,
        "FP": 14,
        "FN": 9,
        "mcc": 0.25065132546332514,
        "f1": 0.6933333333333334,
        "precision": 0.65,
        "recall": 0.7428571428571429,
        "accuracy": 0.6349206349206349
    },
    "data-140708822284112": {
        "protein": "HDAC",
        "target": "HDAC9",
        "model": "GCN",
        "optimizer": "Adam",
        "auc": 0.803744,
        "active": 103.0,
        "deactive": 122.0,
        "TP": 28,
        "TN": 18,
        "FP": 10,
        "FN": 7,
        "mcc": 0.44979527506820727,
        "f1": 0.7671232876712328,
        "precision": 0.7368421052631579,
        "recall": 0.8,
        "accuracy": 0.7301587301587301
    },
    "data-140708822283792": {
        "protein": "HDAC",
        "target": "HDAC8",
        "model": "MPN",
        "optimizer": "SGD",
        "auc": 0.522629,
        "active": 855.0,
        "deactive": 374.0,
        "TP": 222,
        "TN": 0,
        "FP": 112,
        "FN": 0,
        "mcc": 0,
        "f1": 0.7985611510791367,
        "precision": 0.6646706586826348,
        "recall": 1.0,
        "accuracy": 0.6646706586826348
    },
    "data-140708822283472": {
        "protein": "HDAC",
        "target": "HDAC8",
        "model": "MPN",
        "optimizer": "Adam",
        "auc": 0.883625,
        "active": 855.0,
        "deactive": 374.0,
        "TP": 215,
        "TN": 76,
        "FP": 36,
        "FN": 7,
        "mcc": 0.7068717932804022,
        "f1": 0.9090909090909091,
        "precision": 0.8565737051792829,
        "recall": 0.9684684684684685,
        "accuracy": 0.8712574850299402
    },
    "data-140708822283152": {
        "protein": "HDAC",
        "target": "HDAC8",
        "model": "GGNN",
        "optimizer": "SGD",
        "auc": 0.487688,
        "active": 855.0,
        "deactive": 374.0,
        "TP": 222,
        "TN": 0,
        "FP": 112,
        "FN": 0,
        "mcc": 0,
        "f1": 0.7985611510791367,
        "precision": 0.6646706586826348,
        "recall": 1.0,
        "accuracy": 0.6646706586826348
    },
    "data-140708822282832": {
        "protein": "HDAC",
        "target": "HDAC8",
        "model": "GGNN",
        "optimizer": "Adam",
        "auc": 0.889303,
        "active": 855.0,
        "deactive": 374.0,
        "TP": 214,
        "TN": 79,
        "FP": 33,
        "FN": 8,
        "mcc": 0.7199658815977638,
        "f1": 0.9125799573560768,
        "precision": 0.8663967611336032,
        "recall": 0.963963963963964,
        "accuracy": 0.8772455089820359
    },
    "data-140708822282512": {
        "protein": "HDAC",
        "target": "HDAC8",
        "model": "GCN",
        "optimizer": "SGD",
        "auc": 0.800149,
        "active": 855.0,
        "deactive": 374.0,
        "TP": 207,
        "TN": 35,
        "FP": 77,
        "FN": 15,
        "mcc": 0.3241064111374353,
        "f1": 0.8181818181818181,
        "precision": 0.7288732394366197,
        "recall": 0.9324324324324325,
        "accuracy": 0.7245508982035929
    },
    "data-140708822310800": {
        "protein": "HDAC",
        "target": "HDAC8",
        "model": "GCN",
        "optimizer": "Adam",
        "auc": 0.896086,
        "active": 855.0,
        "deactive": 374.0,
        "TP": 206,
        "TN": 77,
        "FP": 35,
        "FN": 16,
        "mcc": 0.6482054877886898,
        "f1": 0.8898488120950323,
        "precision": 0.8547717842323651,
        "recall": 0.9279279279279279,
        "accuracy": 0.8473053892215568
    },
    "data-140708822310480": {
        "protein": "HDAC",
        "target": "HDAC7",
        "model": "MPN",
        "optimizer": "SGD",
        "auc": 0.572685,
        "active": 101.0,
        "deactive": 155.0,
        "TP": 2,
        "TN": 44,
        "FP": 0,
        "FN": 25,
        "mcc": 0.2173376208541448,
        "f1": 0.13793103448275862,
        "precision": 1.0,
        "recall": 0.07407407407407407,
        "accuracy": 0.647887323943662
    },
    "data-140708822310160": {
        "protein": "HDAC",
        "target": "HDAC7",
        "model": "MPN",
        "optimizer": "Adam",
        "auc": 0.814352,
        "active": 101.0,
        "deactive": 155.0,
        "TP": 17,
        "TN": 34,
        "FP": 10,
        "FN": 10,
        "mcc": 0.40235690235690236,
        "f1": 0.6296296296296297,
        "precision": 0.6296296296296297,
        "recall": 0.6296296296296297,
        "accuracy": 0.7183098591549296
    },
    "data-140708822309840": {
        "protein": "HDAC",
        "target": "HDAC7",
        "model": "GGNN",
        "optimizer": "SGD",
        "auc": 0.526852,
        "active": 101.0,
        "deactive": 155.0,
        "TP": 2,
        "TN": 41,
        "FP": 3,
        "FN": 25,
        "mcc": 0.011179769505645785,
        "f1": 0.125,
        "precision": 0.4,
        "recall": 0.07407407407407407,
        "accuracy": 0.6056338028169014
    },
    "data-140708822309520": {
        "protein": "HDAC",
        "target": "HDAC7",
        "model": "GGNN",
        "optimizer": "Adam",
        "auc": 0.732639,
        "active": 101.0,
        "deactive": 155.0,
        "TP": 17,
        "TN": 30,
        "FP": 14,
        "FN": 10,
        "mcc": 0.3048475163989185,
        "f1": 0.5862068965517241,
        "precision": 0.5483870967741935,
        "recall": 0.6296296296296297,
        "accuracy": 0.6619718309859155
    },
    "data-140708822309200": {
        "protein": "HDAC",
        "target": "HDAC7",
        "model": "GCN",
        "optimizer": "SGD",
        "auc": 0.63044,
        "active": 101.0,
        "deactive": 155.0,
        "TP": 18,
        "TN": 24,
        "FP": 20,
        "FN": 9,
        "mcc": 0.2064636268936978,
        "f1": 0.5538461538461538,
        "precision": 0.47368421052631576,
        "recall": 0.6666666666666666,
        "accuracy": 0.5915492957746479
    },
    "data-140708822308880": {
        "protein": "HDAC",
        "target": "HDAC7",
        "model": "GCN",
        "optimizer": "Adam",
        "auc": 0.774306,
        "active": 101.0,
        "deactive": 155.0,
        "TP": 13,
        "TN": 35,
        "FP": 9,
        "FN": 14,
        "mcc": 0.2907222674515388,
        "f1": 0.5306122448979591,
        "precision": 0.5909090909090909,
        "recall": 0.48148148148148145,
        "accuracy": 0.676056338028169
    },
    "data-140708822308560": {
        "protein": "HDAC",
        "target": "HDAC6",
        "model": "MPN",
        "optimizer": "SGD",
        "auc": 0.474769,
        "active": 1632.0,
        "deactive": 389.0,
        "TP": 458,
        "TN": 0,
        "FP": 94,
        "FN": 0,
        "mcc": 0,
        "f1": 0.906930693069307,
        "precision": 0.8297101449275363,
        "recall": 1.0,
        "accuracy": 0.8297101449275363
    },
    "data-140708822308240": {
        "protein": "HDAC",
        "target": "HDAC6",
        "model": "MPN",
        "optimizer": "Adam",
        "auc": 0.939686,
        "active": 1632.0,
        "deactive": 389.0,
        "TP": 438,
        "TN": 66,
        "FP": 28,
        "FN": 20,
        "mcc": 0.6824700139780427,
        "f1": 0.948051948051948,
        "precision": 0.9399141630901288,
        "recall": 0.9563318777292577,
        "accuracy": 0.9130434782608695
    },
    "data-140708822307920": {
        "protein": "HDAC",
        "target": "HDAC6",
        "model": "GGNN",
        "optimizer": "SGD",
        "auc": 0.459058,
        "active": 1632.0,
        "deactive": 389.0,
        "TP": 458,
        "TN": 0,
        "FP": 94,
        "FN": 0,
        "mcc": 0,
        "f1": 0.906930693069307,
        "precision": 0.8297101449275363,
        "recall": 1.0,
        "accuracy": 0.8297101449275363
    },
    "data-140708822307600": {
        "protein": "HDAC",
        "target": "HDAC6",
        "model": "GGNN",
        "optimizer": "Adam",
        "auc": 0.919411,
        "active": 1632.0,
        "deactive": 389.0,
        "TP": 436,
        "TN": 59,
        "FP": 35,
        "FN": 22,
        "mcc": 0.615730323047767,
        "f1": 0.9386437029063509,
        "precision": 0.9256900212314225,
        "recall": 0.9519650655021834,
        "accuracy": 0.8967391304347826
    },
    "data-140708822307280": {
        "protein": "HDAC",
        "target": "HDAC6",
        "model": "GCN",
        "optimizer": "SGD",
        "auc": 0.799781,
        "active": 1632.0,
        "deactive": 389.0,
        "TP": 441,
        "TN": 22,
        "FP": 72,
        "FN": 17,
        "mcc": 0.28887220759113935,
        "f1": 0.9083419155509784,
        "precision": 0.8596491228070176,
        "recall": 0.962882096069869,
        "accuracy": 0.8387681159420289
    },
    "data-140708822306960": {
        "protein": "HDAC",
        "target": "HDAC6",
        "model": "GCN",
        "optimizer": "Adam",
        "auc": 0.937767,
        "active": 1632.0,
        "deactive": 389.0,
        "TP": 439,
        "TN": 62,
        "FP": 32,
        "FN": 19,
        "mcc": 0.6565914841829398,
        "f1": 0.945102260495156,
        "precision": 0.9320594479830149,
        "recall": 0.9585152838427947,
        "accuracy": 0.907608695652174
    },
    "data-140708822253328": {
        "protein": "HDAC",
        "target": "HDAC5",
        "model": "MPN",
        "optimizer": "SGD",
        "auc": 0.595833,
        "active": 99.0,
        "deactive": 159.0,
        "TP": 0,
        "TN": 43,
        "FP": 0,
        "FN": 28,
        "mcc": 0,
        "f1": 0,
        "precision": 0,
        "recall": 0.0,
        "accuracy": 0.6056338028169014
    },
    "data-140708822253008": {
        "protein": "HDAC",
        "target": "HDAC5",
        "model": "MPN",
        "optimizer": "Adam",
        "auc": 0.772222,
        "active": 99.0,
        "deactive": 159.0,
        "TP": 10,
        "TN": 33,
        "FP": 10,
        "FN": 18,
        "mcc": 0.13535613026816543,
        "f1": 0.41666666666666663,
        "precision": 0.5,
        "recall": 0.35714285714285715,
        "accuracy": 0.6056338028169014
    },
    "data-140708822252688": {
        "protein": "HDAC",
        "target": "HDAC5",
        "model": "GGNN",
        "optimizer": "SGD",
        "auc": 0.385417,
        "active": 99.0,
        "deactive": 159.0,
        "TP": 20,
        "TN": 23,
        "FP": 20,
        "FN": 8,
        "mcc": 0.24552581916129684,
        "f1": 0.588235294117647,
        "precision": 0.5,
        "recall": 0.7142857142857143,
        "accuracy": 0.6056338028169014
    },
    "data-140708822252368": {
        "protein": "HDAC",
        "target": "HDAC5",
        "model": "GGNN",
        "optimizer": "Adam",
        "auc": 0.706944,
        "active": 99.0,
        "deactive": 159.0,
        "TP": 5,
        "TN": 36,
        "FP": 7,
        "FN": 23,
        "mcc": 0.02057897448219828,
        "f1": 0.25,
        "precision": 0.4166666666666667,
        "recall": 0.17857142857142858,
        "accuracy": 0.5774647887323944
    },
    "data-140708822252048": {
        "protein": "HDAC",
        "target": "HDAC5",
        "model": "GCN",
        "optimizer": "SGD",
        "auc": 0.664583,
        "active": 99.0,
        "deactive": 159.0,
        "TP": 16,
        "TN": 17,
        "FP": 26,
        "FN": 12,
        "mcc": -0.03303110509077926,
        "f1": 0.4571428571428571,
        "precision": 0.38095238095238093,
        "recall": 0.5714285714285714,
        "accuracy": 0.4647887323943662
    },
    "data-140708822251728": {
        "protein": "HDAC",
        "target": "HDAC5",
        "model": "GCN",
        "optimizer": "Adam",
        "auc": 0.759722,
        "active": 99.0,
        "deactive": 159.0,
        "TP": 22,
        "TN": 31,
        "FP": 12,
        "FN": 6,
        "mcc": 0.4956513244311141,
        "f1": 0.7096774193548386,
        "precision": 0.6470588235294118,
        "recall": 0.7857142857142857,
        "accuracy": 0.7464788732394366
    },
    "data-140708822251408": {
        "protein": "HDAC",
        "target": "HDAC4",
        "model": "MPN",
        "optimizer": "SGD",
        "auc": 0.71272,
        "active": 188.0,
        "deactive": 246.0,
        "TP": 0,
        "TN": 68,
        "FP": 0,
        "FN": 57,
        "mcc": 0,
        "f1": 0,
        "precision": 0,
        "recall": 0.0,
        "accuracy": 0.544
    },
    "data-140708822251088": {
        "protein": "HDAC",
        "target": "HDAC4",
        "model": "MPN",
        "optimizer": "Adam",
        "auc": 0.898762,
        "active": 188.0,
        "deactive": 246.0,
        "TP": 40,
        "TN": 59,
        "FP": 9,
        "FN": 17,
        "mcc": 0.5809056664379356,
        "f1": 0.7547169811320754,
        "precision": 0.8163265306122449,
        "recall": 0.7017543859649122,
        "accuracy": 0.792
    },
    "data-140708822250768": {
        "protein": "HDAC",
        "target": "HDAC4",
        "model": "GGNN",
        "optimizer": "SGD",
        "auc": 0.426705,
        "active": 188.0,
        "deactive": 246.0,
        "TP": 0,
        "TN": 68,
        "FP": 0,
        "FN": 57,
        "mcc": 0,
        "f1": 0,
        "precision": 0,
        "recall": 0.0,
        "accuracy": 0.544
    },
    "data-140708822250448": {
        "protein": "HDAC",
        "target": "HDAC4",
        "model": "GGNN",
        "optimizer": "Adam",
        "auc": 0.809325,
        "active": 188.0,
        "deactive": 246.0,
        "TP": 31,
        "TN": 59,
        "FP": 9,
        "FN": 26,
        "mcc": 0.43936893219788287,
        "f1": 0.6391752577319588,
        "precision": 0.775,
        "recall": 0.543859649122807,
        "accuracy": 0.72
    },
    "data-140708822250128": {
        "protein": "HDAC",
        "target": "HDAC4",
        "model": "GCN",
        "optimizer": "SGD",
        "auc": 0.768474,
        "active": 188.0,
        "deactive": 246.0,
        "TP": 34,
        "TN": 46,
        "FP": 22,
        "FN": 23,
        "mcc": 0.2733853414884992,
        "f1": 0.6017699115044247,
        "precision": 0.6071428571428571,
        "recall": 0.5964912280701754,
        "accuracy": 0.64
    },
    "data-140708822249808": {
        "protein": "HDAC",
        "target": "HDAC4",
        "model": "GCN",
        "optimizer": "Adam",
        "auc": 0.893423,
        "active": 188.0,
        "deactive": 246.0,
        "TP": 43,
        "TN": 53,
        "FP": 15,
        "FN": 14,
        "mcc": 0.5331104656153646,
        "f1": 0.7478260869565219,
        "precision": 0.7413793103448276,
        "recall": 0.7543859649122807,
        "accuracy": 0.768
    },
    "data-140708822314960": {
        "protein": "HDAC",
        "target": "HDAC3",
        "model": "MPN",
        "optimizer": "SGD",
        "auc": 0.44661,
        "active": 973.0,
        "deactive": 239.0,
        "TP": 267,
        "TN": 0,
        "FP": 65,
        "FN": 0,
        "mcc": 0,
        "f1": 0.8914858096828047,
        "precision": 0.8042168674698795,
        "recall": 1.0,
        "accuracy": 0.8042168674698795
    },
    "data-140708822314640": {
        "protein": "HDAC",
        "target": "HDAC3",
        "model": "MPN",
        "optimizer": "Adam",
        "auc": 0.899037,
        "active": 973.0,
        "deactive": 239.0,
        "TP": 252,
        "TN": 40,
        "FP": 25,
        "FN": 15,
        "mcc": 0.5968456067145435,
        "f1": 0.926470588235294,
        "precision": 0.9097472924187726,
        "recall": 0.9438202247191011,
        "accuracy": 0.8795180722891566
    },
    "data-140708822314320": {
        "protein": "HDAC",
        "target": "HDAC3",
        "model": "GGNN",
        "optimizer": "SGD",
        "auc": 0.443938,
        "active": 973.0,
        "deactive": 239.0,
        "TP": 267,
        "TN": 0,
        "FP": 65,
        "FN": 0,
        "mcc": 0,
        "f1": 0.8914858096828047,
        "precision": 0.8042168674698795,
        "recall": 1.0,
        "accuracy": 0.8042168674698795
    },
    "data-140708822314000": {
        "protein": "HDAC",
        "target": "HDAC3",
        "model": "GGNN",
        "optimizer": "Adam",
        "auc": 0.859239,
        "active": 973.0,
        "deactive": 239.0,
        "TP": 252,
        "TN": 36,
        "FP": 29,
        "FN": 15,
        "mcc": 0.5476616904345599,
        "f1": 0.9197080291970804,
        "precision": 0.896797153024911,
        "recall": 0.9438202247191011,
        "accuracy": 0.8674698795180723
    },
    "data-140708822313680": {
        "protein": "HDAC",
        "target": "HDAC3",
        "model": "GCN",
        "optimizer": "SGD",
        "auc": 0.809761,
        "active": 973.0,
        "deactive": 239.0,
        "TP": 226,
        "TN": 36,
        "FP": 29,
        "FN": 41,
        "mcc": 0.3763306036242528,
        "f1": 0.8659003831417624,
        "precision": 0.8862745098039215,
        "recall": 0.846441947565543,
        "accuracy": 0.7891566265060241
    },
    "data-140708822313360": {
        "protein": "HDAC",
        "target": "HDAC3",
        "model": "GCN",
        "optimizer": "Adam",
        "auc": 0.903256,
        "active": 973.0,
        "deactive": 239.0,
        "TP": 251,
        "TN": 39,
        "FP": 26,
        "FN": 16,
        "mcc": 0.5764280135739738,
        "f1": 0.9227941176470589,
        "precision": 0.9061371841155235,
        "recall": 0.9400749063670412,
        "accuracy": 0.8734939759036144
    },
    "data-140708822313040": {
        "protein": "HDAC",
        "target": "HDAC2",
        "model": "MPN",
        "optimizer": "SGD",
        "auc": 0.549287,
        "active": 856.0,
        "deactive": 198.0,
        "TP": 236,
        "TN": 0,
        "FP": 55,
        "FN": 0,
        "mcc": 0,
        "f1": 0.8956356736242884,
        "precision": 0.8109965635738832,
        "recall": 1.0,
        "accuracy": 0.8109965635738832
    },
    "data-140708822312720": {
        "protein": "HDAC",
        "target": "HDAC2",
        "model": "MPN",
        "optimizer": "Adam",
        "auc": 0.878553,
        "active": 856.0,
        "deactive": 198.0,
        "TP": 227,
        "TN": 26,
        "FP": 29,
        "FN": 9,
        "mcc": 0.5230759453978582,
        "f1": 0.9227642276422765,
        "precision": 0.88671875,
        "recall": 0.961864406779661,
        "accuracy": 0.8694158075601375
    },
    "data-140708822312400": {
        "protein": "HDAC",
        "target": "HDAC2",
        "model": "GGNN",
        "optimizer": "SGD",
        "auc": 0.521843,
        "active": 856.0,
        "deactive": 198.0,
        "TP": 236,
        "TN": 0,
        "FP": 55,
        "FN": 0,
        "mcc": 0,
        "f1": 0.8956356736242884,
        "precision": 0.8109965635738832,
        "recall": 1.0,
        "accuracy": 0.8109965635738832
    },
    "data-140708822312080": {
        "protein": "HDAC",
        "target": "HDAC2",
        "model": "GGNN",
        "optimizer": "Adam",
        "auc": 0.791471,
        "active": 856.0,
        "deactive": 198.0,
        "TP": 224,
        "TN": 22,
        "FP": 33,
        "FN": 12,
        "mcc": 0.4255460216888147,
        "f1": 0.9087221095334685,
        "precision": 0.8715953307392996,
        "recall": 0.9491525423728814,
        "accuracy": 0.845360824742268
    },
    "data-140708822311760": {
        "protein": "HDAC",
        "target": "HDAC2",
        "model": "GCN",
        "optimizer": "SGD",
        "auc": 0.733343,
        "active": 856.0,
        "deactive": 198.0,
        "TP": 234,
        "TN": 0,
        "FP": 55,
        "FN": 2,
        "mcc": -0.04015978875597773,
        "f1": 0.8914285714285715,
        "precision": 0.8096885813148789,
        "recall": 0.9915254237288136,
        "accuracy": 0.8041237113402062
    },
    "data-140708822311440": {
        "protein": "HDAC",
        "target": "HDAC2",
        "model": "GCN",
        "optimizer": "Adam",
        "auc": 0.873001,
        "active": 856.0,
        "deactive": 198.0,
        "TP": 228,
        "TN": 14,
        "FP": 41,
        "FN": 8,
        "mcc": 0.32677452120371914,
        "f1": 0.9029702970297029,
        "precision": 0.8475836431226765,
        "recall": 0.9661016949152542,
        "accuracy": 0.8316151202749141
    },
    "data-140708822311120": {
        "protein": "HDAC",
        "target": "HDAC11",
        "model": "MPN",
        "optimizer": "SGD",
        "auc": 0.483333,
        "active": 134.0,
        "deactive": 76.0,
        "TP": 36,
        "TN": 0,
        "FP": 20,
        "FN": 0,
        "mcc": 0,
        "f1": 0.782608695652174,
        "precision": 0.6428571428571429,
        "recall": 1.0,
        "accuracy": 0.6428571428571429
    },
    "data-140708822237008": {
        "protein": "HDAC",
        "target": "HDAC11",
        "model": "MPN",
        "optimizer": "Adam",
        "auc": 0.75585,
        "active": 134.0,
        "deactive": 76.0,
        "TP": 31,
        "TN": 10,
        "FP": 10,
        "FN": 5,
        "mcc": 0.3907235083558873,
        "f1": 0.8051948051948052,
        "precision": 0.7560975609756098,
        "recall": 0.8611111111111112,
        "accuracy": 0.7321428571428571
    },
    "data-140708822236688": {
        "protein": "HDAC",
        "target": "HDAC11",
        "model": "GGNN",
        "optimizer": "SGD",
        "auc": 0.320749,
        "active": 134.0,
        "deactive": 76.0,
        "TP": 36,
        "TN": 0,
        "FP": 20,
        "FN": 0,
        "mcc": 0,
        "f1": 0.782608695652174,
        "precision": 0.6428571428571429,
        "recall": 1.0,
        "accuracy": 0.6428571428571429
    },
    "data-140708822236368": {
        "protein": "HDAC",
        "target": "HDAC11",
        "model": "GGNN",
        "optimizer": "Adam",
        "auc": 0.728367,
        "active": 134.0,
        "deactive": 76.0,
        "TP": 34,
        "TN": 2,
        "FP": 18,
        "FN": 2,
        "mcc": 0.08268982305947231,
        "f1": 0.7727272727272727,
        "precision": 0.6538461538461539,
        "recall": 0.9444444444444444,
        "accuracy": 0.6428571428571429
    },
    "data-140708822236048": {
        "protein": "HDAC",
        "target": "HDAC11",
        "model": "GCN",
        "optimizer": "SGD",
        "auc": 0.686364,
        "active": 134.0,
        "deactive": 76.0,
        "TP": 22,
        "TN": 12,
        "FP": 8,
        "FN": 14,
        "mcc": 0.20282899481977704,
        "f1": 0.6666666666666666,
        "precision": 0.7333333333333333,
        "recall": 0.6111111111111112,
        "accuracy": 0.6071428571428571
    },
    "data-140708822235600": {
        "protein": "HDAC",
        "target": "HDAC11",
        "model": "GCN",
        "optimizer": "Adam",
        "auc": 0.703872,
        "active": 134.0,
        "deactive": 76.0,
        "TP": 29,
        "TN": 9,
        "FP": 11,
        "FN": 7,
        "mcc": 0.2710575994548432,
        "f1": 0.7631578947368423,
        "precision": 0.725,
        "recall": 0.8055555555555556,
        "accuracy": 0.6785714285714286
    },
    "data-140708822235728": {
        "protein": "HDAC",
        "target": "HDAC10",
        "model": "MPN",
        "optimizer": "SGD",
        "auc": 0.42814,
        "active": 196.0,
        "deactive": 72.0,
        "TP": 40,
        "TN": 4,
        "FP": 18,
        "FN": 11,
        "mcc": -0.03846161726478197,
        "f1": 0.7339449541284404,
        "precision": 0.6896551724137931,
        "recall": 0.7843137254901961,
        "accuracy": 0.6027397260273972
    },
    "data-140708822234512": {
        "protein": "HDAC",
        "target": "HDAC10",
        "model": "MPN",
        "optimizer": "Adam",
        "auc": 0.834516,
        "active": 196.0,
        "deactive": 72.0,
        "TP": 47,
        "TN": 8,
        "FP": 14,
        "FN": 4,
        "mcc": 0.35310023721957756,
        "f1": 0.8392857142857142,
        "precision": 0.7704918032786885,
        "recall": 0.9215686274509803,
        "accuracy": 0.7534246575342466
    },
    "data-140708822139792": {
        "protein": "HDAC",
        "target": "HDAC10",
        "model": "GGNN",
        "optimizer": "SGD",
        "auc": 0.335176,
        "active": 196.0,
        "deactive": 72.0,
        "TP": 51,
        "TN": 0,
        "FP": 22,
        "FN": 0,
        "mcc": 0,
        "f1": 0.8225806451612903,
        "precision": 0.6986301369863014,
        "recall": 1.0,
        "accuracy": 0.6986301369863014
    },
    "data-140708822141008": {
        "protein": "HDAC",
        "target": "HDAC10",
        "model": "GGNN",
        "optimizer": "Adam",
        "auc": 0.797708,
        "active": 196.0,
        "deactive": 72.0,
        "TP": 48,
        "TN": 4,
        "FP": 18,
        "FN": 3,
        "mcc": 0.1916733221058987,
        "f1": 0.8205128205128205,
        "precision": 0.7272727272727273,
        "recall": 0.9411764705882353,
        "accuracy": 0.7123287671232876
    },
    "data-140708822142608": {
        "protein": "HDAC",
        "target": "HDAC10",
        "model": "GCN",
        "optimizer": "SGD",
        "auc": 0.684465,
        "active": 196.0,
        "deactive": 72.0,
        "TP": 29,
        "TN": 12,
        "FP": 10,
        "FN": 22,
        "mcc": 0.1049401738048114,
        "f1": 0.6444444444444445,
        "precision": 0.7435897435897436,
        "recall": 0.5686274509803921,
        "accuracy": 0.5616438356164384
    },
    "data-140708822143696": {
        "protein": "HDAC",
        "target": "HDAC10",
        "model": "GCN",
        "optimizer": "Adam",
        "auc": 0.831929,
        "active": 196.0,
        "deactive": 72.0,
        "TP": 42,
        "TN": 10,
        "FP": 12,
        "FN": 9,
        "mcc": 0.2907933597234127,
        "f1": 0.7999999999999999,
        "precision": 0.7777777777777778,
        "recall": 0.8235294117647058,
        "accuracy": 0.7123287671232876
    },
    "data-140708822145488": {
        "protein": "HDAC",
        "target": "HDAC1",
        "model": "MPN",
        "optimizer": "SGD",
        "auc": 0.495405,
        "active": 2605.0,
        "deactive": 532.0,
        "TP": 719,
        "TN": 0,
        "FP": 136,
        "FN": 0,
        "mcc": 0,
        "f1": 0.9135959339263023,
        "precision": 0.8409356725146199,
        "recall": 1.0,
        "accuracy": 0.8409356725146199
    },
    "data-140708822146128": {
        "protein": "HDAC",
        "target": "HDAC1",
        "model": "MPN",
        "optimizer": "Adam",
        "auc": 0.871966,
        "active": 2605.0,
        "deactive": 532.0,
        "TP": 695,
        "TN": 67,
        "FP": 69,
        "FN": 24,
        "mcc": 0.5446683125092295,
        "f1": 0.9372892784895481,
        "precision": 0.9096858638743456,
        "recall": 0.9666203059805285,
        "accuracy": 0.8912280701754386
    },
    "data-140708822116944": {
        "protein": "HDAC",
        "target": "HDAC1",
        "model": "GGNN",
        "optimizer": "SGD",
        "auc": 0.520009,
        "active": 2605.0,
        "deactive": 532.0,
        "TP": 719,
        "TN": 0,
        "FP": 136,
        "FN": 0,
        "mcc": 0,
        "f1": 0.9135959339263023,
        "precision": 0.8409356725146199,
        "recall": 1.0,
        "accuracy": 0.8409356725146199
    },
    "data-140708822116688": {
        "protein": "HDAC",
        "target": "HDAC1",
        "model": "GGNN",
        "optimizer": "Adam",
        "auc": 0.818994,
        "active": 2605.0,
        "deactive": 532.0,
        "TP": 683,
        "TN": 62,
        "FP": 74,
        "FN": 36,
        "mcc": 0.46590639952113655,
        "f1": 0.9254742547425474,
        "precision": 0.9022457067371202,
        "recall": 0.9499304589707928,
        "accuracy": 0.8713450292397661
    },
    "data-140708822115920": {
        "protein": "HDAC",
        "target": "HDAC1",
        "model": "GCN",
        "optimizer": "SGD",
        "auc": 0.76479,
        "active": 2605.0,
        "deactive": 532.0,
        "TP": 711,
        "TN": 24,
        "FP": 112,
        "FN": 8,
        "mcc": 0.31860126392779875,
        "f1": 0.9221789883268483,
        "precision": 0.8639125151883353,
        "recall": 0.9888734353268428,
        "accuracy": 0.8596491228070176
    },
    "data-140708822116304": {
        "protein": "HDAC",
        "target": "HDAC1",
        "model": "GCN",
        "optimizer": "Adam",
        "auc": 0.837404,
        "active": 2605.0,
        "deactive": 532.0,
        "TP": 694,
        "TN": 60,
        "FP": 76,
        "FN": 25,
        "mcc": 0.49675144368598106,
        "f1": 0.9321692411014104,
        "precision": 0.9012987012987013,
        "recall": 0.9652294853963839,
        "accuracy": 0.8818713450292398
    },
    "data-140708821831184": {
        "protein": "HMT",
        "target": "EZH2",
        "model": "MPN",
        "optimizer": "SGD",
        "auc": 0.678144,
        "active": 265.0,
        "deactive": 39.0,
        "TP": 74,
        "TN": 0,
        "FP": 11,
        "FN": 0,
        "mcc": 0,
        "f1": 0.9308176100628931,
        "precision": 0.8705882352941177,
        "recall": 1.0,
        "accuracy": 0.8705882352941177
    },
    "data-140708821830864": {
        "protein": "HMT",
        "target": "EZH2",
        "model": "MPN",
        "optimizer": "Adam",
        "auc": 0.881861,
        "active": 265.0,
        "deactive": 39.0,
        "TP": 74,
        "TN": 0,
        "FP": 11,
        "FN": 0,
        "mcc": 0,
        "f1": 0.9308176100628931,
        "precision": 0.8705882352941177,
        "recall": 1.0,
        "accuracy": 0.8705882352941177
    },
    "data-140708821830544": {
        "protein": "HMT",
        "target": "EZH2",
        "model": "GGNN",
        "optimizer": "SGD",
        "auc": 0.392002,
        "active": 265.0,
        "deactive": 39.0,
        "TP": 74,
        "TN": 0,
        "FP": 11,
        "FN": 0,
        "mcc": 0,
        "f1": 0.9308176100628931,
        "precision": 0.8705882352941177,
        "recall": 1.0,
        "accuracy": 0.8705882352941177
    },
    "data-140708821830224": {
        "protein": "HMT",
        "target": "EZH2",
        "model": "GGNN",
        "optimizer": "Adam",
        "auc": 0.866416,
        "active": 265.0,
        "deactive": 39.0,
        "TP": 69,
        "TN": 4,
        "FP": 7,
        "FN": 5,
        "mcc": 0.3229808619893353,
        "f1": 0.92,
        "precision": 0.9078947368421053,
        "recall": 0.9324324324324325,
        "accuracy": 0.8588235294117647
    },
    "data-140708821829904": {
        "protein": "HMT",
        "target": "EZH2",
        "model": "GCN",
        "optimizer": "SGD",
        "auc": 0.71223,
        "active": 265.0,
        "deactive": 39.0,
        "TP": 74,
        "TN": 0,
        "FP": 11,
        "FN": 0,
        "mcc": 0,
        "f1": 0.9308176100628931,
        "precision": 0.8705882352941177,
        "recall": 1.0,
        "accuracy": 0.8705882352941177
    },
    "data-140708821829584": {
        "protein": "HMT",
        "target": "EZH2",
        "model": "GCN",
        "optimizer": "Adam",
        "auc": 0.77151,
        "active": 265.0,
        "deactive": 39.0,
        "TP": 74,
        "TN": 0,
        "FP": 11,
        "FN": 0,
        "mcc": 0,
        "f1": 0.9308176100628931,
        "precision": 0.8705882352941177,
        "recall": 1.0,
        "accuracy": 0.8705882352941177
    },
    "data-140708821829264": {
        "protein": "HMT",
        "target": "EHMT2",
        "model": "MPN",
        "optimizer": "SGD",
        "auc": 0.408069,
        "active": 203.0,
        "deactive": 63.0,
        "TP": 58,
        "TN": 1,
        "FP": 13,
        "FN": 0,
        "mcc": 0.24155765482307062,
        "f1": 0.8992248062015504,
        "precision": 0.8169014084507042,
        "recall": 1.0,
        "accuracy": 0.8194444444444444
    },
    "data-140708821828944": {
        "protein": "HMT",
        "target": "EHMT2",
        "model": "MPN",
        "optimizer": "Adam",
        "auc": 0.67328,
        "active": 203.0,
        "deactive": 63.0,
        "TP": 57,
        "TN": 2,
        "FP": 12,
        "FN": 1,
        "mcc": 0.24879232829262,
        "f1": 0.8976377952755905,
        "precision": 0.8260869565217391,
        "recall": 0.9827586206896551,
        "accuracy": 0.8194444444444444
    },
    "data-140708821828624": {
        "protein": "HMT",
        "target": "EHMT2",
        "model": "GGNN",
        "optimizer": "SGD",
        "auc": 0.607143,
        "active": 203.0,
        "deactive": 63.0,
        "TP": 58,
        "TN": 0,
        "FP": 14,
        "FN": 0,
        "mcc": 0,
        "f1": 0.8923076923076924,
        "precision": 0.8055555555555556,
        "recall": 1.0,
        "accuracy": 0.8055555555555556
    },
    "data-140708821828304": {
        "protein": "HMT",
        "target": "EHMT2",
        "model": "GGNN",
        "optimizer": "Adam",
        "auc": 0.736772,
        "active": 203.0,
        "deactive": 63.0,
        "TP": 57,
        "TN": 0,
        "FP": 14,
        "FN": 1,
        "mcc": -0.0583070201297067,
        "f1": 0.8837209302325583,
        "precision": 0.8028169014084507,
        "recall": 0.9827586206896551,
        "accuracy": 0.7916666666666666
    },
    "data-140708821827984": {
        "protein": "HMT",
        "target": "EHMT2",
        "model": "GCN",
        "optimizer": "SGD",
        "auc": 0.736111,
        "active": 203.0,
        "deactive": 63.0,
        "TP": 38,
        "TN": 6,
        "FP": 8,
        "FN": 20,
        "mcc": 0.06900257666162396,
        "f1": 0.7307692307692308,
        "precision": 0.8260869565217391,
        "recall": 0.6551724137931034,
        "accuracy": 0.6111111111111112
    },
    "data-140708821827664": {
        "protein": "HMT",
        "target": "EHMT2",
        "model": "GCN",
        "optimizer": "Adam",
        "auc": 0.62037,
        "active": 203.0,
        "deactive": 63.0,
        "TP": 15,
        "TN": 9,
        "FP": 5,
        "FN": 43,
        "mcc": -0.08705531728897116,
        "f1": 0.3846153846153847,
        "precision": 0.75,
        "recall": 0.25862068965517243,
        "accuracy": 0.3333333333333333
    },
    "data-140708821901008": {
        "protein": "HMT",
        "target": "DOT1L",
        "model": "MPN",
        "optimizer": "SGD",
        "auc": 0.441746,
        "active": 56.0,
        "deactive": 45.0,
        "TP": 13,
        "TN": 2,
        "FP": 12,
        "FN": 1,
        "mcc": 0.11547005383792516,
        "f1": 0.6666666666666666,
        "precision": 0.52,
        "recall": 0.9285714285714286,
        "accuracy": 0.5357142857142857
    },
    "data-140708821900688": {
        "protein": "HMT",
        "target": "DOT1L",
        "model": "MPN",
        "optimizer": "Adam",
        "auc": 0.566984,
        "active": 56.0,
        "deactive": 45.0,
        "TP": 11,
        "TN": 6,
        "FP": 8,
        "FN": 3,
        "mcc": 0.22941573387056177,
        "f1": 0.6666666666666667,
        "precision": 0.5789473684210527,
        "recall": 0.7857142857142857,
        "accuracy": 0.6071428571428571
    },
    "data-140708821900368": {
        "protein": "HMT",
        "target": "DOT1L",
        "model": "GGNN",
        "optimizer": "SGD",
        "auc": 0.658968,
        "active": 56.0,
        "deactive": 45.0,
        "TP": 14,
        "TN": 0,
        "FP": 14,
        "FN": 0,
        "mcc": 0,
        "f1": 0.6666666666666666,
        "precision": 0.5,
        "recall": 1.0,
        "accuracy": 0.5
    },
    "data-140708821900048": {
        "protein": "HMT",
        "target": "DOT1L",
        "model": "GGNN",
        "optimizer": "Adam",
        "auc": 0.683175,
        "active": 56.0,
        "deactive": 45.0,
        "TP": 9,
        "TN": 9,
        "FP": 5,
        "FN": 5,
        "mcc": 0.2857142857142857,
        "f1": 0.6428571428571429,
        "precision": 0.6428571428571429,
        "recall": 0.6428571428571429,
        "accuracy": 0.6428571428571429
    },
    "data-140708821899728": {
        "protein": "HMT",
        "target": "DOT1L",
        "model": "GCN",
        "optimizer": "SGD",
        "auc": 0.567857,
        "active": 56.0,
        "deactive": 45.0,
        "TP": 7,
        "TN": 10,
        "FP": 4,
        "FN": 7,
        "mcc": 0.2193817272381392,
        "f1": 0.56,
        "precision": 0.6363636363636364,
        "recall": 0.5,
        "accuracy": 0.6071428571428571
    },
    "data-140708821899408": {
        "protein": "HMT",
        "target": "DOT1L",
        "model": "GCN",
        "optimizer": "Adam",
        "auc": 0.67754,
        "active": 56.0,
        "deactive": 45.0,
        "TP": 5,
        "TN": 9,
        "FP": 5,
        "FN": 9,
        "mcc": 0.0,
        "f1": 0.41666666666666663,
        "precision": 0.5,
        "recall": 0.35714285714285715,
        "accuracy": 0.5
    },
    "data-140708822171920": {
        "protein": "DNMT1",
        "target": "DNMT1",
        "model": "MPN",
        "optimizer": "SGD",
        "auc": 0.675567,
        "active": 89.0,
        "deactive": 62.0,
        "TP": 28,
        "TN": 0,
        "FP": 14,
        "FN": 0,
        "mcc": 0,
        "f1": 0.8,
        "precision": 0.6666666666666666,
        "recall": 1.0,
        "accuracy": 0.6666666666666666
    },
    "data-140708822173520": {
        "protein": "DNMT1",
        "target": "DNMT1",
        "model": "MPN",
        "optimizer": "Adam",
        "auc": 0.904321,
        "active": 89.0,
        "deactive": 62.0,
        "TP": 28,
        "TN": 2,
        "FP": 12,
        "FN": 0,
        "mcc": 0.31622776601683794,
        "f1": 0.8235294117647058,
        "precision": 0.7,
        "recall": 1.0,
        "accuracy": 0.7142857142857143
    },
    "data-140708822175120": {
        "protein": "DNMT1",
        "target": "DNMT1",
        "model": "GGNN",
        "optimizer": "SGD",
        "auc": 0.52982,
        "active": 89.0,
        "deactive": 62.0,
        "TP": 28,
        "TN": 0,
        "FP": 14,
        "FN": 0,
        "mcc": 0,
        "f1": 0.8,
        "precision": 0.6666666666666666,
        "recall": 1.0,
        "accuracy": 0.6666666666666666
    },
    "data-140708822176784": {
        "protein": "DNMT1",
        "target": "DNMT1",
        "model": "GGNN",
        "optimizer": "Adam",
        "auc": 0.890572,
        "active": 89.0,
        "deactive": 62.0,
        "TP": 21,
        "TN": 6,
        "FP": 8,
        "FN": 7,
        "mcc": 0.18208926018230745,
        "f1": 0.736842105263158,
        "precision": 0.7241379310344828,
        "recall": 0.75,
        "accuracy": 0.6428571428571429
    },
    "data-140708822178384": {
        "protein": "DNMT1",
        "target": "DNMT1",
        "model": "GCN",
        "optimizer": "SGD",
        "auc": 0.810584,
        "active": 89.0,
        "deactive": 62.0,
        "TP": 28,
        "TN": 3,
        "FP": 11,
        "FN": 0,
        "mcc": 0.3922322702763681,
        "f1": 0.835820895522388,
        "precision": 0.717948717948718,
        "recall": 1.0,
        "accuracy": 0.7380952380952381
    },
    "data-140708822184144": {
        "protein": "DNMT1",
        "target": "DNMT1",
        "model": "GCN",
        "optimizer": "Adam",
        "auc": 0.909439,
        "active": 89.0,
        "deactive": 62.0,
        "TP": 26,
        "TN": 13,
        "FP": 1,
        "FN": 2,
        "mcc": 0.8432740427115678,
        "f1": 0.9454545454545454,
        "precision": 0.9629629629629629,
        "recall": 0.9285714285714286,
        "accuracy": 0.9285714285714286
    },
    "data-140708822227152": {
        "protein": "HAT",
        "target": "CREBBP",
        "model": "MPN",
        "optimizer": "SGD",
        "auc": 0.476879,
        "active": 254.0,
        "deactive": 103.0,
        "TP": 71,
        "TN": 1,
        "FP": 26,
        "FN": 0,
        "mcc": 0.16464988251017593,
        "f1": 0.8452380952380951,
        "precision": 0.7319587628865979,
        "recall": 1.0,
        "accuracy": 0.7346938775510204
    },
    "data-140708822228752": {
        "protein": "HAT",
        "target": "CREBBP",
        "model": "MPN",
        "optimizer": "Adam",
        "auc": 0.757175,
        "active": 254.0,
        "deactive": 103.0,
        "TP": 59,
        "TN": 14,
        "FP": 13,
        "FN": 12,
        "mcc": 0.3536802623625987,
        "f1": 0.8251748251748252,
        "precision": 0.8194444444444444,
        "recall": 0.8309859154929577,
        "accuracy": 0.7448979591836735
    },
    "data-140708822156880": {
        "protein": "HAT",
        "target": "CREBBP",
        "model": "GGNN",
        "optimizer": "SGD",
        "auc": 0.69182,
        "active": 254.0,
        "deactive": 103.0,
        "TP": 71,
        "TN": 0,
        "FP": 27,
        "FN": 0,
        "mcc": 0,
        "f1": 0.8402366863905326,
        "precision": 0.7244897959183674,
        "recall": 1.0,
        "accuracy": 0.7244897959183674
    },
    "data-140708822158480": {
        "protein": "HAT",
        "target": "CREBBP",
        "model": "GGNN",
        "optimizer": "Adam",
        "auc": 0.788331,
        "active": 254.0,
        "deactive": 103.0,
        "TP": 63,
        "TN": 10,
        "FP": 17,
        "FN": 8,
        "mcc": 0.29732720370640986,
        "f1": 0.8344370860927152,
        "precision": 0.7875,
        "recall": 0.8873239436619719,
        "accuracy": 0.7448979591836735
    },
    "data-140708822160144": {
        "protein": "HAT",
        "target": "CREBBP",
        "model": "GCN",
        "optimizer": "SGD",
        "auc": 0.742355,
        "active": 254.0,
        "deactive": 103.0,
        "TP": 67,
        "TN": 3,
        "FP": 24,
        "FN": 4,
        "mcc": 0.09501857794816083,
        "f1": 0.8271604938271604,
        "precision": 0.7362637362637363,
        "recall": 0.9436619718309859,
        "accuracy": 0.7142857142857143
    },
    "data-140708822161744": {
        "protein": "HAT",
        "target": "CREBBP",
        "model": "GCN",
        "optimizer": "Adam",
        "auc": 0.797702,
        "active": 254.0,
        "deactive": 103.0,
        "TP": 62,
        "TN": 7,
        "FP": 20,
        "FN": 9,
        "mcc": 0.16016062048649518,
        "f1": 0.8104575163398693,
        "precision": 0.7560975609756098,
        "recall": 0.8732394366197183,
        "accuracy": 0.7040816326530612
    },
    "data-140708821899088": {
        "protein": "HMT",
        "target": "CARM1",
        "model": "MPN",
        "optimizer": "SGD",
        "auc": 0.549524,
        "active": 63.0,
        "deactive": 34.0,
        "TP": 14,
        "TN": 1,
        "FP": 11,
        "FN": 3,
        "mcc": -0.13302660798266094,
        "f1": 0.6666666666666666,
        "precision": 0.56,
        "recall": 0.8235294117647058,
        "accuracy": 0.5172413793103449
    },
    "data-140708821898768": {
        "protein": "HMT",
        "target": "CARM1",
        "model": "MPN",
        "optimizer": "Adam",
        "auc": 0.733175,
        "active": 63.0,
        "deactive": 34.0,
        "TP": 12,
        "TN": 5,
        "FP": 7,
        "FN": 5,
        "mcc": 0.12698374305804658,
        "f1": 0.6666666666666667,
        "precision": 0.631578947368421,
        "recall": 0.7058823529411765,
        "accuracy": 0.5862068965517241
    },
    "data-140708821898448": {
        "protein": "HMT",
        "target": "CARM1",
        "model": "GGNN",
        "optimizer": "SGD",
        "auc": 0.303413,
        "active": 63.0,
        "deactive": 34.0,
        "TP": 17,
        "TN": 0,
        "FP": 12,
        "FN": 0,
        "mcc": 0,
        "f1": 0.7391304347826086,
        "precision": 0.5862068965517241,
        "recall": 1.0,
        "accuracy": 0.5862068965517241
    },
    "data-140708821898128": {
        "protein": "HMT",
        "target": "CARM1",
        "model": "GGNN",
        "optimizer": "Adam",
        "auc": 0.726984,
        "active": 63.0,
        "deactive": 34.0,
        "TP": 15,
        "TN": 3,
        "FP": 9,
        "FN": 2,
        "mcc": 0.17256712249065836,
        "f1": 0.7317073170731708,
        "precision": 0.625,
        "recall": 0.8823529411764706,
        "accuracy": 0.6206896551724138
    },
    "data-140708821897808": {
        "protein": "HMT",
        "target": "CARM1",
        "model": "GCN",
        "optimizer": "SGD",
        "auc": 0.797857,
        "active": 63.0,
        "deactive": 34.0,
        "TP": 9,
        "TN": 8,
        "FP": 4,
        "FN": 8,
        "mcc": 0.19418390934515434,
        "f1": 0.5999999999999999,
        "precision": 0.6923076923076923,
        "recall": 0.5294117647058824,
        "accuracy": 0.5862068965517241
    },
    "data-140708821897488": {
        "protein": "HMT",
        "target": "CARM1",
        "model": "GCN",
        "optimizer": "Adam",
        "auc": 0.799286,
        "active": 63.0,
        "deactive": 34.0,
        "TP": 10,
        "TN": 6,
        "FP": 6,
        "FN": 7,
        "mcc": 0.08738275920531945,
        "f1": 0.6060606060606061,
        "precision": 0.625,
        "recall": 0.5882352941176471,
        "accuracy": 0.5517241379310345
    }
}
