Command line
python main.py
Args
{'activation': 'ReLU',
 'adding_h': False,
 'aggregation': 'mean',
 'aggregation_norm': 100,
 'atom_descriptor_scaling': True,
 'atom_descriptors': None,
 'atom_descriptors_path': None,
 'atom_descriptors_size': 0,
 'atom_features_size': 0,
 'atom_messages': False,
 'batch_size': 50,
 'bias': False,
 'bias_solvent': False,
 'bond_feature_scaling': True,
 'bond_features_path': None,
 'bond_features_size': 0,
 'cache_cutoff': 10000,
 'checkpoint_dir': None,
 'checkpoint_frzn': None,
 'checkpoint_path': None,
 'checkpoint_paths': None,
 'class_balance': False,
 'config_path': None,
 'crossval_index_dir': None,
 'crossval_index_file': None,
 'crossval_index_sets': None,
 'cuda': True,
 'data_path': './data/HDAC/HDAC10.csv',
 'data_weights_path': None,
 'dataset_type': 'classification',
 'depth': 3,
 'depth_solvent': 3,
 'device': device(type='cuda'),
 'dropout': 0.0,
 'empty_cache': False,
 'ensemble_size': 1,
 'epochs': 30,
 'evidential_regularization': 0,
 'explicit_h': False,
 'extra_metrics': [],
 'features_generator': None,
 'features_only': False,
 'features_path': None,
 'features_scaling': True,
 'features_size': None,
 'ffn_hidden_size': 300,
 'ffn_num_layers': 2,
 'final_lr': 0.0001,
 'folds_file': None,
 'frac_order': 1.0,
 'freeze_first_only': False,
 'frzn_ffn_layers': 0,
 'gpu': None,
 'grad_clip': None,
 'hidden_size': 300,
 'hidden_size_solvent': 300,
 'ignore_columns': None,
 'init_lr': 0.0001,
 'log_frequency': 10,
 'loss_function': 'binary_cross_entropy',
 'max_data_size': None,
 'max_lr': 0.001,
 'metric': 'auc',
 'metrics': ['auc'],
 'minimize_score': False,
 'model_name': 'GCN',
 'mpn_shared': False,
 'multiclass_num_classes': 3,
 'no_atom_descriptor_scaling': False,
 'no_bond_features_scaling': False,
 'no_cache_mol': False,
 'no_cuda': False,
 'no_features_scaling': False,
 'num_folds': 3,
 'num_lrs': 1,
 'num_tasks': 1,
 'num_workers': 8,
 'number_of_molecules': 1,
 'optimizer': 'Adam',
 'overwrite_default_atom_features': False,
 'overwrite_default_bond_features': False,
 'phase_features_path': None,
 'pytorch_seed': 0,
 'quiet': False,
 'reaction': False,
 'reaction_mode': 'reac_diff',
 'reaction_solvent': False,
 'resume_experiment': False,
 'save_dir': './result/classification/HDAC/HDAC10/GCN/Adam/1.0',
 'save_preds': True,
 'save_smiles_splits': False,
 'seed': 0,
 'separate_test_atom_descriptors_path': None,
 'separate_test_bond_features_path': None,
 'separate_test_features_path': None,
 'separate_test_path': None,
 'separate_test_phase_features_path': None,
 'separate_val_atom_descriptors_path': None,
 'separate_val_bond_features_path': None,
 'separate_val_features_path': None,
 'separate_val_path': None,
 'separate_val_phase_features_path': None,
 'show_individual_scores': False,
 'smiles_columns': ['O=C(CCCCC1CC(C(=O)NO)=NO1)Nc1ccccc1'],
 'spectra_activation': 'exp',
 'spectra_phase_mask_path': None,
 'spectra_target_floor': 1e-08,
 'split_key_molecule': 0,
 'split_sizes': [0.8, 0.1, 0.1],
 'split_type': 'random',
 'target_columns': None,
 'target_weights': None,
 'task_names': ['0'],
 'test': False,
 'test_fold_index': None,
 'train_data_size': None,
 'undirected': False,
 'use_input_features': False,
 'val_fold_index': None,
 'warmup_epochs': 2.0}
Setting molecule featurization parameters to default.
Loading data
Number of tasks = 1
Fold 0
Splitting data with seed 0
Class sizes
0 0: 26.59%, 1: 73.41%
Total size = 267 | train size = 213 | val size = 27 | test size = 27
Building model 0
MoleculeModel(
  (sigmoid): Sigmoid()
  (encoder): GCN(
    (encoder): ModuleList(
      (0): GCNEncoder(
        (gc1): graphconvolution(
          (fc): Linear(in_features=133, out_features=300, bias=True)
        )
        (gc2): graphconvolution(
          (fc): Linear(in_features=300, out_features=300, bias=True)
        )
        (gc3): graphconvolution(
          (fc): Linear(in_features=300, out_features=300, bias=True)
        )
      )
    )
  )
  (ffn): Sequential(
    (0): Dropout(p=0.0, inplace=False)
    (1): Linear(in_features=300, out_features=300, bias=True)
    (2): ReLU()
    (3): Dropout(p=0.0, inplace=False)
    (4): Linear(in_features=300, out_features=1, bias=True)
  )
)
Number of parameters = 532,501
Moving model to cuda
Epoch 0
Validation auc = 0.500000
Epoch 1
Validation auc = 0.607955
Epoch 2
Loss = 6.2553e-01, PNorm = 43.2636, GNorm = 25.5146, lr_0 = 9.0231e-04
Validation auc = 0.625000
Epoch 3
Validation auc = 0.738636
Epoch 4
Loss = 5.1861e-01, PNorm = 43.2708, GNorm = 2.4361, lr_0 = 7.1969e-04
Validation auc = 0.738636
Epoch 5
Validation auc = 0.823864
Epoch 6
Validation auc = 0.823864
Epoch 7
Loss = 4.1404e-01, PNorm = 43.2805, GNorm = 2.3173, lr_0 = 5.5090e-04
Validation auc = 0.801136
Epoch 8
Validation auc = 0.818182
Epoch 9
Loss = 4.9090e-01, PNorm = 43.2870, GNorm = 6.4016, lr_0 = 4.3940e-04
Validation auc = 0.812500
Epoch 10
Validation auc = 0.806818
Epoch 11
Loss = 5.0139e-01, PNorm = 43.2940, GNorm = 7.3844, lr_0 = 3.4333e-04
Validation auc = 0.829545
Epoch 12
Validation auc = 0.823864
Epoch 13
Validation auc = 0.823864
Epoch 14
Loss = 4.3097e-01, PNorm = 43.2985, GNorm = 5.2593, lr_0 = 2.6827e-04
Validation auc = 0.829545
Epoch 15
Validation auc = 0.835227
Epoch 16
Loss = 4.0158e-01, PNorm = 43.3021, GNorm = 3.8016, lr_0 = 2.1397e-04
Validation auc = 0.829545
Epoch 17
Validation auc = 0.846591
Epoch 18
Loss = 3.8649e-01, PNorm = 43.3059, GNorm = 2.9549, lr_0 = 1.6719e-04
Loss = 3.1533e-01, PNorm = 43.3061, GNorm = 6.3096, lr_0 = 1.6379e-04
Validation auc = 0.840909
Epoch 19
Validation auc = 0.852273
Epoch 20
Validation auc = 0.840909
Epoch 21
Loss = 5.0919e-01, PNorm = 43.3087, GNorm = 4.4903, lr_0 = 1.3064e-04
Validation auc = 0.840909
Epoch 22
Validation auc = 0.852273
Epoch 23
Loss = 3.4956e-01, PNorm = 43.3116, GNorm = 10.0077, lr_0 = 1.0208e-04
Validation auc = 0.840909
Epoch 24
Validation auc = 0.840909
Epoch 25
Loss = 3.5856e-01, PNorm = 43.3137, GNorm = 1.5256, lr_0 = 1.0000e-04
Loss = 2.1055e-01, PNorm = 43.3139, GNorm = 14.5110, lr_0 = 1.0000e-04
Validation auc = 0.846591
Epoch 26
Validation auc = 0.835227
Epoch 27
Validation auc = 0.846591
Epoch 28
Loss = 3.7065e-01, PNorm = 43.3159, GNorm = 3.3371, lr_0 = 1.0000e-04
Validation auc = 0.857955
Epoch 29
Validation auc = 0.846591
Model 0 best validation auc = 0.857955 on epoch 28
Loading pretrained parameter "encoder.encoder.0.cached_zero_vector".
Loading pretrained parameter "encoder.encoder.0.gc1.weight".
Loading pretrained parameter "encoder.encoder.0.gc1.bias".
Loading pretrained parameter "encoder.encoder.0.gc1.fc.weight".
Loading pretrained parameter "encoder.encoder.0.gc1.fc.bias".
Loading pretrained parameter "encoder.encoder.0.gc2.weight".
Loading pretrained parameter "encoder.encoder.0.gc2.bias".
Loading pretrained parameter "encoder.encoder.0.gc2.fc.weight".
Loading pretrained parameter "encoder.encoder.0.gc2.fc.bias".
Loading pretrained parameter "encoder.encoder.0.gc3.weight".
Loading pretrained parameter "encoder.encoder.0.gc3.bias".
Loading pretrained parameter "encoder.encoder.0.gc3.fc.weight".
Loading pretrained parameter "encoder.encoder.0.gc3.fc.bias".
Loading pretrained parameter "ffn.1.weight".
Loading pretrained parameter "ffn.1.bias".
Loading pretrained parameter "ffn.4.weight".
Loading pretrained parameter "ffn.4.bias".
Moving model to cuda
Model 0 test auc = 0.796053
Ensemble test auc = 0.796053
Fold 1
Splitting data with seed 1
Class sizes
0 0: 26.59%, 1: 73.41%
Total size = 267 | train size = 213 | val size = 27 | test size = 27
Building model 0
MoleculeModel(
  (sigmoid): Sigmoid()
  (encoder): GCN(
    (encoder): ModuleList(
      (0): GCNEncoder(
        (gc1): graphconvolution(
          (fc): Linear(in_features=133, out_features=300, bias=True)
        )
        (gc2): graphconvolution(
          (fc): Linear(in_features=300, out_features=300, bias=True)
        )
        (gc3): graphconvolution(
          (fc): Linear(in_features=300, out_features=300, bias=True)
        )
      )
    )
  )
  (ffn): Sequential(
    (0): Dropout(p=0.0, inplace=False)
    (1): Linear(in_features=300, out_features=300, bias=True)
    (2): ReLU()
    (3): Dropout(p=0.0, inplace=False)
    (4): Linear(in_features=300, out_features=1, bias=True)
  )
)
Number of parameters = 532,501
Moving model to cuda
Epoch 0
Validation auc = 0.567901
Epoch 1
Validation auc = 0.574074
Epoch 2
Loss = 1.1209e+00, PNorm = 43.2642, GNorm = 23.1170, lr_0 = 9.0231e-04
Validation auc = 0.882716
Epoch 3
Validation auc = 0.901235
Epoch 4
Loss = 5.3903e-01, PNorm = 43.2707, GNorm = 10.5269, lr_0 = 7.1969e-04
Validation auc = 0.913580
Epoch 5
Validation auc = 0.901235
Epoch 6
Validation auc = 0.962963
Epoch 7
Loss = 5.6534e-01, PNorm = 43.2783, GNorm = 3.3083, lr_0 = 5.5090e-04
Validation auc = 0.932099
Epoch 8
Validation auc = 0.962963
Epoch 9
Loss = 5.0957e-01, PNorm = 43.2840, GNorm = 5.0043, lr_0 = 4.3940e-04
Validation auc = 0.962963
Epoch 10
Validation auc = 0.962963
Epoch 11
Loss = 4.9514e-01, PNorm = 43.2893, GNorm = 4.7960, lr_0 = 3.4333e-04
Validation auc = 0.987654
Epoch 12
Validation auc = 0.962963
Epoch 13
Validation auc = 0.987654
Epoch 14
Loss = 4.5928e-01, PNorm = 43.2945, GNorm = 4.9714, lr_0 = 2.6827e-04
Validation auc = 0.987654
Epoch 15
Validation auc = 0.975309
Epoch 16
Loss = 3.8210e-01, PNorm = 43.2989, GNorm = 1.3483, lr_0 = 2.1397e-04
Validation auc = 0.981481
Epoch 17
Validation auc = 0.987654
Epoch 18
Loss = 4.2898e-01, PNorm = 43.3033, GNorm = 3.1986, lr_0 = 1.6719e-04
Loss = 4.3781e-01, PNorm = 43.3036, GNorm = 5.4925, lr_0 = 1.6379e-04
Validation auc = 1.000000
Epoch 19
Validation auc = 0.981481
Epoch 20
Validation auc = 0.981481
Epoch 21
Loss = 4.1829e-01, PNorm = 43.3072, GNorm = 2.1483, lr_0 = 1.3064e-04
Validation auc = 0.987654
Epoch 22
Validation auc = 0.987654
Epoch 23
Loss = 3.6841e-01, PNorm = 43.3109, GNorm = 2.3053, lr_0 = 1.0208e-04
Validation auc = 0.987654
Epoch 24
Validation auc = 0.987654
Epoch 25
Loss = 4.2332e-01, PNorm = 43.3132, GNorm = 5.0867, lr_0 = 1.0000e-04
Loss = 3.6669e-01, PNorm = 43.3135, GNorm = 2.9448, lr_0 = 1.0000e-04
Validation auc = 0.987654
Epoch 26
Validation auc = 0.987654
Epoch 27
Validation auc = 0.987654
Epoch 28
Loss = 4.2056e-01, PNorm = 43.3160, GNorm = 3.2942, lr_0 = 1.0000e-04
Validation auc = 0.987654
Epoch 29
Validation auc = 0.987654
Model 0 best validation auc = 1.000000 on epoch 18
Loading pretrained parameter "encoder.encoder.0.cached_zero_vector".
Loading pretrained parameter "encoder.encoder.0.gc1.weight".
Loading pretrained parameter "encoder.encoder.0.gc1.bias".
Loading pretrained parameter "encoder.encoder.0.gc1.fc.weight".
Loading pretrained parameter "encoder.encoder.0.gc1.fc.bias".
Loading pretrained parameter "encoder.encoder.0.gc2.weight".
Loading pretrained parameter "encoder.encoder.0.gc2.bias".
Loading pretrained parameter "encoder.encoder.0.gc2.fc.weight".
Loading pretrained parameter "encoder.encoder.0.gc2.fc.bias".
Loading pretrained parameter "encoder.encoder.0.gc3.weight".
Loading pretrained parameter "encoder.encoder.0.gc3.bias".
Loading pretrained parameter "encoder.encoder.0.gc3.fc.weight".
Loading pretrained parameter "encoder.encoder.0.gc3.fc.bias".
Loading pretrained parameter "ffn.1.weight".
Loading pretrained parameter "ffn.1.bias".
Loading pretrained parameter "ffn.4.weight".
Loading pretrained parameter "ffn.4.bias".
Moving model to cuda
Model 0 test auc = 0.757143
Ensemble test auc = 0.757143
Fold 2
Splitting data with seed 2
Class sizes
0 0: 26.59%, 1: 73.41%
Total size = 267 | train size = 213 | val size = 27 | test size = 27
Building model 0
MoleculeModel(
  (sigmoid): Sigmoid()
  (encoder): GCN(
    (encoder): ModuleList(
      (0): GCNEncoder(
        (gc1): graphconvolution(
          (fc): Linear(in_features=133, out_features=300, bias=True)
        )
        (gc2): graphconvolution(
          (fc): Linear(in_features=300, out_features=300, bias=True)
        )
        (gc3): graphconvolution(
          (fc): Linear(in_features=300, out_features=300, bias=True)
        )
      )
    )
  )
  (ffn): Sequential(
    (0): Dropout(p=0.0, inplace=False)
    (1): Linear(in_features=300, out_features=300, bias=True)
    (2): ReLU()
    (3): Dropout(p=0.0, inplace=False)
    (4): Linear(in_features=300, out_features=1, bias=True)
  )
)
Number of parameters = 532,501
Moving model to cuda
Epoch 0
Validation auc = 0.785714
Epoch 1
Validation auc = 0.698413
Epoch 2
Loss = 6.9350e-01, PNorm = 43.2639, GNorm = 13.2870, lr_0 = 9.0231e-04
Validation auc = 0.769841
Epoch 3
Validation auc = 0.452381
Epoch 4
Loss = 6.1567e-01, PNorm = 43.2712, GNorm = 4.6141, lr_0 = 7.1969e-04
Validation auc = 0.674603
Epoch 5
Validation auc = 0.539683
Epoch 6
Validation auc = 0.706349
Epoch 7
Loss = 6.1003e-01, PNorm = 43.2795, GNorm = 5.6684, lr_0 = 5.5090e-04
Validation auc = 0.690476
Epoch 8
Validation auc = 0.722222
Epoch 9
Loss = 5.2500e-01, PNorm = 43.2870, GNorm = 2.4305, lr_0 = 4.3940e-04
Validation auc = 0.753968
Epoch 10
Validation auc = 0.746032
Epoch 11
Loss = 4.9167e-01, PNorm = 43.2961, GNorm = 8.1353, lr_0 = 3.4333e-04
Validation auc = 0.880952
Epoch 12
Validation auc = 0.880952
Epoch 13
Validation auc = 0.753968
Epoch 14
Loss = 4.2838e-01, PNorm = 43.3032, GNorm = 4.1458, lr_0 = 2.6827e-04
Validation auc = 0.841270
Epoch 15
Validation auc = 0.912698
Epoch 16
Loss = 4.5680e-01, PNorm = 43.3092, GNorm = 6.8008, lr_0 = 2.1397e-04
Validation auc = 0.896825
Epoch 17
Validation auc = 0.825397
Epoch 18
Loss = 4.4761e-01, PNorm = 43.3124, GNorm = 5.5901, lr_0 = 1.6719e-04
Loss = 6.8833e-01, PNorm = 43.3127, GNorm = 14.3413, lr_0 = 1.6379e-04
Validation auc = 0.769841
Epoch 19
Validation auc = 0.865079
Epoch 20
Validation auc = 0.896825
Epoch 21
Loss = 3.7903e-01, PNorm = 43.3163, GNorm = 2.0742, lr_0 = 1.3064e-04
Validation auc = 0.880952
Epoch 22
Validation auc = 0.904762
Epoch 23
Loss = 4.3920e-01, PNorm = 43.3194, GNorm = 1.3480, lr_0 = 1.0208e-04
Validation auc = 0.849206
Epoch 24
Validation auc = 0.857143
Epoch 25
Loss = 4.1439e-01, PNorm = 43.3224, GNorm = 4.7772, lr_0 = 1.0000e-04
Loss = 4.6071e-01, PNorm = 43.3226, GNorm = 5.2610, lr_0 = 1.0000e-04
Validation auc = 0.873016
Epoch 26
Validation auc = 0.888889
Epoch 27
Validation auc = 0.896825
Epoch 28
Loss = 4.8893e-01, PNorm = 43.3259, GNorm = 8.1344, lr_0 = 1.0000e-04
Validation auc = 0.904762
Epoch 29
Validation auc = 0.888889
Model 0 best validation auc = 0.912698 on epoch 15
Loading pretrained parameter "encoder.encoder.0.cached_zero_vector".
Loading pretrained parameter "encoder.encoder.0.gc1.weight".
Loading pretrained parameter "encoder.encoder.0.gc1.bias".
Loading pretrained parameter "encoder.encoder.0.gc1.fc.weight".
Loading pretrained parameter "encoder.encoder.0.gc1.fc.bias".
Loading pretrained parameter "encoder.encoder.0.gc2.weight".
Loading pretrained parameter "encoder.encoder.0.gc2.bias".
Loading pretrained parameter "encoder.encoder.0.gc2.fc.weight".
Loading pretrained parameter "encoder.encoder.0.gc2.fc.bias".
Loading pretrained parameter "encoder.encoder.0.gc3.weight".
Loading pretrained parameter "encoder.encoder.0.gc3.bias".
Loading pretrained parameter "encoder.encoder.0.gc3.fc.weight".
Loading pretrained parameter "encoder.encoder.0.gc3.fc.bias".
Loading pretrained parameter "ffn.1.weight".
Loading pretrained parameter "ffn.1.bias".
Loading pretrained parameter "ffn.4.weight".
Loading pretrained parameter "ffn.4.bias".
Moving model to cuda
Model 0 test auc = 0.870588
Ensemble test auc = 0.870588
3-fold cross validation
	Seed 0 ==> test auc = 0.796053
	Seed 1 ==> test auc = 0.757143
	Seed 2 ==> test auc = 0.870588
Overall test auc = 0.807928 +/- 0.047069
