Command line
python main.py
Args
{'activation': 'ReLU',
 'adding_h': False,
 'aggregation': 'mean',
 'aggregation_norm': 100,
 'atom_descriptor_scaling': True,
 'atom_descriptors': None,
 'atom_descriptors_path': None,
 'atom_descriptors_size': 0,
 'atom_features_size': 0,
 'atom_messages': False,
 'batch_size': 50,
 'bias': False,
 'bias_solvent': False,
 'bond_feature_scaling': True,
 'bond_features_path': None,
 'bond_features_size': 0,
 'cache_cutoff': 10000,
 'checkpoint_dir': None,
 'checkpoint_frzn': None,
 'checkpoint_path': None,
 'checkpoint_paths': None,
 'class_balance': False,
 'config_path': None,
 'crossval_index_dir': None,
 'crossval_index_file': None,
 'crossval_index_sets': None,
 'cuda': True,
 'data_path': './data/HDM/KDM1A.csv',
 'data_weights_path': None,
 'dataset_type': 'classification',
 'depth': 3,
 'depth_solvent': 3,
 'device': device(type='cuda'),
 'dropout': 0.0,
 'empty_cache': False,
 'ensemble_size': 1,
 'epochs': 30,
 'evidential_regularization': 0,
 'explicit_h': False,
 'extra_metrics': [],
 'features_generator': None,
 'features_only': False,
 'features_path': None,
 'features_scaling': True,
 'features_size': None,
 'ffn_hidden_size': 300,
 'ffn_num_layers': 2,
 'final_lr': 0.0001,
 'folds_file': None,
 'frac_order': 1.0,
 'freeze_first_only': False,
 'frzn_ffn_layers': 0,
 'gpu': None,
 'grad_clip': None,
 'hidden_size': 300,
 'hidden_size_solvent': 300,
 'ignore_columns': None,
 'init_lr': 0.0001,
 'log_frequency': 10,
 'loss_function': 'binary_cross_entropy',
 'max_data_size': None,
 'max_lr': 0.001,
 'metric': 'auc',
 'metrics': ['auc'],
 'minimize_score': False,
 'model_name': 'MPN',
 'mpn_shared': False,
 'multiclass_num_classes': 3,
 'no_atom_descriptor_scaling': False,
 'no_bond_features_scaling': False,
 'no_cache_mol': False,
 'no_cuda': False,
 'no_features_scaling': False,
 'num_folds': 3,
 'num_lrs': 1,
 'num_tasks': 1,
 'num_workers': 8,
 'number_of_molecules': 1,
 'optimizer': 'SGD',
 'overwrite_default_atom_features': False,
 'overwrite_default_bond_features': False,
 'phase_features_path': None,
 'pytorch_seed': 0,
 'quiet': False,
 'reaction': False,
 'reaction_mode': 'reac_diff',
 'reaction_solvent': False,
 'resume_experiment': False,
 'save_dir': './result/classification/HDM/KDM1A/MPN/SGD/1.0',
 'save_preds': True,
 'save_smiles_splits': False,
 'seed': 0,
 'separate_test_atom_descriptors_path': None,
 'separate_test_bond_features_path': None,
 'separate_test_features_path': None,
 'separate_test_path': None,
 'separate_test_phase_features_path': None,
 'separate_val_atom_descriptors_path': None,
 'separate_val_bond_features_path': None,
 'separate_val_features_path': None,
 'separate_val_path': None,
 'separate_val_phase_features_path': None,
 'show_individual_scores': False,
 'smiles_columns': ['N[C@H]1CC[C@H](N[C@@H]2C[C@H]2c2ccccc2)CC1'],
 'spectra_activation': 'exp',
 'spectra_phase_mask_path': None,
 'spectra_target_floor': 1e-08,
 'split_key_molecule': 0,
 'split_sizes': [0.8, 0.1, 0.1],
 'split_type': 'random',
 'target_columns': None,
 'target_weights': None,
 'task_names': ['1'],
 'test': False,
 'test_fold_index': None,
 'train_data_size': None,
 'undirected': False,
 'use_input_features': False,
 'val_fold_index': None,
 'warmup_epochs': 2.0}
Setting molecule featurization parameters to default.
Loading data
Number of tasks = 1
Fold 0
Splitting data with seed 0
Class sizes
1 0: 26.23%, 1: 73.77%
Total size = 446 | train size = 356 | val size = 45 | test size = 45
Building model 0
MoleculeModel(
  (sigmoid): Sigmoid()
  (encoder): MPN(
    (encoder): ModuleList(
      (0): MPNEncoder(
        (dropout_layer): Dropout(p=0.0, inplace=False)
        (act_func): ReLU()
        (W_i): Linear(in_features=147, out_features=300, bias=False)
        (W_h): Linear(in_features=300, out_features=300, bias=False)
        (W_o): Linear(in_features=433, out_features=300, bias=True)
      )
    )
  )
  (ffn): Sequential(
    (0): Dropout(p=0.0, inplace=False)
    (1): Linear(in_features=300, out_features=300, bias=True)
    (2): ReLU()
    (3): Dropout(p=0.0, inplace=False)
    (4): Linear(in_features=300, out_features=1, bias=True)
  )
)
Number of parameters = 355,201
Moving model to cuda
Epoch 0
Validation auc = 0.496914
Epoch 1
Loss = 6.7359e-01, PNorm = 34.0103, GNorm = 1.7856, lr_0 = 8.7143e-04
Validation auc = 0.512346
Epoch 2
Loss = 6.4234e-01, PNorm = 34.0104, GNorm = 1.4767, lr_0 = 8.9967e-04
Validation auc = 0.564815
Epoch 3
Validation auc = 0.580247
Epoch 4
Loss = 6.1102e-01, PNorm = 34.0105, GNorm = 0.9180, lr_0 = 7.8137e-04
Validation auc = 0.586420
Epoch 5
Loss = 6.2006e-01, PNorm = 34.0106, GNorm = 1.5554, lr_0 = 6.8665e-04
Validation auc = 0.601852
Epoch 6
Validation auc = 0.614198
Epoch 7
Loss = 6.2754e-01, PNorm = 34.0106, GNorm = 0.5070, lr_0 = 5.9636e-04
Validation auc = 0.620370
Epoch 8
Loss = 6.0051e-01, PNorm = 34.0107, GNorm = 0.7619, lr_0 = 5.2407e-04
Validation auc = 0.620370
Epoch 9
Loss = 5.8997e-01, PNorm = 34.0107, GNorm = 1.2187, lr_0 = 4.6598e-04
Validation auc = 0.641975
Epoch 10
Validation auc = 0.641975
Epoch 11
Loss = 5.4614e-01, PNorm = 34.0108, GNorm = 0.9834, lr_0 = 4.0471e-04
Validation auc = 0.651235
Epoch 12
Loss = 5.6061e-01, PNorm = 34.0108, GNorm = 0.6842, lr_0 = 3.5565e-04
Validation auc = 0.654321
Epoch 13
Validation auc = 0.651235
Epoch 14
Loss = 6.5707e-01, PNorm = 34.0108, GNorm = 0.8020, lr_0 = 3.0888e-04
Validation auc = 0.660494
Epoch 15
Loss = 5.9891e-01, PNorm = 34.0109, GNorm = 0.4371, lr_0 = 2.7144e-04
Validation auc = 0.660494
Epoch 16
Loss = 5.7898e-01, PNorm = 34.0109, GNorm = 1.2290, lr_0 = 2.3853e-04
Validation auc = 0.663580
Epoch 17
Validation auc = 0.669753
Epoch 18
Loss = 5.5858e-01, PNorm = 34.0109, GNorm = 0.4967, lr_0 = 2.0962e-04
Validation auc = 0.675926
Epoch 19
Loss = 6.0635e-01, PNorm = 34.0109, GNorm = 0.7196, lr_0 = 1.8421e-04
Validation auc = 0.675926
Epoch 20
Validation auc = 0.675926
Epoch 21
Loss = 6.4167e-01, PNorm = 34.0109, GNorm = 0.6116, lr_0 = 1.5999e-04
Validation auc = 0.675926
Epoch 22
Loss = 5.9406e-01, PNorm = 34.0109, GNorm = 0.6766, lr_0 = 1.4059e-04
Validation auc = 0.679012
Epoch 23
Loss = 5.7919e-01, PNorm = 34.0109, GNorm = 0.6567, lr_0 = 1.2355e-04
Loss = 5.1261e-01, PNorm = 34.0109, GNorm = 1.4286, lr_0 = 1.2211e-04
Validation auc = 0.679012
Epoch 24
Validation auc = 0.682099
Epoch 25
Loss = 5.9187e-01, PNorm = 34.0109, GNorm = 0.9733, lr_0 = 1.0857e-04
Validation auc = 0.685185
Epoch 26
Loss = 5.6914e-01, PNorm = 34.0110, GNorm = 0.7780, lr_0 = 1.0000e-04
Validation auc = 0.685185
Epoch 27
Validation auc = 0.688272
Epoch 28
Loss = 5.9203e-01, PNorm = 34.0110, GNorm = 0.3801, lr_0 = 1.0000e-04
Validation auc = 0.688272
Epoch 29
Loss = 5.6346e-01, PNorm = 34.0110, GNorm = 0.5376, lr_0 = 1.0000e-04
Validation auc = 0.688272
Model 0 best validation auc = 0.688272 on epoch 27
Loading pretrained parameter "encoder.encoder.0.cached_zero_vector".
Loading pretrained parameter "encoder.encoder.0.W_i.weight".
Loading pretrained parameter "encoder.encoder.0.W_h.weight".
Loading pretrained parameter "encoder.encoder.0.W_o.weight".
Loading pretrained parameter "encoder.encoder.0.W_o.bias".
Loading pretrained parameter "ffn.1.weight".
Loading pretrained parameter "ffn.1.bias".
Loading pretrained parameter "ffn.4.weight".
Loading pretrained parameter "ffn.4.bias".
Moving model to cuda
Model 0 test auc = 0.791429
Ensemble test auc = 0.791429
Fold 1
Splitting data with seed 1
Class sizes
1 0: 26.23%, 1: 73.77%
Total size = 446 | train size = 356 | val size = 45 | test size = 45
Building model 0
MoleculeModel(
  (sigmoid): Sigmoid()
  (encoder): MPN(
    (encoder): ModuleList(
      (0): MPNEncoder(
        (dropout_layer): Dropout(p=0.0, inplace=False)
        (act_func): ReLU()
        (W_i): Linear(in_features=147, out_features=300, bias=False)
        (W_h): Linear(in_features=300, out_features=300, bias=False)
        (W_o): Linear(in_features=433, out_features=300, bias=True)
      )
    )
  )
  (ffn): Sequential(
    (0): Dropout(p=0.0, inplace=False)
    (1): Linear(in_features=300, out_features=300, bias=True)
    (2): ReLU()
    (3): Dropout(p=0.0, inplace=False)
    (4): Linear(in_features=300, out_features=1, bias=True)
  )
)
Number of parameters = 355,201
Moving model to cuda
Epoch 0
Validation auc = 0.477143
Epoch 1
Loss = 6.6837e-01, PNorm = 34.0103, GNorm = 2.0096, lr_0 = 8.7143e-04
Validation auc = 0.531429
Epoch 2
Loss = 6.4288e-01, PNorm = 34.0104, GNorm = 2.0265, lr_0 = 8.9967e-04
Validation auc = 0.540000
Epoch 3
Validation auc = 0.565714
Epoch 4
Loss = 6.0004e-01, PNorm = 34.0105, GNorm = 1.7624, lr_0 = 7.8137e-04
Validation auc = 0.571429
Epoch 5
Loss = 6.0298e-01, PNorm = 34.0106, GNorm = 0.7306, lr_0 = 6.8665e-04
Validation auc = 0.591429
Epoch 6
Validation auc = 0.594286
Epoch 7
Loss = 5.8712e-01, PNorm = 34.0106, GNorm = 1.0180, lr_0 = 5.9636e-04
Validation auc = 0.602857
Epoch 8
Loss = 5.9498e-01, PNorm = 34.0107, GNorm = 0.7830, lr_0 = 5.2407e-04
Validation auc = 0.605714
Epoch 9
Loss = 5.8965e-01, PNorm = 34.0107, GNorm = 0.6822, lr_0 = 4.6598e-04
Validation auc = 0.617143
Epoch 10
Validation auc = 0.622857
Epoch 11
Loss = 5.8441e-01, PNorm = 34.0108, GNorm = 0.9022, lr_0 = 4.0471e-04
Validation auc = 0.622857
Epoch 12
Loss = 5.8818e-01, PNorm = 34.0108, GNorm = 0.9327, lr_0 = 3.5565e-04
Validation auc = 0.617143
Epoch 13
Validation auc = 0.620000
Epoch 14
Loss = 5.8789e-01, PNorm = 34.0108, GNorm = 0.6498, lr_0 = 3.0888e-04
Validation auc = 0.622857
Epoch 15
Loss = 5.5316e-01, PNorm = 34.0109, GNorm = 1.3933, lr_0 = 2.7144e-04
Validation auc = 0.631429
Epoch 16
Loss = 5.7511e-01, PNorm = 34.0109, GNorm = 0.4356, lr_0 = 2.3853e-04
Validation auc = 0.634286
Epoch 17
Validation auc = 0.637143
Epoch 18
Loss = 5.7754e-01, PNorm = 34.0109, GNorm = 0.5085, lr_0 = 2.0962e-04
Validation auc = 0.637143
Epoch 19
Loss = 5.8735e-01, PNorm = 34.0109, GNorm = 0.9698, lr_0 = 1.8421e-04
Validation auc = 0.637143
Epoch 20
Validation auc = 0.637143
Epoch 21
Loss = 6.0332e-01, PNorm = 34.0109, GNorm = 0.4018, lr_0 = 1.5999e-04
Validation auc = 0.637143
Epoch 22
Loss = 5.6411e-01, PNorm = 34.0110, GNorm = 0.5540, lr_0 = 1.4059e-04
Validation auc = 0.637143
Epoch 23
Loss = 5.7360e-01, PNorm = 34.0110, GNorm = 1.1071, lr_0 = 1.2355e-04
Loss = 4.8567e-01, PNorm = 34.0110, GNorm = 1.5634, lr_0 = 1.2211e-04
Validation auc = 0.637143
Epoch 24
Validation auc = 0.637143
Epoch 25
Loss = 6.2093e-01, PNorm = 34.0110, GNorm = 0.7554, lr_0 = 1.0857e-04
Validation auc = 0.637143
Epoch 26
Loss = 5.8722e-01, PNorm = 34.0110, GNorm = 0.9072, lr_0 = 1.0000e-04
Validation auc = 0.637143
Epoch 27
Validation auc = 0.637143
Epoch 28
Loss = 5.8091e-01, PNorm = 34.0110, GNorm = 0.4672, lr_0 = 1.0000e-04
Validation auc = 0.637143
Epoch 29
Loss = 5.7127e-01, PNorm = 34.0110, GNorm = 0.4913, lr_0 = 1.0000e-04
Validation auc = 0.637143
Model 0 best validation auc = 0.637143 on epoch 17
Loading pretrained parameter "encoder.encoder.0.cached_zero_vector".
Loading pretrained parameter "encoder.encoder.0.W_i.weight".
Loading pretrained parameter "encoder.encoder.0.W_h.weight".
Loading pretrained parameter "encoder.encoder.0.W_o.weight".
Loading pretrained parameter "encoder.encoder.0.W_o.bias".
Loading pretrained parameter "ffn.1.weight".
Loading pretrained parameter "ffn.1.bias".
Loading pretrained parameter "ffn.4.weight".
Loading pretrained parameter "ffn.4.bias".
Moving model to cuda
Model 0 test auc = 0.828877
Ensemble test auc = 0.828877
Fold 2
Splitting data with seed 2
Class sizes
1 0: 26.23%, 1: 73.77%
Total size = 446 | train size = 356 | val size = 45 | test size = 45
Building model 0
MoleculeModel(
  (sigmoid): Sigmoid()
  (encoder): MPN(
    (encoder): ModuleList(
      (0): MPNEncoder(
        (dropout_layer): Dropout(p=0.0, inplace=False)
        (act_func): ReLU()
        (W_i): Linear(in_features=147, out_features=300, bias=False)
        (W_h): Linear(in_features=300, out_features=300, bias=False)
        (W_o): Linear(in_features=433, out_features=300, bias=True)
      )
    )
  )
  (ffn): Sequential(
    (0): Dropout(p=0.0, inplace=False)
    (1): Linear(in_features=300, out_features=300, bias=True)
    (2): ReLU()
    (3): Dropout(p=0.0, inplace=False)
    (4): Linear(in_features=300, out_features=1, bias=True)
  )
)
Number of parameters = 355,201
Moving model to cuda
Epoch 0
Validation auc = 0.490741
Epoch 1
Loss = 6.7367e-01, PNorm = 34.0103, GNorm = 1.7297, lr_0 = 8.7143e-04
Validation auc = 0.521605
Epoch 2
Loss = 6.4649e-01, PNorm = 34.0104, GNorm = 0.4790, lr_0 = 8.9967e-04
Validation auc = 0.549383
Epoch 3
Validation auc = 0.577160
Epoch 4
Loss = 6.0859e-01, PNorm = 34.0105, GNorm = 2.5001, lr_0 = 7.8137e-04
Validation auc = 0.598765
Epoch 5
Loss = 6.0227e-01, PNorm = 34.0105, GNorm = 1.0759, lr_0 = 6.8665e-04
Validation auc = 0.617284
Epoch 6
Validation auc = 0.626543
Epoch 7
Loss = 6.1818e-01, PNorm = 34.0106, GNorm = 0.7248, lr_0 = 5.9636e-04
Validation auc = 0.641975
Epoch 8
Loss = 5.9962e-01, PNorm = 34.0106, GNorm = 0.4298, lr_0 = 5.2407e-04
Validation auc = 0.657407
Epoch 9
Loss = 5.9875e-01, PNorm = 34.0107, GNorm = 0.6005, lr_0 = 4.6598e-04
Validation auc = 0.657407
Epoch 10
Validation auc = 0.666667
Epoch 11
Loss = 5.7572e-01, PNorm = 34.0107, GNorm = 0.7192, lr_0 = 4.0471e-04
Validation auc = 0.666667
Epoch 12
Loss = 5.9515e-01, PNorm = 34.0108, GNorm = 0.8842, lr_0 = 3.5565e-04
Validation auc = 0.666667
Epoch 13
Validation auc = 0.675926
Epoch 14
Loss = 5.4213e-01, PNorm = 34.0108, GNorm = 1.2840, lr_0 = 3.0888e-04
Validation auc = 0.682099
Epoch 15
Loss = 6.0496e-01, PNorm = 34.0108, GNorm = 0.6913, lr_0 = 2.7144e-04
Validation auc = 0.688272
Epoch 16
Loss = 5.8627e-01, PNorm = 34.0108, GNorm = 0.6692, lr_0 = 2.3853e-04
Validation auc = 0.694444
Epoch 17
Validation auc = 0.697531
Epoch 18
Loss = 5.8143e-01, PNorm = 34.0108, GNorm = 0.7224, lr_0 = 2.0962e-04
Validation auc = 0.703704
Epoch 19
Loss = 5.7700e-01, PNorm = 34.0108, GNorm = 0.6059, lr_0 = 1.8421e-04
Validation auc = 0.703704
Epoch 20
Validation auc = 0.703704
Epoch 21
Loss = 5.8566e-01, PNorm = 34.0109, GNorm = 0.5463, lr_0 = 1.5999e-04
Validation auc = 0.703704
Epoch 22
Loss = 5.9304e-01, PNorm = 34.0109, GNorm = 0.7613, lr_0 = 1.4059e-04
Validation auc = 0.709877
Epoch 23
Loss = 5.8523e-01, PNorm = 34.0109, GNorm = 1.2795, lr_0 = 1.2355e-04
Loss = 4.8584e-01, PNorm = 34.0109, GNorm = 1.6670, lr_0 = 1.2211e-04
Validation auc = 0.712963
Epoch 24
Validation auc = 0.716049
Epoch 25
Loss = 5.7295e-01, PNorm = 34.0109, GNorm = 0.8969, lr_0 = 1.0857e-04
Validation auc = 0.719136
Epoch 26
Loss = 5.9004e-01, PNorm = 34.0109, GNorm = 0.6596, lr_0 = 1.0000e-04
Validation auc = 0.719136
Epoch 27
Validation auc = 0.719136
Epoch 28
Loss = 5.0656e-01, PNorm = 34.0109, GNorm = 1.3800, lr_0 = 1.0000e-04
Validation auc = 0.719136
Epoch 29
Loss = 5.9918e-01, PNorm = 34.0109, GNorm = 0.5314, lr_0 = 1.0000e-04
Validation auc = 0.716049
Model 0 best validation auc = 0.719136 on epoch 25
Loading pretrained parameter "encoder.encoder.0.cached_zero_vector".
Loading pretrained parameter "encoder.encoder.0.W_i.weight".
Loading pretrained parameter "encoder.encoder.0.W_h.weight".
Loading pretrained parameter "encoder.encoder.0.W_o.weight".
Loading pretrained parameter "encoder.encoder.0.W_o.bias".
Loading pretrained parameter "ffn.1.weight".
Loading pretrained parameter "ffn.1.bias".
Loading pretrained parameter "ffn.4.weight".
Loading pretrained parameter "ffn.4.bias".
Moving model to cuda
Model 0 test auc = 0.636824
Ensemble test auc = 0.636824
3-fold cross validation
	Seed 0 ==> test auc = 0.791429
	Seed 1 ==> test auc = 0.828877
	Seed 2 ==> test auc = 0.636824
Overall test auc = 0.752377 +/- 0.083126
