Fold 0
Model 0 best validation auc = 0.767241 on epoch 16
Model 0 test auc = 0.862981
Ensemble test auc = 0.862981
Fold 1
Model 0 best validation auc = 0.825641 on epoch 23
Model 0 test auc = 0.846914
Ensemble test auc = 0.846914
Fold 2
Model 0 best validation auc = 0.922705 on epoch 17
Model 0 test auc = 0.811671
Ensemble test auc = 0.811671
3-fold cross validation
	Seed 0 ==> test auc = 0.862981
	Seed 1 ==> test auc = 0.846914
	Seed 2 ==> test auc = 0.811671
Overall test auc = 0.840522 +/- 0.021429
