Fold 0
Model 0 best validation auc = 0.652893 on epoch 0
Model 0 test auc = 0.453846
Ensemble test auc = 0.453846
Fold 1
Model 0 best validation auc = 0.685950 on epoch 2
Model 0 test auc = 0.553846
Ensemble test auc = 0.553846
Fold 2
Model 0 best validation auc = 0.535714 on epoch 0
Model 0 test auc = 0.730159
Ensemble test auc = 0.730159
3-fold cross validation
	Seed 0 ==> test auc = 0.453846
	Seed 1 ==> test auc = 0.553846
	Seed 2 ==> test auc = 0.730159
Overall test auc = 0.579284 +/- 0.114229
