Fold 0
Model 0 best validation auc = 1.000000 on epoch 5
Model 0 test auc = 0.933333
Ensemble test auc = 0.933333
Fold 1
Model 0 best validation auc = 1.000000 on epoch 2
Model 0 test auc = 0.820513
Ensemble test auc = 0.820513
Fold 2
Model 0 best validation auc = 0.836364 on epoch 2
Model 0 test auc = 0.854167
Ensemble test auc = 0.854167
3-fold cross validation
	Seed 0 ==> test auc = 0.933333
	Seed 1 ==> test auc = 0.820513
	Seed 2 ==> test auc = 0.854167
Overall test auc = 0.869338 +/- 0.047292
