{
    "activation": "ReLU",
    "adding_h": false,
    "aggregation": "mean",
    "aggregation_norm": 100,
    "atom_descriptor_scaling": true,
    "atom_descriptors": null,
    "atom_descriptors_path": null,
    "atom_descriptors_size": 0,
    "atom_features_size": 0,
    "atom_messages": false,
    "batch_size": 50,
    "bias": false,
    "bias_solvent": false,
    "bond_feature_scaling": true,
    "bond_features_path": null,
    "bond_features_size": 0,
    "cache_cutoff": 10000,
    "checkpoint_dir": null,
    "checkpoint_frzn": null,
    "checkpoint_path": null,
    "checkpoint_paths": null,
    "class_balance": false,
    "config_path": null,
    "crossval_index_dir": null,
    "crossval_index_file": null,
    "crossval_index_sets": null,
    "cuda": true,
    "data_path": "./data/HDM/SIRT1.csv",
    "data_weights_path": null,
    "dataset_type": "classification",
    "depth": 3,
    "depth_solvent": 3,
    "device": {
        "_type": "python_object (type = device)",
        "_value": "gANjdG9yY2gKZGV2aWNlCnEAWAQAAABjdWRhcQGFcQJScQMu"
    },
    "dropout": 0.0,
    "empty_cache": false,
    "ensemble_size": 1,
    "epochs": 30,
    "evidential_regularization": 0,
    "explicit_h": false,
    "extra_metrics": [],
    "features_generator": null,
    "features_only": false,
    "features_path": null,
    "features_scaling": true,
    "features_size": null,
    "ffn_hidden_size": 300,
    "ffn_num_layers": 2,
    "final_lr": 0.0001,
    "folds_file": null,
    "frac_order": 1.0,
    "freeze_first_only": false,
    "frzn_ffn_layers": 0,
    "gpu": null,
    "grad_clip": null,
    "hidden_size": 300,
    "hidden_size_solvent": 300,
    "ignore_columns": null,
    "init_lr": 0.0001,
    "log_frequency": 10,
    "loss_function": "binary_cross_entropy",
    "max_data_size": null,
    "max_lr": 0.001,
    "metric": "auc",
    "metrics": [
        "auc"
    ],
    "minimize_score": false,
    "model_name": "GGNN",
    "mpn_shared": false,
    "multiclass_num_classes": 3,
    "no_atom_descriptor_scaling": false,
    "no_bond_features_scaling": false,
    "no_cache_mol": false,
    "no_cuda": false,
    "no_features_scaling": false,
    "num_folds": 3,
    "num_lrs": 1,
    "num_tasks": 1,
    "num_workers": 8,
    "number_of_molecules": 1,
    "optimizer": "Adam",
    "overwrite_default_atom_features": false,
    "overwrite_default_bond_features": false,
    "phase_features_path": null,
    "pytorch_seed": 0,
    "quiet": false,
    "reaction": false,
    "reaction_mode": "reac_diff",
    "reaction_solvent": false,
    "reproducibility": {
        "command_line": "python main.py",
        "git_has_uncommitted_changes": true,
        "git_root": "/home/taojianlong/chemprop",
        "git_url": "https://gitlab.com/Crayon112/chemprop/tree/fef26f114bd386d7864183e66f6f171571336ddd",
        "time": "Sat Jul 30 13:10:02 2022"
    },
    "resume_experiment": false,
    "save_dir": "./result/classification/HDM/SIRT1/GGNN/Adam/1.0/fold_2",
    "save_preds": true,
    "save_smiles_splits": false,
    "seed": 2,
    "separate_test_atom_descriptors_path": null,
    "separate_test_bond_features_path": null,
    "separate_test_features_path": null,
    "separate_test_path": null,
    "separate_test_phase_features_path": null,
    "separate_val_atom_descriptors_path": null,
    "separate_val_bond_features_path": null,
    "separate_val_features_path": null,
    "separate_val_path": null,
    "separate_val_phase_features_path": null,
    "show_individual_scores": false,
    "smiles_columns": [
        "O=C1Nc2c(ccc(Cl)c2Cl)/C1=C/c1cc(Br)c(O)c(Br)c1"
    ],
    "spectra_activation": "exp",
    "spectra_phase_mask": null,
    "spectra_phase_mask_path": null,
    "spectra_target_floor": 1e-08,
    "split_key_molecule": 0,
    "split_sizes": [
        0.8,
        0.1,
        0.1
    ],
    "split_type": "random",
    "target_columns": null,
    "target_weights": null,
    "task_names": [
        "0"
    ],
    "test": false,
    "test_fold_index": null,
    "train_class_sizes": [
        [
            221,
            109
        ]
    ],
    "train_data_size": 330,
    "undirected": false,
    "use_input_features": false,
    "val_fold_index": null,
    "warmup_epochs": 2.0
}